%!PS-Adobe-3.0 EPSF-3.0
%%Creator: (MATLAB, The Mathworks, Inc. Version 9.13.0.2166757 \(R2022b\) Update 4. Operating System: Linux)
%%Title: figuras/paso_por_cero.eps
%%CreationDate: 2023-05-19T23:38:43
%%Pages: (atend)
%%BoundingBox:     2     0  1441   744
%%LanguageLevel: 3
%%EndComments
%%BeginProlog
%%BeginResource: procset (Apache XML Graphics Std ProcSet) 1.2 0
%%Version: 1.2 0
%%Copyright: (Copyright 2001-2003,2010 The Apache Software Foundation. License terms: http://www.apache.org/licenses/LICENSE-2.0)
/bd{bind def}bind def
/ld{load def}bd
/GR/grestore ld
/GS/gsave ld
/RM/rmoveto ld
/C/curveto ld
/t/show ld
/L/lineto ld
/ML/setmiterlimit ld
/CT/concat ld
/f/fill ld
/N/newpath ld
/S/stroke ld
/CC/setcmykcolor ld
/A/ashow ld
/cp/closepath ld
/RC/setrgbcolor ld
/LJ/setlinejoin ld
/GC/setgray ld
/LW/setlinewidth ld
/M/moveto ld
/re {4 2 roll M
1 index 0 rlineto
0 exch rlineto
neg 0 rlineto
cp } bd
/_ctm matrix def
/_tm matrix def
/BT { _ctm currentmatrix pop matrix _tm copy pop 0 0 moveto } bd
/ET { _ctm setmatrix } bd
/iTm { _ctm setmatrix _tm concat } bd
/Tm { _tm astore pop iTm 0 0 moveto } bd
/ux 0.0 def
/uy 0.0 def
/F {
  /Tp exch def
  /Tf exch def
  Tf findfont Tp scalefont setfont
  /cf Tf def  /cs Tp def
} bd
/ULS {currentpoint /uy exch def /ux exch def} bd
/ULE {
  /Tcx currentpoint pop def
  gsave
  newpath
  cf findfont cs scalefont dup
  /FontMatrix get 0 get /Ts exch def /FontInfo get dup
  /UnderlinePosition get Ts mul /To exch def
  /UnderlineThickness get Ts mul /Tt exch def
  ux uy To add moveto  Tcx uy To add lineto
  Tt setlinewidth stroke
  grestore
} bd
/OLE {
  /Tcx currentpoint pop def
  gsave
  newpath
  cf findfont cs scalefont dup
  /FontMatrix get 0 get /Ts exch def /FontInfo get dup
  /UnderlinePosition get Ts mul /To exch def
  /UnderlineThickness get Ts mul /Tt exch def
  ux uy To add cs add moveto Tcx uy To add cs add lineto
  Tt setlinewidth stroke
  grestore
} bd
/SOE {
  /Tcx currentpoint pop def
  gsave
  newpath
  cf findfont cs scalefont dup
  /FontMatrix get 0 get /Ts exch def /FontInfo get dup
  /UnderlinePosition get Ts mul /To exch def
  /UnderlineThickness get Ts mul /Tt exch def
  ux uy To add cs 10 mul 26 idiv add moveto Tcx uy To add cs 10 mul 26 idiv add lineto
  Tt setlinewidth stroke
  grestore
} bd
/QT {
/Y22 exch store
/X22 exch store
/Y21 exch store
/X21 exch store
currentpoint
/Y21 load 2 mul add 3 div exch
/X21 load 2 mul add 3 div exch
/X21 load 2 mul /X22 load add 3 div
/Y21 load 2 mul /Y22 load add 3 div
/X22 load /Y22 load curveto
} bd
/SSPD {
dup length /d exch dict def
{
/v exch def
/k exch def
currentpagedevice k known {
/cpdv currentpagedevice k get def
v cpdv ne {
/upd false def
/nullv v type /nulltype eq def
/nullcpdv cpdv type /nulltype eq def
nullv nullcpdv or
{
/upd true def
} {
/sametype v type cpdv type eq def
sametype {
v type /arraytype eq {
/vlen v length def
/cpdvlen cpdv length def
vlen cpdvlen eq {
0 1 vlen 1 sub {
/i exch def
/obj v i get def
/cpdobj cpdv i get def
obj cpdobj ne {
/upd true def
exit
} if
} for
} {
/upd true def
} ifelse
} {
v type /dicttype eq {
v {
/dv exch def
/dk exch def
/cpddv cpdv dk get def
dv cpddv ne {
/upd true def
exit
} if
} forall
} {
/upd true def
} ifelse
} ifelse
} if
} ifelse
upd true eq {
d k v put
} if
} if
} if
} forall
d length 0 gt {
d setpagedevice
} if
} bd
/RE { % /NewFontName [NewEncodingArray] /FontName RE -
  findfont dup length dict begin
  {
    1 index /FID ne
    {def} {pop pop} ifelse
  } forall
  /Encoding exch def
  /FontName 1 index def
  currentdict definefont pop
  end
} bind def
%%EndResource
%%BeginResource: procset (Apache XML Graphics EPS ProcSet) 1.0 0
%%Version: 1.0 0
%%Copyright: (Copyright 2002-2003 The Apache Software Foundation. License terms: http://www.apache.org/licenses/LICENSE-2.0)
/BeginEPSF { %def
/b4_Inc_state save def         % Save state for cleanup
/dict_count countdictstack def % Count objects on dict stack
/op_count count 1 sub def      % Count objects on operand stack
userdict begin                 % Push userdict on dict stack
/showpage { } def              % Redefine showpage, { } = null proc
0 setgray 0 setlinecap         % Prepare graphics state
1 setlinewidth 0 setlinejoin
10 setmiterlimit [ ] 0 setdash newpath
/languagelevel where           % If level not equal to 1 then
{pop languagelevel             % set strokeadjust and
1 ne                           % overprint to their defaults.
{false setstrokeadjust false setoverprint
} if
} if
} bd
/EndEPSF { %def
count op_count sub {pop} repeat            % Clean up stacks
countdictstack dict_count sub {end} repeat
b4_Inc_state restore
} bd
%%EndResource
%FOPBeginFontDict
%%IncludeResource: font Courier-Oblique
%%IncludeResource: font Courier-BoldOblique
%%IncludeResource: font Courier-Bold
%%IncludeResource: font ZapfDingbats
%%IncludeResource: font Symbol
%%IncludeResource: font Helvetica
%%IncludeResource: font Helvetica-Oblique
%%IncludeResource: font Helvetica-Bold
%%IncludeResource: font Helvetica-BoldOblique
%%IncludeResource: font Times-Roman
%%IncludeResource: font Times-Italic
%%IncludeResource: font Times-Bold
%%IncludeResource: font Times-BoldItalic
%%IncludeResource: font Courier
%FOPEndFontDict
%%BeginResource: encoding WinAnsiEncoding
/WinAnsiEncoding [
/.notdef /.notdef /.notdef /.notdef /.notdef
/.notdef /.notdef /.notdef /.notdef /.notdef
/.notdef /.notdef /.notdef /.notdef /.notdef
/.notdef /.notdef /.notdef /.notdef /.notdef
/.notdef /.notdef /.notdef /.notdef /.notdef
/.notdef /.notdef /.notdef /.notdef /.notdef
/.notdef /.notdef /space /exclam /quotedbl
/numbersign /dollar /percent /ampersand /quotesingle
/parenleft /parenright /asterisk /plus /comma
/hyphen /period /slash /zero /one
/two /three /four /five /six
/seven /eight /nine /colon /semicolon
/less /equal /greater /question /at
/A /B /C /D /E
/F /G /H /I /J
/K /L /M /N /O
/P /Q /R /S /T
/U /V /W /X /Y
/Z /bracketleft /backslash /bracketright /asciicircum
/underscore /quoteleft /a /b /c
/d /e /f /g /h
/i /j /k /l /m
/n /o /p /q /r
/s /t /u /v /w
/x /y /z /braceleft /bar
/braceright /asciitilde /bullet /Euro /bullet
/quotesinglbase /florin /quotedblbase /ellipsis /dagger
/daggerdbl /circumflex /perthousand /Scaron /guilsinglleft
/OE /bullet /Zcaron /bullet /bullet
/quoteleft /quoteright /quotedblleft /quotedblright /bullet
/endash /emdash /asciitilde /trademark /scaron
/guilsinglright /oe /bullet /zcaron /Ydieresis
/space /exclamdown /cent /sterling /currency
/yen /brokenbar /section /dieresis /copyright
/ordfeminine /guillemotleft /logicalnot /sfthyphen /registered
/macron /degree /plusminus /twosuperior /threesuperior
/acute /mu /paragraph /middot /cedilla
/onesuperior /ordmasculine /guillemotright /onequarter /onehalf
/threequarters /questiondown /Agrave /Aacute /Acircumflex
/Atilde /Adieresis /Aring /AE /Ccedilla
/Egrave /Eacute /Ecircumflex /Edieresis /Igrave
/Iacute /Icircumflex /Idieresis /Eth /Ntilde
/Ograve /Oacute /Ocircumflex /Otilde /Odieresis
/multiply /Oslash /Ugrave /Uacute /Ucircumflex
/Udieresis /Yacute /Thorn /germandbls /agrave
/aacute /acircumflex /atilde /adieresis /aring
/ae /ccedilla /egrave /eacute /ecircumflex
/edieresis /igrave /iacute /icircumflex /idieresis
/eth /ntilde /ograve /oacute /ocircumflex
/otilde /odieresis /divide /oslash /ugrave
/uacute /ucircumflex /udieresis /yacute /thorn
/ydieresis
] def
%%EndResource
%FOPBeginFontReencode
/Courier-Oblique findfont
dup length dict begin
  {1 index /FID ne {def} {pop pop} ifelse} forall
  /Encoding WinAnsiEncoding def
  currentdict
end
/Courier-Oblique exch definefont pop
/Courier-BoldOblique findfont
dup length dict begin
  {1 index /FID ne {def} {pop pop} ifelse} forall
  /Encoding WinAnsiEncoding def
  currentdict
end
/Courier-BoldOblique exch definefont pop
/Courier-Bold findfont
dup length dict begin
  {1 index /FID ne {def} {pop pop} ifelse} forall
  /Encoding WinAnsiEncoding def
  currentdict
end
/Courier-Bold exch definefont pop
/Helvetica findfont
dup length dict begin
  {1 index /FID ne {def} {pop pop} ifelse} forall
  /Encoding WinAnsiEncoding def
  currentdict
end
/Helvetica exch definefont pop
/Helvetica-Oblique findfont
dup length dict begin
  {1 index /FID ne {def} {pop pop} ifelse} forall
  /Encoding WinAnsiEncoding def
  currentdict
end
/Helvetica-Oblique exch definefont pop
/Helvetica-Bold findfont
dup length dict begin
  {1 index /FID ne {def} {pop pop} ifelse} forall
  /Encoding WinAnsiEncoding def
  currentdict
end
/Helvetica-Bold exch definefont pop
/Helvetica-BoldOblique findfont
dup length dict begin
  {1 index /FID ne {def} {pop pop} ifelse} forall
  /Encoding WinAnsiEncoding def
  currentdict
end
/Helvetica-BoldOblique exch definefont pop
/Times-Roman findfont
dup length dict begin
  {1 index /FID ne {def} {pop pop} ifelse} forall
  /Encoding WinAnsiEncoding def
  currentdict
end
/Times-Roman exch definefont pop
/Times-Italic findfont
dup length dict begin
  {1 index /FID ne {def} {pop pop} ifelse} forall
  /Encoding WinAnsiEncoding def
  currentdict
end
/Times-Italic exch definefont pop
/Times-Bold findfont
dup length dict begin
  {1 index /FID ne {def} {pop pop} ifelse} forall
  /Encoding WinAnsiEncoding def
  currentdict
end
/Times-Bold exch definefont pop
/Times-BoldItalic findfont
dup length dict begin
  {1 index /FID ne {def} {pop pop} ifelse} forall
  /Encoding WinAnsiEncoding def
  currentdict
end
/Times-BoldItalic exch definefont pop
/Courier findfont
dup length dict begin
  {1 index /FID ne {def} {pop pop} ifelse} forall
  /Encoding WinAnsiEncoding def
  currentdict
end
/Courier exch definefont pop
%FOPEndFontReencode
%%EndProlog
%%Page: 1 1
%%PageBoundingBox: 0 0 1440 749
%%BeginPageSetup
N
    2     0 M
 1443     0 L
 1443   744 L
    2   744 L
cp
clip
[1 0 0 -1 0 749] CT
%%EndPageSetup
GS
[0.75 0 0 0.75 0 -0.25] CT
1 GC
N
0 0 1920 999 re
f
GR
GS
[0.75 0 0 0.75 0 -0.25] CT
1 GC
N
0 0 1920 999 re
f
GR
GS
[0.75 0 0 0.75 0 -0.25] CT
1 GC
N
53 943 M
1920 943 L
1920 39 L
53 39 L
cp
f
GR
GS
[0.75 0 0 0.75 0 -0.25] CT
0.149 GC
2 setlinecap
1 LJ
0.667 LW
N
53 943 M
1920 943 L
S
GR
GS
[0.75 0 0 0.75 0 -0.25] CT
0.149 GC
2 setlinecap
1 LJ
0.667 LW
N
53 943 M
53 924.33 L
S
GR
GS
[0.75 0 0 0.75 0 -0.25] CT
0.149 GC
2 setlinecap
1 LJ
0.667 LW
N
344.719 943 M
344.719 924.33 L
S
GR
GS
[0.75 0 0 0.75 0 -0.25] CT
0.149 GC
2 setlinecap
1 LJ
0.667 LW
N
636.438 943 M
636.438 924.33 L
S
GR
GS
[0.75 0 0 0.75 0 -0.25] CT
0.149 GC
2 setlinecap
1 LJ
0.667 LW
N
928.156 943 M
928.156 924.33 L
S
GR
GS
[0.75 0 0 0.75 0 -0.25] CT
0.149 GC
2 setlinecap
1 LJ
0.667 LW
N
1219.875 943 M
1219.875 924.33 L
S
GR
GS
[0.75 0 0 0.75 0 -0.25] CT
0.149 GC
2 setlinecap
1 LJ
0.667 LW
N
1511.594 943 M
1511.594 924.33 L
S
GR
GS
[0.75 0 0 0.75 0 -0.25] CT
0.149 GC
2 setlinecap
1 LJ
0.667 LW
N
1803.313 943 M
1803.313 924.33 L
S
GR
GS
[0.75 0 0 0.75 39.75 710.99998] CT
0.149 GC
/Helvetica 13.333 F
GS
[1 0 0 1 0 0] CT
-4 13 moveto 
1 -1 scale
(0) t 
GR
GR
GS
[0.75 0 0 0.75 258.53906 710.99998] CT
0.149 GC
/Helvetica 13.333 F
GS
[1 0 0 1 0 0] CT
-13 13 moveto 
1 -1 scale
(0.05) t 
GR
GR
GS
[0.75 0 0 0.75 477.32813 710.99998] CT
0.149 GC
/Helvetica 13.333 F
GS
[1 0 0 1 0 0] CT
-9.5 13 moveto 
1 -1 scale
(0.1) t 
GR
GR
GS
[0.75 0 0 0.75 696.11723 710.99998] CT
0.149 GC
/Helvetica 13.333 F
GS
[1 0 0 1 0 0] CT
-13 13 moveto 
1 -1 scale
(0.15) t 
GR
GR
GS
[0.75 0 0 0.75 914.90625 710.99998] CT
0.149 GC
/Helvetica 13.333 F
GS
[1 0 0 1 0 0] CT
-9.5 13 moveto 
1 -1 scale
(0.2) t 
GR
GR
GS
[0.75 0 0 0.75 1133.69531 710.99998] CT
0.149 GC
/Helvetica 13.333 F
GS
[1 0 0 1 0 0] CT
-13 13 moveto 
1 -1 scale
(0.25) t 
GR
GR
GS
[0.75 0 0 0.75 1352.48447 710.99998] CT
0.149 GC
/Helvetica 13.333 F
GS
[1 0 0 1 0 0] CT
-9.5 13 moveto 
1 -1 scale
(0.3) t 
GR
GR
GS
[0.75 0 0 0.75 739.87564 724.75002] CT
0.149 GC
/Helvetica 26.667 F
GS
[1 0 0 1 0 0] CT
-24 25 moveto 
1 -1 scale
(t \(s\)) t 
GR
GR
GS
[0.75 0 0 0.75 0 -0.25] CT
0.149 GC
2 setlinecap
1 LJ
0.667 LW
N
53 943 M
53 39 L
S
GR
GS
[0.75 0 0 0.75 0 -0.25] CT
0.149 GC
2 setlinecap
1 LJ
0.667 LW
N
53 943 M
71.67 943 L
S
GR
GS
[0.75 0 0 0.75 0 -0.25] CT
0.149 GC
2 setlinecap
1 LJ
0.667 LW
N
53 792.333 M
71.67 792.333 L
S
GR
GS
[0.75 0 0 0.75 0 -0.25] CT
0.149 GC
2 setlinecap
1 LJ
0.667 LW
N
53 641.667 M
71.67 641.667 L
S
GR
GS
[0.75 0 0 0.75 0 -0.25] CT
0.149 GC
2 setlinecap
1 LJ
0.667 LW
N
53 491 M
71.67 491 L
S
GR
GS
[0.75 0 0 0.75 0 -0.25] CT
0.149 GC
2 setlinecap
1 LJ
0.667 LW
N
53 340.333 M
71.67 340.333 L
S
GR
GS
[0.75 0 0 0.75 0 -0.25] CT
0.149 GC
2 setlinecap
1 LJ
0.667 LW
N
53 189.667 M
71.67 189.667 L
S
GR
GS
[0.75 0 0 0.75 0 -0.25] CT
0.149 GC
2 setlinecap
1 LJ
0.667 LW
N
53 39 M
71.67 39 L
S
GR
GS
[0.75 0 0 0.75 35.75 707] CT
0.149 GC
/Helvetica 13.333 F
GS
[1 0 0 1 0 0] CT
-12 4.5 moveto 
1 -1 scale
(-3) t 
GR
GR
GS
[0.75 0 0 0.75 35.75 593.99998] CT
0.149 GC
/Helvetica 13.333 F
GS
[1 0 0 1 0 0] CT
-12 4.5 moveto 
1 -1 scale
(-2) t 
GR
GR
GS
[0.75 0 0 0.75 35.75 481.00002] CT
0.149 GC
/Helvetica 13.333 F
GS
[1 0 0 1 0 0] CT
-12 4.5 moveto 
1 -1 scale
(-1) t 
GR
GR
GS
[0.75 0 0 0.75 35.75 368] CT
0.149 GC
/Helvetica 13.333 F
GS
[1 0 0 1 0 0] CT
-8 4.5 moveto 
1 -1 scale
(0) t 
GR
GR
GS
[0.75 0 0 0.75 35.75 255.00001] CT
0.149 GC
/Helvetica 13.333 F
GS
[1 0 0 1 0 0] CT
-8 4.5 moveto 
1 -1 scale
(1) t 
GR
GR
GS
[0.75 0 0 0.75 35.75 142] CT
0.149 GC
/Helvetica 13.333 F
GS
[1 0 0 1 0 0] CT
-8 4.5 moveto 
1 -1 scale
(2) t 
GR
GR
GS
[0.75 0 0 0.75 35.75 29] CT
0.149 GC
/Helvetica 13.333 F
GS
[1 0 0 1 0 0] CT
-8 4.5 moveto 
1 -1 scale
(3) t 
GR
GR
GS
[0 -0.75 0.75 0 23.75 367.99968] CT
0.149 GC
/Helvetica 26.667 F
GS
[1 0 0 1 0 0] CT
-25 -7 moveto 
1 -1 scale
(I \(A\)) t 
GR
GR
GS
[0.75 0 0 0.75 739.87569 25.24999] CT
/Helvetica-Bold 26.667 F
GS
[1 0 0 1 0 0] CT
-64.5 -7 moveto 
1 -1 scale
(Zero cross) t 
GR
GR
GS
[0.75 0 0 0.75 0 -0.25] CT
0 0.447 0.741 RC
1 LJ
2.667 LW
N
53 667.844 M
54.167 686.144 L
55.334 676.948 L
56.501 669.959 L
57.667 686.604 L
58.834 705.181 L
60.001 708.031 L
61.168 733.781 L
62.335 732.401 L
63.502 719.067 L
64.669 743.713 L
65.836 762.841 L
67.003 726.516 L
68.169 747.667 L
69.336 767.439 L
70.503 773.876 L
71.67 766.611 L
72.837 767.623 L
74.004 789.602 L
75.171 800.546 L
76.338 791.073 L
77.504 824.088 L
78.671 803.856 L
79.838 812.961 L
81.005 806.891 L
82.172 810.11 L
83.339 820.685 L
84.506 832.64 L
85.673 832.824 L
86.839 851.585 L
88.006 837.331 L
89.173 836.779 L
90.34 861.149 L
91.507 867.586 L
92.674 850.573 L
93.841 846.527 L
95.007 858.298 L
96.174 853.976 L
97.341 872.092 L
98.508 858.482 L
99.675 866.115 L
100.842 848.826 L
102.009 873.196 L
103.176 880.461 L
104.342 879.633 L
105.509 855.723 L
106.676 878.346 L
107.843 880.093 L
109.01 843.952 L
110.177 874.483 L
111.344 881.84 L
112.511 864.276 L
113.677 842.48 L
114.844 891.772 L
116.011 886.99 L
117.178 834.388 L
118.345 869.793 L
119.512 878.162 L
120.679 835.215 L
121.846 868.23 L
123.012 883.956 L
124.179 855.723 L
125.346 853.976 L
126.513 865.563 L
127.68 834.204 L
128.847 823.812 L
130.014 845.791 L
131.181 835.767 L
132.348 818.846 L
133.514 827.95 L
134.681 826.663 L
135.848 810.937 L
137.015 814.708 L
138.182 804.868 L
139.349 806.891 L
140.516 796.683 L
141.682 779.394 L
142.849 804.224 L
144.016 804.868 L
145.183 783.808 L
146.35 754.748 L
147.517 760.358 L
148.684 768.175 L
149.851 733.413 L
151.018 747.115 L
152.184 720.998 L
153.351 766.152 L
154.518 745.368 L
155.685 725.412 L
156.852 700.582 L
158.019 699.295 L
159.186 705.916 L
160.353 701.226 L
161.519 678.328 L
162.686 691.294 L
163.853 680.535 L
165.02 653.682 L
166.187 665.453 L
167.354 648.072 L
168.521 627.932 L
169.688 628.668 L
170.854 634.002 L
172.021 646.508 L
173.188 608.988 L
174.355 608.528 L
175.522 597.217 L
176.689 573.398 L
177.856 602.55 L
179.023 599.056 L
180.189 562.363 L
181.356 570.088 L
182.523 559.88 L
183.69 529.992 L
184.857 528.245 L
186.024 548.201 L
187.191 512.059 L
188.357 514.175 L
189.524 514.726 L
190.691 487.505 L
191.858 496.426 L
193.025 475.734 L
194.192 468.929 L
195.359 466.446 L
196.526 462.492 L
197.693 435.547 L
198.859 446.766 L
200.026 432.42 L
201.193 429.201 L
202.36 429.293 L
203.527 428.557 L
204.694 386.439 L
205.861 365.839 L
207.027 410.993 L
208.194 396.463 L
209.361 377.978 L
210.528 354.804 L
211.695 367.494 L
212.862 361.057 L
214.029 343.492 L
215.196 327.123 L
216.363 339.078 L
217.529 329.606 L
218.696 317.099 L
219.863 318.295 L
221.03 303.764 L
222.197 304.5 L
223.364 294.752 L
224.531 281.877 L
225.697 281.234 L
226.864 269.738 L
228.031 277.739 L
229.198 251.99 L
230.365 254.84 L
231.532 254.657 L
232.699 216.308 L
233.866 232.586 L
235.033 250.15 L
236.199 230.103 L
237.366 219.343 L
238.533 230.562 L
239.7 206.468 L
240.867 187.156 L
242.034 222.929 L
243.201 191.294 L
244.368 196.168 L
245.534 186.512 L
246.701 181.454 L
247.868 170.235 L
249.035 182.374 L
250.202 154.509 L
251.369 174.005 L
252.536 169.407 L
253.702 147.98 L
254.869 152.394 L
256.036 148.624 L
257.203 139.336 L
258.37 150.095 L
259.537 173.73 L
260.704 130.783 L
261.871 123.794 L
263.038 132.622 L
264.204 150.831 L
265.371 131.979 L
266.538 111.931 L
267.705 128.944 L
268.872 123.242 L
270.039 108.896 L
271.206 119.288 L
272.372 129.772 L
273.539 142.278 L
274.706 106.873 L
275.873 115.609 L
277.04 126.553 L
278.207 114.598 L
279.374 85.997 L
280.541 109.816 L
281.707 121.771 L
282.874 111.655 L
284.041 120.575 L
285.208 100.619 L
286.375 103.746 L
287.542 121.495 L
288.709 111.839 L
289.876 108.436 L
291.043 107.884 L
292.209 120.299 L
293.376 110.276 L
294.543 125.449 L
295.71 114.69 L
296.877 100.895 L
298.044 120.759 L
299.211 110.643 L
300.378 116.989 L
301.544 125.817 L
302.711 117.908 L
303.878 121.495 L
305.045 111.011 L
306.212 132.071 L
307.379 133.45 L
308.546 143.842 L
309.712 116.713 L
310.879 129.588 L
312.046 167.476 L
313.213 158.372 L
314.38 122.966 L
315.547 136.025 L
316.714 168.396 L
317.881 142.462 L
319.048 137.312 L
320.214 166.097 L
321.381 176.58 L
322.548 152.854 L
323.715 180.535 L
324.882 172.258 L
326.049 181.179 L
327.216 182.466 L
328.383 173.914 L
329.549 189.455 L
330.716 194.697 L
331.883 176.856 L
333.05 189.731 L
334.217 213.09 L
335.384 215.389 L
336.551 200.675 L
337.717 219.067 L
338.884 206.652 L
340.051 219.343 L
341.218 249.415 L
342.385 236.724 L
343.552 234.793 L
344.719 239.943 L
345.886 252.357 L
347.052 242.334 L
348.219 261.462 L
349.386 256.68 L
350.553 248.035 L
351.72 269.554 L
352.887 261.462 L
354.054 295.304 L
355.221 272.773 L
356.388 276.176 L
357.554 333.468 L
358.721 311.949 L
359.888 276.911 L
361.055 296.683 L
362.222 327.859 L
363.389 330.617 L
364.556 323.812 L
365.723 331.997 L
366.889 343.032 L
368.056 350.481 L
369.223 342.481 L
370.39 361.333 L
371.557 355.263 L
372.724 356.551 L
373.891 382.208 L
375.057 357.011 L
376.224 394.531 L
377.391 421.017 L
378.558 396.003 L
379.725 374.576 L
380.892 395.543 L
382.059 434.903 L
383.226 426.35 L
384.393 395.911 L
385.559 419.729 L
386.726 454.583 L
387.893 450.261 L
389.06 443.088 L
390.227 442.628 L
391.394 469.573 L
392.561 472.975 L
393.728 459.641 L
394.894 470.033 L
396.061 485.758 L
397.228 494.587 L
398.395 492.747 L
399.562 488.149 L
400.729 513.715 L
401.896 512.059 L
403.063 522.267 L
404.229 500.472 L
405.396 523.555 L
406.563 518.129 L
407.73 537.257 L
408.897 526.681 L
410.064 535.786 L
411.231 572.203 L
412.397 571.927 L
413.564 541.028 L
414.731 549.396 L
415.898 586.917 L
417.065 569.904 L
418.232 572.295 L
419.399 577.169 L
420.566 588.848 L
421.732 583.606 L
422.899 612.298 L
424.066 610.643 L
425.233 610.459 L
426.4 616.253 L
427.567 622.046 L
428.734 648.348 L
429.901 624.621 L
431.068 613.862 L
432.234 657.176 L
433.401 650.739 L
434.568 653.957 L
435.735 665.361 L
436.902 659.843 L
438.069 673.637 L
439.236 679.891 L
440.402 669.959 L
441.569 681.086 L
442.736 677.868 L
443.903 696.996 L
445.07 679.707 L
446.237 691.11 L
447.404 701.318 L
448.571 699.847 L
449.738 712.813 L
450.904 696.628 L
452.071 709.135 L
453.238 733.597 L
454.405 723.389 L
455.572 732.309 L
456.739 745.368 L
457.906 748.771 L
459.073 719.619 L
460.239 724.401 L
461.406 772.589 L
462.573 762.657 L
463.74 734.057 L
464.907 729.183 L
466.074 764.312 L
467.241 773.784 L
468.408 762.473 L
469.574 787.303 L
470.741 783.625 L
471.908 770.934 L
473.075 777.095 L
474.242 776.359 L
475.409 799.258 L
476.576 791.165 L
477.743 781.141 L
478.909 809.742 L
480.076 794.752 L
481.243 787.763 L
482.41 808.546 L
483.577 805.328 L
484.744 818.294 L
485.911 807.719 L
487.078 815.26 L
488.244 827.95 L
489.411 804.224 L
490.578 818.57 L
491.745 843.216 L
492.912 812.869 L
494.079 835.031 L
495.246 837.147 L
496.412 822.8 L
497.579 837.882 L
498.746 846.895 L
499.913 839.446 L
501.08 836.411 L
502.247 848.182 L
503.414 847.263 L
504.581 839.078 L
505.748 846.159 L
506.914 857.93 L
508.081 833.744 L
509.248 857.47 L
510.415 836.595 L
511.582 860.321 L
512.749 858.298 L
513.916 854.344 L
515.083 848.09 L
516.249 853.976 L
517.416 846.159 L
518.583 838.802 L
519.75 866.483 L
520.917 845.883 L
522.084 842.297 L
523.251 884.875 L
524.417 887.082 L
525.584 843.216 L
526.751 854.16 L
527.918 884.507 L
529.085 868.506 L
530.252 847.354 L
531.419 890.669 L
532.586 872.552 L
533.753 845.975 L
534.919 869.885 L
536.086 865.563 L
537.253 870.989 L
538.42 868.138 L
539.587 870.621 L
540.754 872 L
541.921 857.194 L
543.087 865.103 L
544.254 859.769 L
545.421 848.458 L
546.588 878.806 L
547.755 883.128 L
548.922 844.871 L
550.089 874.851 L
551.256 895.267 L
552.423 864.092 L
553.589 865.379 L
554.756 866.023 L
555.923 879.725 L
557.09 845.423 L
558.257 856.183 L
559.424 883.588 L
560.591 841.285 L
561.758 845.147 L
562.924 874.299 L
564.091 853.148 L
565.258 853.332 L
566.425 847.446 L
567.592 861.057 L
568.759 845.147 L
569.926 841.469 L
571.092 845.423 L
572.259 859.953 L
573.426 849.378 L
574.593 858.85 L
575.76 833.192 L
576.927 845.515 L
578.094 873.748 L
579.261 829.974 L
580.427 816.363 L
581.594 873.012 L
582.761 851.953 L
583.928 820.134 L
585.095 842.48 L
586.262 842.297 L
587.429 816.363 L
588.596 844.963 L
589.763 844.228 L
590.929 828.502 L
592.096 822.433 L
593.263 834.664 L
594.43 843.216 L
595.597 831.997 L
596.764 805.328 L
597.931 825.283 L
599.097 844.871 L
600.264 817.835 L
601.431 802.477 L
602.598 817.375 L
603.765 831.997 L
604.932 799.35 L
606.099 791.809 L
607.266 835.583 L
608.432 813.052 L
609.599 785.372 L
610.766 823.444 L
611.933 824.64 L
613.1 776.359 L
614.267 756.312 L
615.434 807.351 L
616.601 811.397 L
617.768 777.647 L
618.934 766.152 L
620.101 798.798 L
621.268 780.406 L
622.435 786.843 L
623.602 780.682 L
624.769 776.543 L
625.936 773.693 L
627.102 763.025 L
628.269 773.417 L
629.436 776.911 L
630.603 766.887 L
631.77 757.967 L
632.937 760.266 L
634.104 777.279 L
635.271 750.794 L
636.438 727.068 L
637.604 796.223 L
638.771 773.233 L
639.938 736.448 L
641.105 736.08 L
642.272 766.795 L
643.439 743.253 L
644.606 732.401 L
645.773 728.999 L
646.939 742.609 L
648.106 733.137 L
649.273 718.147 L
650.44 739.574 L
651.607 718.791 L
652.774 722.561 L
653.941 726.332 L
655.108 707.664 L
656.274 710.882 L
657.441 706.928 L
658.608 714.101 L
659.775 726.608 L
660.942 697.272 L
662.109 708.491 L
663.276 695.708 L
664.443 701.042 L
665.609 707.48 L
666.776 688.351 L
667.943 685.868 L
669.11 691.478 L
670.277 689.547 L
671.444 682.098 L
672.611 692.95 L
673.777 694.973 L
674.944 660.487 L
676.111 690.283 L
677.278 661.222 L
678.445 686.788 L
679.612 671.614 L
680.779 650.003 L
681.946 682.466 L
683.112 685.868 L
684.279 645.221 L
685.446 649.727 L
686.613 670.511 L
687.78 658.923 L
688.947 648.348 L
690.114 654.601 L
691.281 658.464 L
692.448 645.405 L
693.614 630.323 L
694.781 635.657 L
695.948 644.945 L
697.115 633.174 L
698.282 634.277 L
699.449 631.611 L
700.616 641.543 L
701.782 635.841 L
702.949 632.622 L
704.116 609.999 L
705.283 636.485 L
706.45 635.749 L
707.617 614.598 L
708.784 596.389 L
709.951 613.862 L
711.117 628.76 L
712.284 600.527 L
713.451 590.871 L
714.618 615.333 L
715.785 611.103 L
716.952 581.951 L
718.119 597.309 L
719.286 603.746 L
720.453 603.47 L
721.619 582.135 L
722.786 590.044 L
723.953 595.745 L
725.12 576.433 L
726.287 582.687 L
727.454 573.582 L
728.621 590.044 L
729.787 601.631 L
730.954 553.075 L
732.121 581.491 L
733.288 578.364 L
734.455 574.042 L
735.622 567.053 L
736.789 559.512 L
737.956 567.513 L
739.122 564.478 L
740.289 550.684 L
741.456 553.718 L
742.623 569.996 L
743.79 548.109 L
744.957 535.602 L
746.124 548.936 L
747.291 544.062 L
748.458 548.752 L
749.624 531.739 L
750.791 505.806 L
751.958 535.878 L
753.125 551.051 L
754.292 524.015 L
755.459 530.636 L
756.626 533.487 L
757.793 537.073 L
758.959 536.337 L
760.126 507.737 L
761.293 517.025 L
762.46 517.669 L
763.627 523.371 L
764.794 511.324 L
765.961 499.92 L
767.128 508.841 L
768.294 515.554 L
769.461 507.369 L
770.628 493.759 L
771.795 486.954 L
772.962 512.611 L
774.129 521.899 L
775.296 491.184 L
776.462 492.931 L
777.629 508.473 L
778.796 491.368 L
779.963 483.459 L
781.13 483.827 L
782.297 502.403 L
783.464 481.896 L
784.631 462.032 L
785.797 473.159 L
786.964 479.597 L
788.131 509.301 L
789.298 465.434 L
790.465 473.343 L
791.632 494.311 L
792.799 473.159 L
793.966 475.09 L
795.133 463.779 L
796.299 478.309 L
797.466 474.723 L
798.633 466.998 L
799.8 455.411 L
800.967 475.09 L
802.134 470.308 L
803.301 460.836 L
804.468 456.238 L
805.634 442.444 L
806.801 453.111 L
807.968 452.376 L
809.135 467.182 L
810.302 445.571 L
811.469 452.652 L
812.636 456.79 L
813.802 436.282 L
814.969 431.316 L
816.136 436.098 L
817.303 450.628 L
818.47 439.409 L
819.637 452.652 L
820.804 417.798 L
821.971 425.983 L
823.138 420.649 L
824.304 457.158 L
825.471 444.099 L
826.638 419.637 L
827.805 428.557 L
828.972 445.846 L
830.139 441.064 L
831.306 412.464 L
832.472 409.889 L
833.639 438.949 L
834.806 434.535 L
835.973 423.04 L
837.14 409.705 L
838.307 425.707 L
839.474 441.432 L
840.641 413.384 L
841.807 397.106 L
842.974 438.949 L
844.141 440.697 L
845.308 393.704 L
846.475 411.177 L
847.642 421.201 L
848.809 389.933 L
849.976 403.728 L
851.143 403.544 L
852.309 421.109 L
853.476 412.004 L
854.643 421.292 L
855.81 392.692 L
856.977 392.692 L
858.144 405.567 L
859.311 410.809 L
860.478 402.992 L
861.644 399.038 L
862.811 401.704 L
863.978 414.763 L
865.145 399.038 L
866.312 405.107 L
867.479 400.141 L
868.646 396.003 L
869.813 390.117 L
870.979 410.809 L
872.146 375.403 L
873.313 372.552 L
874.48 399.221 L
875.647 421.384 L
876.814 379.633 L
877.981 374.943 L
879.147 398.394 L
880.314 387.634 L
881.481 383.036 L
882.648 393.796 L
883.815 392.692 L
884.982 383.772 L
886.149 394.164 L
887.316 377.518 L
888.482 376.783 L
889.649 380.645 L
890.816 383.128 L
891.983 386.715 L
893.15 384.875 L
894.317 387.358 L
895.484 364.828 L
896.651 382.3 L
897.818 385.703 L
898.984 363.54 L
900.151 385.151 L
901.318 372.828 L
902.485 407.958 L
903.652 373.932 L
904.819 367.494 L
905.986 373.38 L
907.153 362.896 L
908.319 364.644 L
909.486 376.231 L
910.653 368.322 L
911.82 350.849 L
912.987 379.45 L
914.154 379.266 L
915.321 377.518 L
916.487 359.494 L
917.654 384.416 L
918.821 375.127 L
919.988 376.139 L
921.155 363.632 L
922.322 367.678 L
923.489 368.23 L
924.656 381.105 L
925.823 358.574 L
926.989 364.644 L
928.156 371.081 L
929.323 348.55 L
930.49 371.173 L
931.657 371.357 L
932.824 372.185 L
933.991 365.195 L
935.157 358.942 L
936.324 364.46 L
937.491 391.497 L
938.658 371.633 L
939.825 372.368 L
940.992 345.515 L
942.159 384.232 L
943.326 394.256 L
944.492 394.991 L
945.659 367.77 L
946.826 355.447 L
947.993 378.254 L
949.16 368.966 L
950.327 351.953 L
951.494 363.356 L
952.661 361.241 L
953.828 371.449 L
954.994 350.573 L
956.161 383.036 L
957.328 361.241 L
958.495 352.321 L
959.662 365.379 L
960.829 370.345 L
961.996 373.196 L
963.163 340.366 L
964.329 353.332 L
965.496 386.347 L
966.663 391.405 L
967.83 340.733 L
968.997 336.411 L
970.164 386.99 L
971.331 381.289 L
972.497 345.148 L
973.664 360.137 L
974.831 387.634 L
975.998 369.793 L
977.165 349.286 L
978.332 370.989 L
979.499 379.358 L
980.666 368.506 L
981.832 353.056 L
982.999 371.265 L
984.166 367.862 L
985.333 357.195 L
986.5 382.392 L
987.667 370.253 L
988.834 357.654 L
990.001 377.15 L
991.167 372.828 L
992.334 356.367 L
993.501 357.838 L
994.668 368.046 L
995.835 376.047 L
997.002 385.519 L
998.169 368.874 L
999.336 364.092 L
1000.503 375.495 L
1001.669 393.06 L
1002.836 361.609 L
1004.003 360.873 L
1005.17 388.278 L
1006.337 374.484 L
1007.504 370.437 L
1008.671 377.702 L
1009.838 359.126 L
1011.004 378.254 L
1012.171 397.75 L
1013.338 364.552 L
1014.505 378.438 L
1015.672 370.713 L
1016.839 352.505 L
1018.006 386.99 L
1019.172 373.472 L
1020.339 382.668 L
1021.506 380.461 L
1022.673 394.623 L
1023.84 365.839 L
1025.007 365.379 L
1026.174 403.452 L
1027.341 393.336 L
1028.507 364.644 L
1029.674 384.232 L
1030.841 390.669 L
1032.008 405.659 L
1033.175 404.004 L
1034.342 361.793 L
1035.509 390.577 L
1036.676 416.878 L
1037.843 409.797 L
1039.009 375.127 L
1040.176 390.761 L
1041.343 415.223 L
1042.51 395.727 L
1043.677 385.243 L
1044.844 379.174 L
1046.011 410.809 L
1047.177 389.749 L
1048.344 389.382 L
1049.511 390.485 L
1050.678 410.257 L
1051.845 413.66 L
1053.012 383.588 L
1054.179 409.153 L
1055.346 406.303 L
1056.513 406.119 L
1057.679 396.095 L
1058.846 410.809 L
1060.013 413.292 L
1061.18 392.416 L
1062.347 399.221 L
1063.514 413.292 L
1064.681 403.268 L
1065.848 419.545 L
1067.014 407.682 L
1068.181 420.741 L
1069.348 390.761 L
1070.515 422.764 L
1071.682 417.338 L
1072.849 394.623 L
1074.016 402.44 L
1075.182 433.432 L
1076.349 433.615 L
1077.516 396.83 L
1078.683 426.994 L
1079.85 433.064 L
1081.017 424.695 L
1082.184 414.487 L
1083.351 426.994 L
1084.517 426.718 L
1085.684 430.857 L
1086.851 441.248 L
1088.018 419.729 L
1089.185 417.338 L
1090.352 426.258 L
1091.519 445.571 L
1092.686 436.282 L
1093.852 425.707 L
1095.019 442.26 L
1096.186 437.754 L
1097.353 408.234 L
1098.52 445.663 L
1099.687 455.594 L
1100.854 450.261 L
1102.021 437.386 L
1103.188 437.018 L
1104.354 453.479 L
1105.521 470.584 L
1106.688 448.421 L
1107.855 448.789 L
1109.022 455.411 L
1110.189 466.446 L
1111.356 471.688 L
1112.523 447.502 L
1113.689 458.261 L
1114.856 455.962 L
1116.023 457.894 L
1117.19 465.434 L
1118.357 464.147 L
1119.524 475.274 L
1120.691 443.639 L
1121.858 469.941 L
1123.024 481.988 L
1124.191 487.322 L
1125.358 468.929 L
1126.525 465.526 L
1127.692 499.828 L
1128.859 474.815 L
1130.026 479.413 L
1131.193 479.321 L
1132.359 465.618 L
1133.526 490.816 L
1134.693 498.541 L
1135.86 476.378 L
1137.027 476.378 L
1138.194 488.701 L
1139.361 482.815 L
1140.527 501.3 L
1141.694 506.082 L
1142.861 491.46 L
1144.028 478.401 L
1145.195 518.957 L
1146.362 519.141 L
1147.529 490.54 L
1148.696 508.105 L
1149.862 514.45 L
1151.029 517.853 L
1152.196 503.415 L
1153.363 503.599 L
1154.53 539.28 L
1155.697 526.957 L
1156.864 499.92 L
1158.031 519.232 L
1159.198 531.647 L
1160.364 511.324 L
1161.531 520.796 L
1162.698 536.705 L
1163.865 542.591 L
1165.032 530.452 L
1166.199 531.739 L
1167.366 530.36 L
1168.532 536.521 L
1169.699 543.327 L
1170.866 540.936 L
1172.033 537.165 L
1173.2 546.177 L
1174.367 556.569 L
1175.534 573.95 L
1176.701 561.351 L
1177.868 533.487 L
1179.034 556.845 L
1180.201 587.928 L
1181.368 536.429 L
1182.535 565.765 L
1183.702 577.445 L
1184.869 555.374 L
1186.036 570.364 L
1187.203 572.847 L
1188.369 576.985 L
1189.536 558.96 L
1190.703 571.835 L
1191.87 579.468 L
1193.037 568.524 L
1194.204 578.088 L
1195.371 576.709 L
1196.537 582.503 L
1197.704 603.838 L
1198.871 590.963 L
1200.038 593.814 L
1201.205 587.009 L
1202.372 598.872 L
1203.539 609.264 L
1204.706 596.573 L
1205.873 593.078 L
1207.039 612.298 L
1208.206 608.712 L
1209.373 609.264 L
1210.54 613.494 L
1211.707 619.012 L
1212.874 610.183 L
1214.041 612.942 L
1215.208 601.355 L
1216.374 616.345 L
1217.541 613.954 L
1218.708 618.828 L
1219.875 634.186 L
1221.042 625.081 L
1222.209 627.748 L
1223.376 636.209 L
1224.542 651.291 L
1225.709 627.288 L
1226.876 655.521 L
1228.043 653.865 L
1229.21 645.497 L
1230.377 649.635 L
1231.544 638.692 L
1232.711 656.073 L
1233.877 661.039 L
1235.044 651.934 L
1236.211 671.522 L
1237.378 641.267 L
1238.545 655.245 L
1239.712 673.27 L
1240.879 648.716 L
1242.046 672.166 L
1243.213 685.225 L
1244.379 670.971 L
1245.546 668.671 L
1246.713 680.259 L
1247.88 692.398 L
1249.047 681.27 L
1250.214 698.283 L
1251.381 687.156 L
1252.547 683.202 L
1253.714 706.928 L
1254.881 697.088 L
1256.048 691.386 L
1257.215 707.847 L
1258.382 704.997 L
1259.549 694.145 L
1260.716 695.249 L
1261.883 715.388 L
1263.049 719.435 L
1264.216 710.238 L
1265.383 709.503 L
1266.55 728.631 L
1267.717 725.044 L
1268.884 696.444 L
1270.051 730.102 L
1271.218 748.311 L
1272.384 710.79 L
1273.551 710.146 L
1274.718 741.414 L
1275.885 738.563 L
1277.052 725.504 L
1278.219 750.518 L
1279.386 752.817 L
1280.552 730.47 L
1281.719 739.85 L
1282.886 776.359 L
1284.053 783.808 L
1285.22 726.792 L
1286.387 728.263 L
1287.554 770.934 L
1288.721 765.048 L
1289.887 744.816 L
1291.054 772.037 L
1292.221 802.293 L
1293.388 737.551 L
1294.555 754.564 L
1295.722 791.625 L
1296.889 786.016 L
1298.056 775.256 L
1299.222 761.002 L
1300.389 774.244 L
1301.556 810.477 L
1302.723 811.397 L
1303.89 755.208 L
1305.057 759.346 L
1306.224 798.614 L
1307.391 789.418 L
1308.557 781.969 L
1309.724 815.168 L
1310.891 825.927 L
1312.058 783.349 L
1313.225 781.601 L
1314.392 803.948 L
1315.559 806.707 L
1316.726 807.535 L
1317.893 800.913 L
1319.059 805.236 L
1320.226 808.546 L
1321.393 824.824 L
1322.56 806.155 L
1323.727 826.387 L
1324.894 804.684 L
1326.061 801.649 L
1327.228 827.766 L
1328.394 832.732 L
1329.561 828.594 L
1330.728 795.396 L
1331.895 816.639 L
1333.062 834.848 L
1334.229 827.674 L
1335.396 828.778 L
1336.563 825.927 L
1337.729 855.815 L
1338.896 831.629 L
1340.063 842.021 L
1341.23 826.387 L
1342.397 825.008 L
1343.564 855.907 L
1344.731 831.077 L
1345.897 841.929 L
1347.064 836.319 L
1348.231 863.908 L
1349.398 839.078 L
1350.565 841.193 L
1351.732 865.931 L
1352.899 839.078 L
1354.066 840.641 L
1355.232 851.125 L
1356.399 862.16 L
1357.566 850.021 L
1358.733 822.433 L
1359.9 842.572 L
1361.067 837.606 L
1362.234 868.322 L
1363.401 859.585 L
1364.568 852.228 L
1365.734 852.78 L
1366.901 857.838 L
1368.068 856.919 L
1369.235 842.113 L
1370.402 856.735 L
1371.569 874.299 L
1372.736 859.769 L
1373.902 850.941 L
1375.069 857.746 L
1376.236 857.01 L
1377.403 857.93 L
1378.57 852.596 L
1379.737 859.769 L
1380.904 856.551 L
1382.071 872.276 L
1383.238 861.609 L
1384.404 844.963 L
1385.571 855.079 L
1386.738 861.793 L
1387.905 875.127 L
1389.072 848.826 L
1390.239 850.849 L
1391.406 870.713 L
1392.573 860.689 L
1393.739 862.16 L
1394.906 859.218 L
1396.073 868.506 L
1397.24 853.332 L
1398.407 861.517 L
1399.574 855.079 L
1400.741 844.228 L
1401.907 863.172 L
1403.074 865.655 L
1404.241 842.572 L
1405.408 828.778 L
1406.575 879.725 L
1407.742 857.838 L
1408.909 827.399 L
1410.076 850.665 L
1411.243 836.411 L
1412.409 834.572 L
1413.576 845.331 L
1414.743 859.953 L
1415.91 844.412 L
1417.077 810.937 L
1418.244 822.984 L
1419.411 867.126 L
1420.578 858.758 L
1421.744 794.936 L
1422.911 795.672 L
1424.078 821.053 L
1425.245 847.171 L
1426.412 827.491 L
1427.579 810.845 L
1428.746 835.859 L
1429.912 814.156 L
1431.079 819.03 L
1432.246 834.204 L
1433.413 825.467 L
1434.58 802.201 L
1435.747 807.995 L
1436.914 842.388 L
1438.081 801.097 L
1439.247 792.913 L
1440.414 814.064 L
1441.581 823.352 L
1442.748 804.5 L
1443.915 805.236 L
1445.082 796.223 L
1446.249 811.121 L
1447.416 794.936 L
1448.583 777.647 L
1449.749 795.12 L
1450.916 794.108 L
1452.083 781.785 L
1453.25 775.716 L
1454.417 784.636 L
1455.584 792.545 L
1456.751 769.462 L
1457.917 738.471 L
1459.084 765.508 L
1460.251 787.855 L
1461.418 741.874 L
1462.585 747.207 L
1463.752 773.509 L
1464.919 739.574 L
1466.086 747.023 L
1467.253 762.197 L
1468.419 738.471 L
1469.586 731.482 L
1470.753 736.816 L
1471.92 727.344 L
1473.087 738.287 L
1474.254 701.41 L
1475.421 708.951 L
1476.588 734.884 L
1477.754 720.63 L
1478.921 694.329 L
1480.088 717.595 L
1481.255 697.456 L
1482.422 699.387 L
1483.589 690.467 L
1484.756 711.802 L
1485.922 670.971 L
1487.089 674.925 L
1488.256 690.283 L
1489.423 688.443 L
1490.59 672.902 L
1491.757 640.255 L
1492.924 649.175 L
1494.091 669.959 L
1495.257 655.705 L
1496.424 630.323 L
1497.591 655.613 L
1498.758 655.981 L
1499.925 645.589 L
1501.092 619.104 L
1502.259 642.278 L
1503.426 632.714 L
1504.593 604.482 L
1505.759 605.401 L
1506.926 619.839 L
1508.093 617.356 L
1509.26 586.733 L
1510.427 593.538 L
1511.594 599.332 L
1512.761 564.662 L
1513.927 576.341 L
1515.094 572.387 L
1516.261 580.663 L
1517.428 567.697 L
1518.595 560.524 L
1519.762 562.823 L
1520.929 558.868 L
1522.096 541.028 L
1523.263 564.018 L
1524.429 539.924 L
1525.596 530.452 L
1526.763 525.762 L
1527.93 518.773 L
1529.097 500.012 L
1530.264 525.21 L
1531.431 488.517 L
1532.598 525.854 L
1533.764 503.599 L
1534.931 477.665 L
1536.098 477.022 L
1537.265 487.965 L
1538.432 474.355 L
1539.599 469.297 L
1540.766 481.344 L
1541.932 457.25 L
1543.099 438.397 L
1544.266 457.71 L
1545.433 453.479 L
1546.6 433.34 L
1547.767 437.754 L
1548.934 431.684 L
1550.101 420.373 L
1551.267 418.809 L
1552.434 412.096 L
1553.601 406.946 L
1554.768 418.901 L
1555.935 419.729 L
1557.102 402.44 L
1558.269 381.381 L
1559.436 366.299 L
1560.602 399.865 L
1561.769 388.278 L
1562.936 368.966 L
1564.103 343.032 L
1565.27 388.83 L
1566.437 394.531 L
1567.604 352.229 L
1568.771 323.077 L
1569.938 344.228 L
1571.104 330.985 L
1572.271 328.318 L
1573.438 332.273 L
1574.605 323.72 L
1575.772 312.869 L
1576.939 311.949 L
1578.106 322.617 L
1579.272 298.155 L
1580.439 297.419 L
1581.606 299.442 L
1582.773 307.259 L
1583.94 279.486 L
1585.107 250.886 L
1586.274 318.57 L
1587.441 282.521 L
1588.608 254.197 L
1589.774 254.381 L
1590.941 257.415 L
1592.108 251.07 L
1593.275 250.794 L
1594.442 238.839 L
1595.609 247.116 L
1596.776 249.231 L
1597.943 238.471 L
1599.109 219.067 L
1600.276 239.483 L
1601.443 252.357 L
1602.61 224.309 L
1603.777 215.664 L
1604.944 189.639 L
1606.111 219.251 L
1607.278 202.33 L
1608.444 193.318 L
1609.611 205.457 L
1610.778 201.042 L
1611.945 186.512 L
1613.112 184.397 L
1614.279 198.743 L
1615.446 179.063 L
1616.613 157.544 L
1617.779 184.949 L
1618.946 185.041 L
1620.113 169.315 L
1621.28 166.097 L
1622.447 178.144 L
1623.614 158.556 L
1624.781 146.417 L
1625.948 165.545 L
1627.114 138.784 L
1628.281 155.061 L
1629.448 128.392 L
1630.615 154.509 L
1631.782 169.959 L
1632.949 132.99 L
1634.116 129.036 L
1635.282 152.946 L
1636.449 152.854 L
1637.616 126.001 L
1638.783 157.452 L
1639.95 141.543 L
1641.117 141.911 L
1642.284 115.425 L
1643.451 132.071 L
1644.617 147.796 L
1645.784 128.3 L
1646.951 105.677 L
1648.118 120.115 L
1649.285 156.257 L
1650.452 154.693 L
1651.619 119.472 L
1652.786 119.656 L
1653.953 123.426 L
1655.119 118.644 L
1656.286 131.059 L
1657.453 141.543 L
1658.62 119.472 L
1659.787 130.967 L
1660.954 92.711 L
1662.121 133.45 L
1663.287 136.485 L
1664.454 111.839 L
1665.621 103.838 L
1666.788 143.658 L
1667.955 134.829 L
1669.122 112.85 L
1670.289 128.852 L
1671.456 119.38 L
1672.622 125.357 L
1673.789 131.243 L
1674.956 148.9 L
1676.123 136.853 L
1677.29 139.06 L
1678.457 139.06 L
1679.624 134.921 L
1680.791 148.992 L
1681.957 145.497 L
1683.124 135.289 L
1684.291 151.383 L
1685.458 144.669 L
1686.625 154.234 L
1687.792 148.532 L
1688.959 152.67 L
1690.126 192.582 L
1691.293 172.534 L
1692.459 149.635 L
1693.626 185.869 L
1694.793 208.951 L
1695.96 166.373 L
1697.127 160.119 L
1698.294 199.571 L
1699.461 196.536 L
1700.628 179.799 L
1701.794 182.834 L
1702.961 194.053 L
1704.128 213.641 L
1705.295 198.743 L
1706.462 199.295 L
1707.629 216.584 L
1708.796 228.999 L
1709.963 223.573 L
1711.129 227.62 L
1712.296 227.436 L
1713.463 228.539 L
1714.63 234.793 L
1715.797 248.127 L
1716.964 243.805 L
1718.131 250.978 L
1719.297 242.885 L
1720.464 274.153 L
1721.631 273.141 L
1722.798 276.36 L
1723.965 274.428 L
1725.132 273.141 L
1726.299 289.418 L
1727.466 292.821 L
1728.633 306.523 L
1729.799 301.925 L
1730.966 311.949 L
1732.133 325.192 L
1733.3 325.284 L
1734.467 307.995 L
1735.634 341.561 L
1736.801 366.759 L
1737.968 348.826 L
1739.134 343.124 L
1740.301 373.932 L
1741.468 365.195 L
1742.635 394.164 L
1743.802 382.484 L
1744.969 374.576 L
1746.136 393.52 L
1747.302 410.901 L
1748.469 399.405 L
1749.636 412.28 L
1750.803 429.293 L
1751.97 401.796 L
1753.137 418.718 L
1754.304 441.156 L
1755.471 453.111 L
1756.637 438.489 L
1757.804 453.203 L
1758.971 469.113 L
1760.138 474.355 L
1761.305 471.32 L
1762.472 476.378 L
1763.639 509.76 L
1764.806 511.6 L
1765.972 471.78 L
1767.139 488.609 L
1768.306 529.164 L
1769.473 542.407 L
1770.64 510.864 L
1771.807 524.29 L
1772.974 545.35 L
1774.141 529.348 L
1775.307 541.579 L
1776.474 574.778 L
1777.641 562.087 L
1778.808 595.01 L
1779.975 611.195 L
1781.142 580.204 L
1782.309 580.296 L
1783.476 617.172 L
1784.642 600.895 L
1785.809 613.218 L
1786.976 618.828 L
1788.143 628.76 L
1789.31 631.611 L
1790.477 630.691 L
1791.644 658.464 L
1792.811 650.923 L
1793.978 650.739 L
1795.144 666.28 L
1796.311 697.456 L
1797.478 669.223 L
1798.645 692.49 L
1799.812 683.018 L
1800.979 691.754 L
1802.146 710.146 L
1803.313 708.399 L
1804.479 702.33 L
1805.646 706.928 L
1806.813 732.034 L
1807.98 741.322 L
1809.147 719.895 L
1810.314 740.402 L
1811.481 759.99 L
1812.648 735.896 L
1813.814 745.368 L
1814.981 761.462 L
1816.148 775.716 L
1817.315 780.038 L
1818.482 752.725 L
1819.649 775.44 L
1820.816 791.901 L
1821.983 790.798 L
1823.149 778.567 L
1824.316 785.372 L
1825.483 811.673 L
1826.65 801.097 L
1827.817 801.649 L
1828.984 791.625 L
1830.151 823.168 L
1831.318 820.869 L
1832.484 814.156 L
1833.651 811.029 L
1834.818 814.524 L
1835.985 825.927 L
1837.152 841.561 L
1838.319 840.549 L
1839.486 817.099 L
1840.652 831.721 L
1841.819 848.918 L
1842.986 851.033 L
1844.153 843.124 L
1845.32 837.422 L
1846.487 827.858 L
1847.654 867.218 L
1848.821 846.895 L
1849.988 841.009 L
1851.154 855.171 L
1852.321 865.195 L
1853.488 853.608 L
1854.655 861.425 L
1855.822 866.023 L
1856.989 849.562 L
1858.156 866.483 L
1859.323 861.333 L
1860.489 849.929 L
1861.656 857.102 L
1862.823 846.895 L
1863.99 854.252 L
1865.157 824.456 L
1866.324 846.527 L
1867.491 872.092 L
1868.657 860.781 L
1869.824 827.674 L
1870.991 835.399 L
1872.158 851.309 L
1873.325 838.25 L
1874.492 840.733 L
1875.659 825.375 L
1876.826 843.492 L
1877.992 846.987 L
1879.159 835.123 L
1880.326 811.121 L
1881.493 808.914 L
1882.66 834.48 L
1883.827 839.63 L
1884.994 818.754 L
1886.161 795.855 L
1887.327 807.535 L
1888.494 832.365 L
1889.661 824.456 L
1890.828 783.716 L
1891.995 770.382 L
1893.162 800.638 L
1894.329 803.488 L
1895.496 773.325 L
1896.663 752.725 L
1897.829 764.956 L
1898.996 792.085 L
1900.163 787.763 L
1901.33 749.506 L
1902.497 754.38 L
1903.664 746.012 L
1904.831 751.346 L
1905.998 739.299 L
1907.164 732.585 L
1908.331 724.401 L
1909.498 715.388 L
1910.665 724.493 L
1911.832 707.112 L
1912.999 678.603 L
1914.166 670.787 L
1915.333 690.926 L
1916.499 690.65 L
1917.666 699.295 L
1918.833 680.535 L
1920 659.475 L
S
GR
GS
[0.75 0 0 0.75 0 -0.25] CT
0.851 0.325 0.098 RC
1 LJ
2.667 LW
N
53 143.106 M
54.167 138.6 L
55.334 170.603 L
56.501 187.432 L
57.667 174.005 L
58.834 168.12 L
60.001 175.293 L
61.168 192.398 L
62.335 199.203 L
63.502 204.261 L
64.669 187.064 L
65.836 217.688 L
67.003 215.113 L
68.169 202.882 L
69.336 238.379 L
70.503 249.783 L
71.67 236.448 L
72.837 230.93 L
74.004 262.473 L
75.171 267.807 L
76.338 271.854 L
77.504 264.129 L
78.671 286.2 L
79.838 294.752 L
81.005 297.787 L
82.172 309.926 L
83.339 303.305 L
84.506 336.135 L
85.673 332.181 L
86.839 323.352 L
88.006 355.631 L
89.173 360.597 L
90.34 363.264 L
91.507 364.276 L
92.674 392.232 L
93.841 395.727 L
95.007 395.727 L
96.174 421.384 L
97.341 405.107 L
98.508 401.98 L
99.675 425.983 L
100.842 456.514 L
102.009 457.802 L
103.176 458.169 L
104.342 465.159 L
105.509 481.16 L
106.676 479.045 L
107.843 485.114 L
109.01 519.324 L
110.177 513.255 L
111.344 516.474 L
112.511 540.476 L
113.677 550.224 L
114.844 540.66 L
116.011 547.649 L
117.178 564.386 L
118.345 568.892 L
119.512 579.1 L
120.679 588.94 L
121.846 585.997 L
123.012 583.054 L
124.179 599.7 L
125.346 635.473 L
126.513 651.566 L
127.68 619.563 L
128.847 626.92 L
130.014 655.521 L
131.181 659.291 L
132.348 666.924 L
133.514 667.016 L
134.681 673.362 L
135.848 703.801 L
137.015 680.167 L
138.182 706.56 L
139.349 717.412 L
140.516 715.48 L
141.682 717.963 L
142.849 712.446 L
144.016 744.632 L
145.183 757.047 L
146.35 742.149 L
147.517 730.838 L
148.684 773.693 L
149.851 776.819 L
151.018 764.68 L
152.184 791.625 L
153.351 760.726 L
154.518 774.336 L
155.685 777.923 L
156.852 799.81 L
158.019 804.316 L
159.186 797.787 L
160.353 806.615 L
161.519 807.351 L
162.686 817.835 L
163.853 832.916 L
165.02 822.8 L
166.187 821.421 L
167.354 835.031 L
168.521 847.814 L
169.688 844.688 L
170.854 837.882 L
172.021 839.538 L
173.188 846.067 L
174.355 857.102 L
175.522 843.86 L
176.689 851.033 L
177.856 858.666 L
179.023 842.572 L
180.189 862.804 L
181.356 856.919 L
182.523 857.746 L
183.69 861.609 L
184.857 852.045 L
186.024 869.058 L
187.191 885.795 L
188.357 869.793 L
189.524 859.494 L
190.691 882.208 L
191.858 879.357 L
193.025 872 L
194.192 872.736 L
195.359 871.816 L
196.526 864.551 L
197.693 858.114 L
198.859 876.782 L
200.026 860.321 L
201.193 866.759 L
202.36 852.045 L
203.527 850.849 L
204.694 893.887 L
205.861 865.287 L
207.027 834.94 L
208.194 869.058 L
209.361 869.425 L
210.528 845.607 L
211.695 844.963 L
212.862 832.824 L
214.029 848.09 L
215.196 832.549 L
216.363 840.825 L
217.529 835.399 L
218.696 813.328 L
219.863 807.443 L
221.03 831.721 L
222.197 814.8 L
223.364 808.27 L
224.531 820.501 L
225.697 790.43 L
226.864 795.396 L
228.031 817.191 L
229.198 798.339 L
230.365 783.073 L
231.532 788.131 L
232.699 801.097 L
233.866 758.519 L
235.033 763.209 L
236.199 781.417 L
237.366 747.115 L
238.533 749.69 L
239.7 744.724 L
240.867 740.678 L
242.034 738.103 L
243.201 734.517 L
244.368 715.848 L
245.534 719.895 L
246.701 725.596 L
247.868 698.191 L
249.035 691.478 L
250.202 717.32 L
251.369 698.927 L
252.536 663.062 L
253.702 692.95 L
254.869 688.903 L
256.036 660.947 L
257.203 659.567 L
258.37 649.635 L
259.537 619.012 L
260.704 656.624 L
261.871 644.761 L
263.038 618.828 L
264.204 613.954 L
265.371 615.057 L
266.538 600.435 L
267.705 588.02 L
268.872 600.711 L
270.039 602.826 L
271.206 577.813 L
272.372 573.858 L
273.539 567.329 L
274.706 552.707 L
275.873 552.983 L
277.04 549.212 L
278.207 544.798 L
279.374 556.201 L
280.541 520.428 L
281.707 516.014 L
282.874 512.059 L
284.041 496.61 L
285.208 499.277 L
286.375 492.196 L
287.542 471.044 L
288.709 473.619 L
289.876 473.343 L
291.043 467.917 L
292.209 477.022 L
293.376 443.823 L
294.543 436.65 L
295.71 442.352 L
296.877 445.754 L
298.044 431.868 L
299.211 412.648 L
300.378 418.074 L
301.544 412.004 L
302.711 398.21 L
303.878 382.3 L
305.045 394.991 L
306.212 388.37 L
307.379 374.392 L
308.546 356.367 L
309.712 375.219 L
310.879 358.85 L
312.046 339.262 L
313.213 355.447 L
314.38 344.596 L
315.547 341.101 L
316.714 323.077 L
317.881 338.71 L
319.048 298.615 L
320.214 314.156 L
321.381 303.305 L
322.548 303.489 L
323.715 299.442 L
324.882 285.648 L
326.049 269.738 L
327.216 285.372 L
328.383 284.544 L
329.549 261.554 L
330.716 258.427 L
331.883 261.186 L
333.05 254.105 L
334.217 254.013 L
335.384 242.793 L
336.551 238.011 L
337.717 235.344 L
338.884 235.712 L
340.051 230.562 L
341.218 211.618 L
342.385 225.872 L
343.552 202.514 L
344.719 196.812 L
345.886 197.364 L
347.052 205.641 L
348.219 189.363 L
349.386 191.11 L
350.553 198.192 L
351.72 182.006 L
352.887 163.338 L
354.054 186.145 L
355.221 184.581 L
356.388 156.9 L
357.554 156.441 L
358.721 175.661 L
359.888 173.822 L
361.055 156.9 L
362.222 157.36 L
363.389 145.129 L
364.556 156.992 L
365.723 172.258 L
366.889 132.071 L
368.056 145.497 L
369.223 152.854 L
370.39 133.818 L
371.557 130.599 L
372.724 128.024 L
373.891 130.967 L
375.057 135.933 L
376.224 116.529 L
377.391 112.299 L
378.558 148.44 L
379.725 138.324 L
380.892 114.138 L
382.059 107.149 L
383.226 133.91 L
384.393 150.187 L
385.559 115.15 L
386.726 111.103 L
387.893 119.196 L
389.06 96.113 L
390.227 116.345 L
391.394 118.92 L
392.561 96.297 L
393.728 119.472 L
394.894 128.944 L
396.061 95.378 L
397.228 90.963 L
398.395 124.254 L
399.562 139.06 L
400.729 96.665 L
401.896 93.079 L
403.063 130.415 L
404.229 128.668 L
405.396 105.861 L
406.563 105.493 L
407.73 134.002 L
408.897 114.506 L
410.064 110.184 L
411.231 129.863 L
412.397 123.518 L
413.564 105.126 L
414.731 111.655 L
415.898 145.221 L
417.065 135.289 L
418.232 111.379 L
419.399 117.724 L
420.566 142.554 L
421.732 145.037 L
422.899 107.884 L
424.066 135.013 L
425.233 159.2 L
426.4 137.956 L
427.567 126.829 L
428.734 139.795 L
429.901 161.223 L
431.068 155.613 L
432.234 141.543 L
433.401 146.325 L
434.568 150.371 L
435.735 143.658 L
436.902 167.752 L
438.069 162.418 L
439.236 148.9 L
440.402 166.74 L
441.569 165.453 L
442.736 171.522 L
443.903 160.211 L
445.07 165.821 L
446.237 173.914 L
447.404 192.03 L
448.571 177.684 L
449.738 170.879 L
450.904 215.389 L
452.071 204.537 L
453.238 175.017 L
454.405 206.376 L
455.572 211.986 L
456.739 177.684 L
457.906 193.593 L
459.073 222.654 L
460.239 214.285 L
461.406 201.134 L
462.573 218.883 L
463.74 232.034 L
464.907 233.689 L
466.074 229.091 L
467.241 224.861 L
468.408 236.724 L
469.574 255.3 L
470.741 247.759 L
471.908 251.622 L
473.075 253.737 L
474.242 278.567 L
475.409 250.978 L
476.576 254.565 L
477.743 282.797 L
478.909 261.37 L
480.076 259.622 L
481.243 271.578 L
482.41 301.373 L
483.577 290.798 L
484.744 283.441 L
485.911 312.409 L
487.078 291.809 L
488.244 297.419 L
489.411 304.684 L
490.578 306.431 L
491.745 313.696 L
492.912 315.995 L
494.079 317.099 L
495.246 339.446 L
496.412 352.045 L
497.579 316.731 L
498.746 335.124 L
499.913 344.504 L
501.08 348.458 L
502.247 353.7 L
503.414 356.459 L
504.581 356.091 L
505.748 383.772 L
506.914 356.919 L
508.081 365.839 L
509.248 386.255 L
510.415 382.3 L
511.582 379.542 L
512.749 394.256 L
513.916 385.795 L
515.083 389.657 L
516.249 415.499 L
517.416 419.913 L
518.583 409.705 L
519.75 401.796 L
520.917 422.212 L
522.084 435.547 L
523.251 405.659 L
524.417 410.533 L
525.584 450.72 L
526.751 444.467 L
527.918 437.846 L
529.085 452.652 L
530.252 458.997 L
531.419 433.064 L
532.586 470.584 L
533.753 478.125 L
534.919 446.398 L
536.086 483.459 L
537.253 482.172 L
538.42 467.733 L
539.587 465.894 L
540.754 504.794 L
541.921 506.91 L
543.087 476.286 L
544.254 510.772 L
545.421 523.831 L
546.588 521.44 L
547.755 501.208 L
548.922 524.107 L
550.089 537.441 L
551.256 535.142 L
552.423 541.12 L
553.589 518.313 L
554.756 541.579 L
555.923 544.982 L
557.09 543.603 L
558.257 544.43 L
559.424 553.534 L
560.591 566.225 L
561.758 572.295 L
562.924 561.535 L
564.091 574.226 L
565.258 567.053 L
566.425 580.663 L
567.592 590.779 L
568.759 597.952 L
569.926 595.929 L
571.092 591.239 L
572.259 598.596 L
573.426 595.377 L
574.593 594.642 L
575.76 605.401 L
576.927 610.459 L
578.094 608.62 L
579.261 612.298 L
580.427 630.507 L
581.594 618.828 L
582.761 619.38 L
583.928 620.575 L
585.095 620.667 L
586.262 653.865 L
587.429 644.209 L
588.596 636.944 L
589.763 653.59 L
590.929 644.945 L
592.096 650.187 L
593.263 634.921 L
594.43 655.429 L
595.597 661.039 L
596.764 675.753 L
597.931 660.119 L
599.097 664.073 L
600.264 675.477 L
601.431 668.12 L
602.598 694.605 L
603.765 687.524 L
604.932 686.144 L
606.099 694.789 L
607.266 700.215 L
608.432 681.178 L
609.599 695.616 L
610.766 700.674 L
611.933 712.078 L
613.1 711.434 L
614.267 714.193 L
615.434 711.342 L
616.601 721.826 L
617.768 729.091 L
618.934 706.928 L
620.101 703.249 L
621.268 736.724 L
622.435 724.493 L
623.602 732.493 L
624.769 726.24 L
625.936 738.379 L
627.102 732.401 L
628.269 725.78 L
629.436 756.771 L
630.603 759.898 L
631.77 723.573 L
632.937 745.368 L
634.104 759.346 L
635.271 746.564 L
636.438 761.094 L
637.604 769.738 L
638.771 769.37 L
639.938 748.035 L
641.105 756.68 L
642.272 776.635 L
643.439 766.152 L
644.606 760.45 L
645.773 792.637 L
646.939 765.416 L
648.106 778.475 L
649.273 792.453 L
650.44 769.83 L
651.607 766.887 L
652.774 795.212 L
653.941 786.383 L
655.108 789.51 L
656.274 780.774 L
657.441 791.073 L
658.608 802.569 L
659.775 792.085 L
660.942 801.005 L
662.109 807.167 L
663.276 791.257 L
664.443 807.903 L
665.609 814.708 L
666.776 812.133 L
667.943 806.247 L
669.11 800.086 L
670.277 808.27 L
671.444 813.236 L
672.611 802.109 L
673.777 816.363 L
674.944 807.075 L
676.111 801.649 L
677.278 817.191 L
678.445 820.409 L
679.612 815.443 L
680.779 806.339 L
681.946 823.444 L
683.112 831.905 L
684.279 833.652 L
685.446 821.329 L
686.613 834.296 L
687.78 821.329 L
688.947 819.122 L
690.114 838.526 L
691.281 841.929 L
692.448 816.087 L
693.614 827.123 L
694.781 839.997 L
695.948 839.538 L
697.115 814.248 L
698.282 843.308 L
699.449 842.205 L
700.616 833.1 L
701.782 837.698 L
702.949 850.665 L
704.116 838.342 L
705.283 835.675 L
706.45 844.228 L
707.617 828.778 L
708.784 855.631 L
709.951 857.746 L
711.117 830.617 L
712.284 859.861 L
713.451 866.483 L
714.618 844.504 L
715.785 844.32 L
716.952 872.46 L
718.119 863.356 L
719.286 845.607 L
720.453 852.504 L
721.619 854.528 L
722.786 844.688 L
723.953 861.333 L
725.12 848.734 L
726.287 833.376 L
727.454 864.735 L
728.621 867.31 L
729.787 838.434 L
730.954 861.517 L
732.121 868.23 L
733.288 853.608 L
734.455 862.988 L
735.622 851.677 L
736.789 850.665 L
737.956 858.666 L
739.122 851.217 L
740.289 861.425 L
741.456 850.205 L
742.623 867.494 L
743.79 862.62 L
744.957 852.32 L
746.124 864.919 L
747.291 868.69 L
748.458 855.999 L
749.624 854.711 L
750.791 869.517 L
751.958 861.425 L
753.125 857.746 L
754.292 860.597 L
755.459 865.195 L
756.626 864.459 L
757.793 873.472 L
758.959 858.206 L
760.126 866.207 L
761.293 859.953 L
762.46 869.425 L
763.627 844.963 L
764.794 871.449 L
765.961 872 L
767.128 865.563 L
768.294 866.115 L
769.461 858.574 L
770.628 855.999 L
771.795 867.494 L
772.962 870.621 L
774.129 857.01 L
775.296 868.138 L
776.462 870.897 L
777.629 860.965 L
778.796 854.803 L
779.963 870.437 L
781.13 865.471 L
782.297 852.964 L
783.464 878.622 L
784.631 881.748 L
785.797 851.769 L
786.964 880.553 L
788.131 874.024 L
789.298 856.459 L
790.465 854.62 L
791.632 870.805 L
792.799 855.355 L
793.966 862.344 L
795.133 873.748 L
796.299 853.332 L
797.466 855.723 L
798.633 869.793 L
799.8 858.298 L
800.967 862.16 L
802.134 849.929 L
803.301 869.793 L
804.468 881.289 L
805.634 840.273 L
806.801 852.32 L
807.968 876.139 L
809.135 862.344 L
810.302 868.506 L
811.469 845.975 L
812.636 869.793 L
813.802 879.909 L
814.969 864.459 L
816.136 851.309 L
817.303 865.839 L
818.47 883.496 L
819.637 864.735 L
820.804 872.276 L
821.971 856.551 L
823.138 849.378 L
824.304 866.207 L
825.471 872.736 L
826.638 846.987 L
827.805 861.517 L
828.972 854.62 L
830.139 856.827 L
831.306 869.425 L
832.472 862.16 L
833.639 827.215 L
834.806 864.367 L
835.973 869.793 L
837.14 852.504 L
838.307 867.218 L
839.474 846.435 L
840.641 857.286 L
841.807 853.148 L
842.974 854.436 L
844.141 865.563 L
845.308 857.562 L
846.475 848.734 L
847.642 852.688 L
848.809 874.116 L
849.976 851.125 L
851.143 847.906 L
852.309 859.034 L
853.476 855.815 L
854.643 843.952 L
855.81 854.803 L
856.977 872.092 L
858.144 855.263 L
859.311 836.227 L
860.478 855.631 L
861.644 855.907 L
862.811 841.745 L
863.978 862.436 L
865.145 865.195 L
866.312 854.344 L
867.479 826.479 L
868.646 858.298 L
869.813 876.139 L
870.979 851.401 L
872.146 853.24 L
873.313 856.919 L
874.48 846.527 L
875.647 825.743 L
876.814 845.791 L
877.981 848.826 L
879.147 852.688 L
880.314 869.517 L
881.481 846.159 L
882.648 829.054 L
883.815 851.309 L
884.982 847.079 L
886.149 829.79 L
887.316 855.079 L
888.482 857.01 L
889.649 834.296 L
890.816 849.929 L
891.983 848.918 L
893.15 839.17 L
894.317 856.091 L
895.484 855.079 L
896.651 831.721 L
897.818 842.848 L
898.984 841.285 L
900.151 835.767 L
901.318 858.114 L
902.485 839.538 L
903.652 844.963 L
904.819 843.308 L
905.986 870.621 L
907.153 837.055 L
908.319 832.365 L
909.486 865.839 L
910.653 872.092 L
911.82 820.226 L
912.987 818.938 L
914.154 858.298 L
915.321 843.676 L
916.487 837.606 L
917.654 840.089 L
918.821 844.504 L
919.988 836.135 L
921.155 835.583 L
922.322 852.78 L
923.489 826.939 L
924.656 846.251 L
925.823 862.252 L
926.989 833.652 L
928.156 845.515 L
929.323 868.414 L
930.49 838.066 L
931.657 822.341 L
932.824 842.94 L
933.991 837.422 L
935.157 833.836 L
936.324 876.507 L
937.491 851.585 L
938.658 827.95 L
939.825 839.446 L
940.992 855.355 L
942.159 830.617 L
943.326 828.686 L
944.492 843.584 L
945.659 847.722 L
946.826 833.744 L
947.993 827.583 L
949.16 849.745 L
950.327 851.125 L
951.494 846.895 L
952.661 838.158 L
953.828 841.837 L
954.994 850.389 L
956.161 839.722 L
957.328 850.573 L
958.495 848.918 L
959.662 840.089 L
960.829 827.123 L
961.996 850.205 L
963.163 848.182 L
964.329 845.423 L
965.496 844.32 L
966.663 846.711 L
967.83 838.434 L
968.997 834.94 L
970.164 836.227 L
971.331 843.86 L
972.497 838.526 L
973.664 832.089 L
974.831 833.928 L
975.998 854.528 L
977.165 840.365 L
978.332 852.045 L
979.499 839.63 L
980.666 835.951 L
981.832 857.746 L
982.999 846.067 L
984.166 821.605 L
985.333 837.514 L
986.5 849.745 L
987.667 826.847 L
988.834 834.664 L
990.001 839.17 L
991.167 840.641 L
992.334 838.158 L
993.501 847.079 L
994.668 848.182 L
995.835 845.055 L
997.002 842.297 L
998.169 838.526 L
999.336 836.043 L
1000.503 852.32 L
1001.669 844.504 L
1002.836 845.607 L
1004.003 832.457 L
1005.17 830.985 L
1006.337 836.963 L
1007.504 856.459 L
1008.671 841.101 L
1009.838 844.044 L
1011.004 853.056 L
1012.171 838.25 L
1013.338 834.756 L
1014.505 847.263 L
1015.672 850.205 L
1016.839 842.113 L
1018.006 846.987 L
1019.172 853.24 L
1020.339 835.399 L
1021.506 849.286 L
1022.673 859.402 L
1023.84 826.387 L
1025.007 838.342 L
1026.174 860.229 L
1027.341 841.653 L
1028.507 858.942 L
1029.674 843.676 L
1030.841 832.916 L
1032.008 845.055 L
1033.175 848.09 L
1034.342 869.793 L
1035.509 840.825 L
1036.676 828.962 L
1037.843 851.769 L
1039.009 864.643 L
1040.176 827.123 L
1041.343 832.365 L
1042.51 861.517 L
1043.677 841.653 L
1044.844 857.01 L
1046.011 846.251 L
1047.177 845.699 L
1048.344 834.48 L
1049.511 828.594 L
1050.678 850.941 L
1051.845 855.815 L
1053.012 863.54 L
1054.179 849.929 L
1055.346 851.585 L
1056.513 845.331 L
1057.679 854.528 L
1058.846 847.63 L
1060.013 838.25 L
1061.18 855.355 L
1062.347 866.023 L
1063.514 842.205 L
1064.681 839.538 L
1065.848 851.769 L
1067.014 872 L
1068.181 844.688 L
1069.348 844.044 L
1070.515 851.401 L
1071.682 866.575 L
1072.849 852.137 L
1074.016 849.378 L
1075.182 862.712 L
1076.349 852.504 L
1077.516 852.137 L
1078.683 853.7 L
1079.85 852.872 L
1081.017 849.562 L
1082.184 858.666 L
1083.351 857.93 L
1084.517 857.378 L
1085.684 860.873 L
1086.851 853.792 L
1088.018 864.643 L
1089.185 858.942 L
1090.352 860.505 L
1091.519 845.331 L
1092.686 862.804 L
1093.852 863.448 L
1095.019 851.033 L
1096.186 877.886 L
1097.353 886.898 L
1098.52 845.699 L
1099.687 857.838 L
1100.854 853.148 L
1102.021 863.356 L
1103.188 866.483 L
1104.354 863.172 L
1105.521 844.228 L
1106.688 866.667 L
1107.855 866.299 L
1109.022 856.827 L
1110.189 846.619 L
1111.356 865.011 L
1112.523 876.047 L
1113.689 848.182 L
1114.856 867.218 L
1116.023 861.609 L
1117.19 853.792 L
1118.357 864.276 L
1119.524 863.448 L
1120.691 863.908 L
1121.858 870.897 L
1123.024 861.057 L
1124.191 856.459 L
1125.358 855.631 L
1126.525 873.288 L
1127.692 851.401 L
1128.859 845.607 L
1130.026 866.942 L
1131.193 869.333 L
1132.359 853.884 L
1133.526 857.93 L
1134.693 853.7 L
1135.86 850.021 L
1137.027 877.334 L
1138.194 864.551 L
1139.361 858.758 L
1140.527 861.333 L
1141.694 859.585 L
1142.861 845.975 L
1144.028 861.149 L
1145.195 853.332 L
1146.362 883.496 L
1147.529 865.747 L
1148.696 837.239 L
1149.862 875.127 L
1151.029 871.081 L
1152.196 862.528 L
1153.363 863.08 L
1154.53 865.195 L
1155.697 850.849 L
1156.864 855.539 L
1158.031 864.092 L
1159.198 855.539 L
1160.364 857.102 L
1161.531 863.264 L
1162.698 873.84 L
1163.865 861.333 L
1165.032 848.182 L
1166.199 866.299 L
1167.366 874.208 L
1168.532 852.872 L
1169.699 873.104 L
1170.866 865.563 L
1172.033 857.47 L
1173.2 849.562 L
1174.367 867.218 L
1175.534 860.045 L
1176.701 843.308 L
1177.868 853.792 L
1179.034 854.528 L
1180.201 847.998 L
1181.368 860.965 L
1182.535 853.7 L
1183.702 847.63 L
1184.869 845.883 L
1186.036 867.126 L
1187.203 859.953 L
1188.369 853.24 L
1189.536 838.342 L
1190.703 852.137 L
1191.87 841.469 L
1193.037 832.549 L
1194.204 851.033 L
1195.371 861.425 L
1196.537 839.906 L
1197.704 844.32 L
1198.871 869.242 L
1200.038 839.997 L
1201.205 823.904 L
1202.372 858.114 L
1203.539 847.446 L
1204.706 847.354 L
1205.873 861.701 L
1207.039 839.906 L
1208.206 850.389 L
1209.373 841.101 L
1210.54 836.963 L
1211.707 842.48 L
1212.874 856.091 L
1214.041 831.997 L
1215.208 823.352 L
1216.374 840.825 L
1217.541 852.412 L
1218.708 834.296 L
1219.875 836.503 L
1221.042 837.882 L
1222.209 838.25 L
1223.376 834.664 L
1224.542 839.906 L
1225.709 824.916 L
1226.876 820.593 L
1228.043 817.835 L
1229.21 840.641 L
1230.377 833.56 L
1231.544 820.777 L
1232.711 820.134 L
1233.877 829.698 L
1235.044 818.478 L
1236.211 824.64 L
1237.378 822.709 L
1238.545 804.224 L
1239.712 828.594 L
1240.879 839.078 L
1242.046 802.293 L
1243.213 814.984 L
1244.379 831.997 L
1245.546 780.866 L
1246.713 777.371 L
1247.88 815.076 L
1249.047 821.697 L
1250.214 789.694 L
1251.381 786.383 L
1252.547 827.95 L
1253.714 795.396 L
1254.881 796.315 L
1256.048 804.04 L
1257.215 796.775 L
1258.382 802.293 L
1259.549 787.763 L
1260.716 776.451 L
1261.883 797.879 L
1263.049 800.638 L
1264.216 763.761 L
1265.383 767.623 L
1266.55 805.052 L
1267.717 778.383 L
1268.884 765.416 L
1270.051 764.68 L
1271.218 783.625 L
1272.384 790.062 L
1273.551 759.254 L
1274.718 775.532 L
1275.885 776.359 L
1277.052 760.358 L
1278.219 747.851 L
1279.386 772.681 L
1280.552 768.175 L
1281.719 748.863 L
1282.886 763.853 L
1284.053 761.186 L
1285.22 759.162 L
1286.387 738.011 L
1287.554 750.702 L
1288.721 756.771 L
1289.887 748.311 L
1291.054 739.207 L
1292.221 740.31 L
1293.388 743.069 L
1294.555 736.816 L
1295.722 730.01 L
1296.889 721.918 L
1298.056 720.262 L
1299.222 727.16 L
1300.389 729.459 L
1301.556 720.906 L
1302.723 718.055 L
1303.89 707.755 L
1305.057 709.227 L
1306.224 705.272 L
1307.391 704.445 L
1308.557 709.595 L
1309.724 707.02 L
1310.891 699.847 L
1312.058 685.225 L
1313.225 689.915 L
1314.392 700.766 L
1315.559 685.409 L
1316.726 689.639 L
1317.893 694.421 L
1319.059 672.166 L
1320.226 675.017 L
1321.393 673.913 L
1322.56 665.821 L
1323.727 662.326 L
1324.894 695.616 L
1326.061 671.154 L
1327.228 642.094 L
1328.394 658.464 L
1329.561 664.441 L
1330.728 658.188 L
1331.895 647.06 L
1333.062 646.233 L
1334.229 641.634 L
1335.396 637.036 L
1336.563 645.681 L
1337.729 620.851 L
1338.896 636.025 L
1340.063 627.288 L
1341.23 622.138 L
1342.397 623.518 L
1343.564 611.471 L
1344.731 622.598 L
1345.897 628.484 L
1347.064 612.206 L
1348.231 592.251 L
1349.398 587.285 L
1350.565 604.298 L
1351.732 591.239 L
1352.899 590.687 L
1354.066 586.089 L
1355.232 598.044 L
1356.399 575.789 L
1357.566 572.479 L
1358.733 582.87 L
1359.9 573.122 L
1361.067 553.994 L
1362.234 559.236 L
1363.401 570.823 L
1364.568 548.936 L
1365.734 547.097 L
1366.901 558.868 L
1368.068 536.797 L
1369.235 534.682 L
1370.402 526.13 L
1371.569 522.083 L
1372.736 558.408 L
1373.902 521.991 L
1375.069 495.322 L
1376.236 527.049 L
1377.403 510.68 L
1378.57 513.531 L
1379.737 519.876 L
1380.904 489.529 L
1382.071 499.369 L
1383.238 494.587 L
1384.404 506.082 L
1385.571 487.322 L
1386.738 497.07 L
1387.905 483.183 L
1389.072 474.539 L
1390.239 479.873 L
1391.406 477.573 L
1392.573 452.376 L
1393.739 451.18 L
1394.906 454.767 L
1396.073 452.192 L
1397.24 441.708 L
1398.407 452.652 L
1399.574 429.753 L
1400.741 430.857 L
1401.907 429.569 L
1403.074 432.972 L
1404.241 444.007 L
1405.408 422.58 L
1406.575 404.279 L
1407.742 407.314 L
1408.909 410.441 L
1410.076 400.693 L
1411.243 384.875 L
1412.409 404.279 L
1413.576 393.06 L
1414.743 377.15 L
1415.91 385.151 L
1417.077 394.439 L
1418.244 381.289 L
1419.411 365.471 L
1420.578 363.08 L
1421.744 379.817 L
1422.911 370.805 L
1424.078 367.311 L
1425.245 347.723 L
1426.412 342.205 L
1427.579 361.057 L
1428.746 352.872 L
1429.912 347.906 L
1431.079 323.72 L
1432.246 338.25 L
1433.413 342.757 L
1434.58 315.72 L
1435.747 308.363 L
1436.914 317.007 L
1438.081 327.307 L
1439.247 291.717 L
1440.414 304.96 L
1441.581 294.66 L
1442.748 282.153 L
1443.915 293.465 L
1445.082 301.006 L
1446.249 277.187 L
1447.416 275.072 L
1448.583 290.982 L
1449.749 264.772 L
1450.916 270.382 L
1452.083 278.015 L
1453.25 261.554 L
1454.417 260.91 L
1455.584 255.668 L
1456.751 249.783 L
1457.917 261.922 L
1459.084 255.024 L
1460.251 233.873 L
1461.418 232.218 L
1462.585 246.656 L
1463.752 243.069 L
1464.919 229.551 L
1466.086 228.079 L
1467.253 226.148 L
1468.419 220.446 L
1469.586 219.159 L
1470.753 210.423 L
1471.92 213.457 L
1473.087 213.09 L
1474.254 211.25 L
1475.421 199.939 L
1476.588 208.399 L
1477.754 190.743 L
1478.921 194.973 L
1480.088 194.145 L
1481.255 203.525 L
1482.422 182.098 L
1483.589 167.66 L
1484.756 189.179 L
1485.922 202.054 L
1487.089 172.994 L
1488.256 160.947 L
1489.423 169.499 L
1490.59 171.89 L
1491.757 191.938 L
1492.924 184.305 L
1494.091 167.476 L
1495.257 141.727 L
1496.424 151.015 L
1497.591 156.165 L
1498.758 170.787 L
1499.925 158.28 L
1501.092 135.841 L
1502.259 126.645 L
1503.426 180.627 L
1504.593 172.534 L
1505.759 140.163 L
1506.926 138.784 L
1508.093 143.934 L
1509.26 143.75 L
1510.427 129.863 L
1511.594 143.198 L
1512.761 150.739 L
1513.927 119.288 L
1515.094 142.646 L
1516.261 140.991 L
1517.428 108.528 L
1518.595 127.472 L
1519.762 137.037 L
1520.929 127.932 L
1522.096 110.643 L
1523.263 121.495 L
1524.429 149.451 L
1525.596 121.587 L
1526.763 120.299 L
1527.93 118.368 L
1529.097 129.036 L
1530.264 124.806 L
1531.431 128.484 L
1532.598 92.527 L
1533.764 139.52 L
1534.931 150.003 L
1536.098 113.862 L
1537.265 94.826 L
1538.432 127.197 L
1539.599 146.509 L
1540.766 124.989 L
1541.932 107.333 L
1543.099 140.347 L
1544.266 142.738 L
1545.433 124.989 L
1546.6 122.415 L
1547.767 120.759 L
1548.934 141.727 L
1550.101 133.082 L
1551.267 110.459 L
1552.434 143.474 L
1553.601 131.151 L
1554.768 125.357 L
1555.935 143.014 L
1557.102 138.324 L
1558.269 134.278 L
1559.436 139.611 L
1560.602 153.774 L
1561.769 138.968 L
1562.936 136.577 L
1564.103 145.497 L
1565.27 141.635 L
1566.437 142.922 L
1567.604 149.451 L
1568.771 153.13 L
1569.938 158.372 L
1571.104 165.729 L
1572.271 159.659 L
1573.438 164.349 L
1574.605 180.719 L
1575.772 155.061 L
1576.939 165.545 L
1578.106 181.822 L
1579.272 165.177 L
1580.439 175.109 L
1581.606 181.638 L
1582.773 176.764 L
1583.94 186.236 L
1585.107 191.846 L
1586.274 179.799 L
1587.441 184.029 L
1588.608 200.767 L
1589.774 200.767 L
1590.941 203.158 L
1592.108 205.732 L
1593.275 206.468 L
1594.442 219.343 L
1595.609 212.998 L
1596.776 210.239 L
1597.943 235.988 L
1599.109 234.241 L
1600.276 225.321 L
1601.443 226.148 L
1602.61 248.035 L
1603.777 256.128 L
1604.944 258.519 L
1606.111 256.128 L
1607.278 245.92 L
1608.444 267.531 L
1609.611 265.784 L
1610.778 270.29 L
1611.945 276.911 L
1613.112 272.129 L
1614.279 274.796 L
1615.446 312.869 L
1616.613 310.202 L
1617.779 274.336 L
1618.946 298.615 L
1620.113 306.983 L
1621.28 324.732 L
1622.447 318.57 L
1623.614 310.754 L
1624.781 328.778 L
1625.948 341.745 L
1627.114 330.434 L
1628.281 321.605 L
1629.448 355.999 L
1630.615 359.77 L
1631.782 366.023 L
1632.949 370.069 L
1634.116 381.565 L
1635.282 378.714 L
1636.449 382.852 L
1637.616 386.715 L
1638.783 391.129 L
1639.95 391.313 L
1641.117 402.9 L
1642.284 421.292 L
1643.451 403.36 L
1644.617 426.718 L
1645.784 436.282 L
1646.951 431.5 L
1648.118 439.869 L
1649.285 426.075 L
1650.452 452.928 L
1651.619 460.468 L
1652.786 459.825 L
1653.953 472.24 L
1655.119 481.344 L
1656.286 487.597 L
1657.453 483.275 L
1658.62 494.77 L
1659.787 481.068 L
1660.954 520.244 L
1662.121 500.656 L
1663.287 507.369 L
1664.454 533.303 L
1665.621 535.326 L
1666.788 545.902 L
1667.955 542.223 L
1669.122 556.201 L
1670.289 556.385 L
1671.456 563.558 L
1672.622 578.732 L
1673.789 558.96 L
1674.956 574.134 L
1676.123 591.055 L
1677.29 582.687 L
1678.457 596.297 L
1679.624 603.93 L
1680.791 604.39 L
1681.957 615.517 L
1683.124 613.678 L
1684.291 616.529 L
1685.458 635.933 L
1686.625 649.083 L
1687.792 638.048 L
1688.959 638.784 L
1690.126 649.359 L
1691.293 652.854 L
1692.459 669.315 L
1693.626 651.107 L
1694.793 664.533 L
1695.96 689.915 L
1697.127 680.627 L
1698.294 682.006 L
1699.461 707.48 L
1700.628 699.939 L
1701.794 711.71 L
1702.961 716.308 L
1704.128 704.997 L
1705.295 713.457 L
1706.462 745.736 L
1707.629 727.987 L
1708.796 725.228 L
1709.963 750.702 L
1711.129 735.068 L
1712.296 752.541 L
1713.463 764.864 L
1714.63 761.37 L
1715.797 753.921 L
1716.964 783.165 L
1718.131 773.233 L
1719.297 772.865 L
1720.464 775.624 L
1721.631 791.901 L
1722.798 791.717 L
1723.965 779.486 L
1725.132 799.81 L
1726.299 804.5 L
1727.466 807.995 L
1728.633 795.12 L
1729.799 782.705 L
1730.966 825.008 L
1732.133 813.236 L
1733.3 807.627 L
1734.467 822.065 L
1735.634 835.123 L
1736.801 818.386 L
1737.968 830.066 L
1739.134 845.607 L
1740.301 823.168 L
1741.468 827.766 L
1742.635 842.664 L
1743.802 850.481 L
1744.969 826.387 L
1746.136 833.376 L
1747.302 839.906 L
1748.469 863.448 L
1749.636 850.849 L
1750.803 854.16 L
1751.97 847.354 L
1753.137 847.446 L
1754.304 873.564 L
1755.471 849.745 L
1756.637 849.378 L
1757.804 867.678 L
1758.971 854.068 L
1760.138 862.804 L
1761.305 862.804 L
1762.472 860.597 L
1763.639 846.435 L
1764.806 855.723 L
1765.972 871.816 L
1767.139 850.481 L
1768.306 857.746 L
1769.473 859.677 L
1770.64 865.195 L
1771.807 848.734 L
1772.974 858.39 L
1774.141 864.827 L
1775.307 830.709 L
1776.474 839.078 L
1777.641 867.218 L
1778.808 858.85 L
1779.975 827.583 L
1781.142 831.169 L
1782.309 848.09 L
1783.476 853.24 L
1784.642 855.355 L
1785.809 815.535 L
1786.976 827.215 L
1788.143 837.974 L
1789.31 827.766 L
1790.477 820.134 L
1791.644 811.397 L
1792.811 832.089 L
1793.978 830.617 L
1795.144 818.57 L
1796.311 812.501 L
1797.478 805.787 L
1798.645 816.547 L
1799.812 795.488 L
1800.979 778.015 L
1802.146 791.625 L
1803.313 792.637 L
1804.479 776.543 L
1805.646 778.842 L
1806.813 780.59 L
1807.98 747.575 L
1809.147 753.737 L
1810.314 762.933 L
1811.481 764.956 L
1812.648 750.886 L
1813.814 753.921 L
1814.981 740.034 L
1816.148 736.908 L
1817.315 731.85 L
1818.482 733.229 L
1819.649 713.733 L
1820.816 728.079 L
1821.983 710.606 L
1823.149 701.318 L
1824.316 693.593 L
1825.483 686.236 L
1826.65 687.34 L
1827.817 659.383 L
1828.984 671.798 L
1830.151 674.557 L
1831.318 663.981 L
1832.484 654.693 L
1833.651 644.301 L
1834.818 651.566 L
1835.985 640.807 L
1837.152 622.598 L
1838.319 614.965 L
1839.486 623.886 L
1840.652 612.298 L
1841.819 597.401 L
1842.986 587.469 L
1844.153 583.698 L
1845.32 571.467 L
1846.487 575.605 L
1847.654 564.018 L
1848.821 575.33 L
1849.988 554.454 L
1851.154 546.177 L
1852.321 529.716 L
1853.488 527.233 L
1854.655 540.016 L
1855.822 511.048 L
1856.989 497.529 L
1858.156 502.403 L
1859.323 499.185 L
1860.489 474.263 L
1861.656 476.102 L
1862.823 478.585 L
1863.99 459.825 L
1865.157 459.733 L
1866.324 450.261 L
1867.491 438.397 L
1868.657 423.959 L
1869.824 451.272 L
1870.991 449.709 L
1872.158 407.498 L
1873.325 395.451 L
1874.492 398.302 L
1875.659 391.864 L
1876.826 389.106 L
1877.992 365.103 L
1879.159 362.988 L
1880.326 370.989 L
1881.493 351.125 L
1882.66 347.723 L
1883.827 345.24 L
1884.994 337.607 L
1886.161 342.481 L
1887.327 315.812 L
1888.494 309.466 L
1889.661 311.213 L
1890.828 299.626 L
1891.995 310.386 L
1893.162 280.222 L
1894.329 277.739 L
1895.496 271.67 L
1896.663 290.43 L
1897.829 266.796 L
1898.996 244.081 L
1900.163 256.864 L
1901.33 244.817 L
1902.497 233.137 L
1903.664 240.678 L
1904.831 236.172 L
1905.998 214.009 L
1907.164 209.779 L
1908.331 236.172 L
1909.498 212.078 L
1910.665 201.87 L
1911.832 190.099 L
1912.999 215.205 L
1914.166 199.295 L
1915.333 180.075 L
1916.499 171.982 L
1917.666 177.684 L
1918.833 172.902 L
1920 151.291 L
S
GR
GS
[0.75 0 0 0.75 0 -0.25] CT
1 GC
N
1909 140 M
1909 49 L
1837 49 L
1837 140 L
cp
f
GR
GS
[0.75 0 0 0.75 1413 57.5] CT
/Helvetica 26.667 F
GS
[1 0 0 1 0 0] CT
0 0 moveto 
1 -1 scale
(i) t 
GR
GR
GS
[0.75 0 0 0.75 1418.25 67.25] CT
N
4.219 0.234 M
3.234 0.234 2.461 -0.234 QT
1.688 -0.703 1.266 -1.508 QT
0.844 -2.313 0.844 -3.328 QT
0.844 -4.75 1.641 -6.141 QT
2.438 -7.531 3.75 -8.406 QT
5.063 -9.281 6.516 -9.281 QT
7.578 -9.281 8.391 -8.719 QT
9.203 -8.156 9.617 -7.234 QT
10.031 -6.313 10.031 -5.25 QT
10.063 -3.844 L
10.781 -4.844 11.273 -5.914 QT
11.766 -6.984 12.031 -8.125 QT
12.078 -8.25 12.203 -8.25 QT
12.453 -8.25 L
12.641 -8.25 12.641 -8.063 QT
12.641 -8.047 12.625 -8 QT
12.375 -7.031 12.008 -6.148 QT
11.641 -5.266 11.141 -4.43 QT
10.641 -3.594 10.063 -2.922 QT
10.063 -0.313 10.672 -0.313 QT
11.047 -0.313 11.305 -0.547 QT
11.563 -0.781 11.75 -1.117 QT
11.938 -1.453 11.984 -1.469 QT
12.25 -1.469 L
12.406 -1.469 12.406 -1.266 QT
12.406 -0.734 11.805 -0.25 QT
11.203 0.234 10.625 0.234 QT
9.859 0.234 9.359 -0.258 QT
8.859 -0.75 8.672 -1.531 QT
7.688 -0.703 6.539 -0.234 QT
5.391 0.234 4.219 0.234 QT
cp
4.266 -0.313 M
6.516 -0.313 8.578 -2.156 QT
8.563 -2.281 8.539 -2.461 QT
8.516 -2.641 8.516 -2.672 QT
8.516 -4.938 L
8.516 -8.734 6.469 -8.734 QT
5.234 -8.734 4.313 -7.688 QT
3.391 -6.641 2.93 -5.18 QT
2.469 -3.719 2.469 -2.5 QT
2.469 -1.594 2.93 -0.953 QT
3.391 -0.313 4.266 -0.313 QT
cp
f
GR
GS
[0.75 0 0 0.75 0 -0.25] CT
0 0.447 0.741 RC
1 LJ
2.667 LW
N
1841 72.63 M
1881 72.63 L
S
GR
GS
[0.75 0 0 0.75 1413 89.75] CT
/Helvetica 26.667 F
GS
[1 0 0 1 0 0] CT
0 0 moveto 
1 -1 scale
(i) t 
GR
GR
GS
[0.75 0 0 0.75 1418.25 99.5] CT
N
0.563 4.078 M
0.5 4.078 0.453 4 QT
0.406 3.922 0.406 3.859 QT
3.625 -9.109 L
3.906 -10.156 4.438 -11.141 QT
4.969 -12.125 5.773 -12.977 QT
6.578 -13.828 7.547 -14.32 QT
8.516 -14.813 9.594 -14.813 QT
10.375 -14.813 11.008 -14.469 QT
11.641 -14.125 12 -13.5 QT
12.359 -12.875 12.359 -12.094 QT
12.359 -11.344 12.078 -10.664 QT
11.797 -9.984 11.281 -9.398 QT
10.766 -8.813 10.188 -8.438 QT
10.516 -8.219 10.781 -7.891 QT
11.047 -7.563 11.211 -7.195 QT
11.375 -6.828 11.469 -6.383 QT
11.563 -5.938 11.563 -5.547 QT
11.563 -4.469 11.102 -3.422 QT
10.641 -2.375 9.844 -1.523 QT
9.047 -0.672 8.023 -0.18 QT
7 0.313 5.922 0.313 QT
4.75 0.313 3.805 -0.328 QT
2.859 -0.969 2.5 -2.078 QT
0.984 3.953 L
0.984 4.078 0.828 4.078 QT
0.563 4.078 L
cp
5.969 -0.25 M
6.906 -0.25 7.672 -0.875 QT
8.438 -1.5 8.938 -2.438 QT
9.438 -3.375 9.695 -4.422 QT
9.953 -5.469 9.953 -6.344 QT
9.953 -7.406 9.344 -8.016 QT
8.625 -7.75 7.938 -7.75 QT
6.281 -7.75 6.281 -8.313 QT
6.281 -9.047 8.172 -9.047 QT
8.844 -9.047 9.406 -8.844 QT
9.859 -9.188 10.234 -9.867 QT
10.609 -10.547 10.797 -11.281 QT
10.984 -12.016 10.984 -12.656 QT
10.984 -13.344 10.617 -13.805 QT
10.25 -14.266 9.563 -14.266 QT
8.281 -14.266 7.18 -13.477 QT
6.078 -12.688 5.313 -11.484 QT
4.547 -10.281 4.219 -9 QT
3.063 -4.344 L
2.953 -3.859 2.922 -3.266 QT
2.922 -1.953 3.781 -1.102 QT
4.641 -0.25 5.969 -0.25 QT
cp
6.906 -8.375 M
7.234 -8.297 7.953 -8.297 QT
8.313 -8.297 8.672 -8.422 QT
8.656 -8.438 8.594 -8.438 QT
8.375 -8.5 8.109 -8.5 QT
7.156 -8.5 6.906 -8.375 QT
cp
f
GR
GS
[0.75 0 0 0.75 0 -0.25] CT
0.851 0.325 0.098 RC
1 LJ
2.667 LW
N
1841 116.37 M
1881 116.37 L
S
GR
GS
[0.75 0 0 0.75 0 -0.25] CT
0.149 GC
10.0 ML
0.667 LW
N
1837 140 M
1837 49 L
1909 49 L
1909 140 L
cp
S
GR
%%Trailer
%%Pages: 1
%%EOF
