54067
54067
54067
54067
54067
54067
54067
54067
54067
54067
54067
54067
54067
54067
54067
54067
54067
54067
54067
54067
54067
54067
54067
54067
54067
54067
54067
54067
54067
54067
54067
54067
54067
54067
54067
54067
54067
54067
54067
54067
54067
54067
54067
54067
54067
54067
54067
54067
54067
54067
54067
54067
54067
54067
54067
54067
54067
54067
54067
54067
54067
54067
54067
54067
54067
54067
54067
54067
54067
54067
54067
54067
54067
54067
54067
54067
54067
54067
54067
54067
54067
54067
54067
54067
54067
54067
54067
54067
54067
54067
54067
54067
54067
54067
54067
54067
54067
54067
54067
54067
54067
54067
54067
54067
54067
54067
54067
54067
54067
54067
54067
54067
54067
54067
54067
54067
54067
54067
54067
54067
54067
54067
54067
54067
54067
54067
54067
54067
54067
54067
54067
54067
54067
54067
54067
54067
54067
54067
54067
54067
54067
54067
54067
54067
54067
54067
54067
54067
54067
54067
54067
54067
54067
54067
54067
54067
54067
54067
54067
54067
54067
54067
54067
54067
54067
54067
54067
54067
54067
54067
54067
54067
54067
54067
54067
54067
54067
54067
54067
54067
54067
54067
54067
54067
54067
54067
54067
54067
54067
54067
54067
54067
54067
54067
54067
54067
54067
54067
54067
54067
54067
54067
54067
54067
54067
54067
54067
54067
54067
54067
54067
54067
54067
54067
54067
54067
54067
54067
54067
54067
54067
54067
54067
54067
54067
54067
54067
54067
54067
54067
54067
54067
54067
54067
54067
54067
54067
54067
54067
54067
54067
54067
54067
54067
54067
54067
54067
54067
54067
54067
54067
54067
54067
54067
54067
54067
54067
54067
54067
54067
54067
54067
54067
54067
54067
54067
54067
54067
54067
54067
54067
54067
54067
54067
54067
54067
54067
54067
54067
54067
54067
54067
54067
54067
54067
54067
54067
54067
54067
54067
54067
54067
54067
54067
54067
54067
54067
54067
54067
54067
54067
54067
54067
54067
54067
54067
54067
54067
54067
54067
54067
54067
54067
54067
54067
54067
54067
54067
54067
54067
54067
54067
54067
54067
54067
54067
54067
54067
54067
54067
54067
54067
54067
54067
54067
54067
54067
54067
54067
54067
54067
54067
54067
54067
54067
54067
54067
54067
54067
54067
54067
54067
54067
54067
54067
54067
54067
54067
54067
54067
54067
54067
54067
54067
54067
54067
54067
54067
54067
54067
54067
54067
54067
54067
54067
54067
54067
54067
54067
54067
54067
54067
54067
54067
54067
54067
54067
54067
54067
54067
54067
54067
54067
54067
54067
54067
54067
54067
54067
54067
54067
54067
54067
54067
54067
54067
54067
54067
54067
54067
54067
54067
54067
54067
54067
54067
54067
54067
54067
54067
54067
54067
54067
54067
54067
54067
54067
54067
54067
54067
54067
54067
54067
54067
54067
54067
54067
54067
54067
54067
54067
54067
54067
54067
54067
54067
54067
54067
54067
54067
54067
54067
54067
54067
54067
54067
54067
54067
54067
54067
54067
54067
54067
54067
54067
54067
54067
54067
54067
54067
54067
54067
54067
54067
54067
54067
54067
54067
54067
54067
54067
54067
54067
54067
54067
54067
54067
54067
54067
54067
54067
54067
54067
54067
54067
54067
54067
54067
54067
54067
54067
54067
54067
54067
54067
54067
54067
54067
54067
54067
54067
54067
54067
54067
54067
54067
54067
54067
54067
54067
54067
54067
54067
54067
54067
54067
54067
54067
54067
54067
54067
54067
54067
54067
54067
54067
54067
54067
54067
54067
54067
54067
54067
54067
54067
54067
54067
54067
54067
54067
54067
54067
54067
54067
54067
54067
54067
54067
54067
54067
54067
54067
54067
54067
54067
54067
54067
54067
54067
54067
54067
54067
54067
54067
54067
54067
54067
54067
54067
54067
54067
54067
54067
54067
54067
54067
54067
54067
54067
54067
54067
54067
54067
54067
54067
54067
54067
54067
54067
54067
54067
54067
54067
54067
54067
54067
54067
54067
54067
54067
54067
54067
54067
54067
54067
54067
54067
54067
54067
54067
54067
54067
54067
54067
54067
54067
54067
54067
54067
54067
54067
54067
54067
54067
54067
54067
54067
54067
54067
54067
54067
54067
54067
54067
54067
54067
54067
54067
54067
54067
54067
54067
54067
54067
54067
54067
54067
54067
54067
54067
54067
54067
54067
54067
54067
54067
54067
54067
54067
54067
54067
54067
54067
54067
54067
54067
54067
54067
54067
54067
54067
54067
54067
54067
54067
54067
54067
54067
54067
54067
54067
54067
54067
54067
54067
54067
54067
54067
54067
54067
54067
54067
54067
54067
54067
54067
54067
54067
54067
54067
54067
54067
54067
54067
54067
54067
54067
54067
54067
54067
54067
54067
54067
54067
54067
54067
54067
54067
54067
54067
54067
54067
54067
54067
54067
54067
54067
54067
54067
54067
54067
54067
54067
54067
54067
54067
54067
54067
54067
54067
54067
54067
54067
54067
54067
54067
54067
54067
54067
54067
54067
54067
54067
54067
54067
54067
54067
54067
54067
54067
54067
54067
54067
54067
54067
54067
54067
54067
54067
54067
54067
54067
54067
54067
54067
54067
54067
54067
54067
54067
54067
54067
54067
54067
54067
54067
54067
54067
54067
54067
54067
54067
54067
54067
54067
54067
54067
54067
54067
54067
54067
54067
54067
54067
54067
54067
54067
54067
54067
54067
54067
54067
54067
54067
54067
54067
54067
54067
54067
54067
54067
54067
54067
54067
54067
54067
54067
54067
54067
54067
54067
54067
54067
54067
54067
54067
54067
54067
54067
54067
54067
54067
54067
54067
54067
54067
54067
54067
54067
54067
54067
54067
54067
54067
54067
54067
54067
54067
54067
54067
54067
54067
54067
54067
54067
54067
54067
54067
54067
54067
54067
54067
54067
54067
54067
54067
54067
54067
54067
54067
54067
54067
54067
54067
54067
54067
54067
54067
54067
54067
54067
54067
54067
54067
54067
54067
54067
54067
54067
54067
54067
54067
54067
54067
54067
54067
54067
54067
54067
54067
54067
54067
54067
54067
54067
54067
54067
54067
54067
54067
54067
54067
54067
54067
54067
54067
54067
54067
54067
54067
54067
54067
54067
54067
54067
54067
54067
54067
54067
54067
54067
54067
54067
54067
54067
54067
54067
54067
54067
54067
54067
54067
54067
54067
54067
54067
54067
54067
54067
54067
54067
54067
54067
54067
54067
54067
54067
54067
54067
54067
54067
54067
54067
54067
54067
54067
54067
54067
54067
54067
54067
54067
54067
54067
54067
54067
54067
54067
54067
54067
54067
54067
54067
54067
54067
54067
54067
54067
54067
54067
54067
54067
54067
54067
54067
54067
54067
54067
54067
54067
54067
54067
54067
54067
54067
54067
54067
54067
54067
54067
54067
54067
54067
54067
54067
54067
54067
54067
54067
54067
54067
54067
54067
54067
54067
54067
54067
54067
54067
54067
54067
54067
54067
54067
54067
54067
54067
54067
54067
54067
54067
54067
54067
54067
54067
54067
54067
54067
54067
54067
54067
54067
54067
54067
54067
54067
54067
54067
54067
54067
54067
54067
54067
54067
54067
54067
54067
54067
54067
54067
54067
54067
54067
54067
54067
54067
54067
54067
54067
54067
54067
54067
54067
54067
54067
54067
54067
54067
54067
54067
54067
54067
54067
54067
54067
54067
54067
54067
54067
54067
54067
54067
54067
54067
54067
54067
54067
54067
54067
54067
54067
54067
54067
54067
54067
54067
54067
54067
54067
54067
54067
54067
54067
54067
54067
54067
54067
54067
54067
54067
54067
54067
54067
54067
54067
54067
54067
54067
54067
54067
54067
54067
54067
54067
54067
54067
54067
54067
54067
54067
54067
54067
54067
54067
54067
54067
54067
54067
54067
54067
54067
54067
54067
54067
54067
54067
54067
54067
54067
54067
54067
54067
54067
54067
54067
54067
54067
54067
54067
54067
54067
54067
54067
54067
54067
54067
54067
54067
54067
54067
54067
54067
54067
54067
54067
54067
54067
54067
54067
54067
54067
54067
54067
54067
54067
54067
54067
54067
54067
54067
54067
54067
54067
54067
54067
54067
54067
54067
54067
54067
54067
54067
54067
54067
54067
54067
54067
54067
54067
54067
54067
54067
54067
54067
54067
54067
54067
54067
54067
54067
54067
54067
54067
54067
54067
54067
54067
54067
54067
54067
54067
54067
54067
54067
54067
54067
54067
54067
54067
54067
54067
54067
54067
54067
54067
54067
54067
54067
54067
54067
54067
54067
54067
54067
54067
54067
54067
54067
54067
54067
54067
54067
54067
54067
54067
54067
54067
54067
54067
54067
54067
54067
54067
54067
54067
54067
54067
54067
54067
54067
54067
54067
54067
54067
54067
54067
54067
54067
54067
54067
54067
54067
54067
54067
54067
54067
54067
54067
54067
54067
54067
54067
54067
54067
54067
54067
54067
54067
54067
54067
54067
54067
54067
54067
54067
54067
54067
54067
54067
54067
54067
54067
54067
54067
54067
54067
54067
54067
54067
54067
54067
54067
54067
54067
54067
54067
54067
54067
54067
54067
54067
54067
54067
54067
54067
54067
54067
54067
54067
54067
54067
54067
54067
54067
54067
54067
54067
54067
54067
54067
54067
54067
54067
54067
54067
54067
54067
54067
54067
54067
54067
54067
54067
54067
54067
54067
54067
54067
54067
54067
54067
54067
54067
54067
54067
54067
54067
54067
54067
54067
54067
54067
54067
54067
54067
54067
54067
54067
54067
54067
54067
54067
54067
54067
54067
54067
54067
54067
54067
54067
54067
54067
54067
54067
54067
54067
54067
54067
54067
54067
54067
54067
54067
54067
54067
54067
54067
54067
54067
54067
54067
54067
54067
54067
54067
54067
54067
54067
54067
54067
54067
54067
54067
54067
54067
54067
54067
54067
54067
54067
54067
54067
54067
54067
54067
54067
54067
54067
54067
54067
54067
54067
54067
54067
54067
54067
54067
54067
54067
54067
54067
54067
54067
54067
54067
54067
54067
54067
54067
54067
54067
54067
54067
54067
54067
54067
54067
54067
54067
54067
54067
54067
54067
54067
54067
54067
54067
54067
54067
54067
54067
54067
54067
54067
54067
54067
54067
54067
54067
54067
54067
54067
54067
54067
54067
54067
54067
54067
54067
54067
54067
54067
54067
54067
54067
54067
54067
54067
54067
54067
54067
54067
54067
54067
54067
54067
54067
54067
54067
54067
54067
54067
54067
54067
54067
54067
54067
54067
54067
54067
54067
54067
54067
54067
54067
54067
54067
54067
54067
54067
54067
54067
54067
54067
54067
54067
54067
54067
54067
54067
54067
54067
54067
54067
54067
54067
54067
54067
54067
54067
54067
54067
54067
54067
54067
54067
54067
54067
54067
54067
54067
54067
54067
54067
54067
54067
54067
54067
54067
54067
54067
54067
54067
54067
54067
54067
54067
54067
54067
54067
54067
54067
54067
54067
54067
54067
54067
54067
54067
54067
54067
54067
54067
54067
54067
54067
54067
54067
54067
54067
54067
54067
54067
54067
54067
54067
54067
54067
54067
54067
54067
54067
54067
54067
54067
54067
54067
54067
54067
54067
54067
54067
54067
54067
54067
54067
54067
54067
54067
54067
54067
54067
54067
54067
54067
54067
54067
54067
54067
54067
54067
54067
54067
54067
54067
54067
54067
54067
54067
54067
54067
54067
54067
54067
54067
54067
54067
54067
54067
54067
54067
54067
54067
54067
54067
54067
54067
54067
54067
54067
54067
54067
54067
54067
54067
54067
54067
54067
54067
54067
54067
54067
54067
54067
54067
54067
54067
54067
54067
54067
54067
54067
54067
54067
54067
54067
54067
54067
54067
54067
54067
54067
54067
54067
54067
54067
54067
54067
54067
54067
54067
54067
54067
54067
54067
54067
54067
54067
54067
54067
54067
54067
54067
54067
54067
54067
54067
54067
54067
54067
54067
54067
54067
54067
54067
54067
54067
54067
54067
54067
54067
54067
54067
54067
54067
54067
54067
54067
54067
54067
54067
54067
54067
54067
54067
54067
54067
54067
54067
54067
54067
54067
54067
54067
54067
54067
54067
54067
54067
54067
54067
54067
54067
54067
54067
54067
54067
54067
54067
54067
54067
54067
54067
54067
54067
54067
54067
54067
54067
54067
54067
54067
54067
54067
54067
54067
54067
54067
54067
54067
54067
54067
54067
54067
54067
54067
54067
54067
54067
54067
54067
54067
54067
54067
54067
54067
54067
54067
54067
54067
54067
54067
54067
54067
54067
54067
54067
54067
54067
54067
54067
54067
54067
54067
54067
54067
54067
54067
54067
54067
54067
54067
54067
54067
54067
54067
54067
54067
54067
54067
54067
54067
54067
54067
54067
54067
54067
54067
54067
54067
54067
54067
54067
54067
54067
54067
54067
54067
54067
54067
54067
54067
54067
54067
54067
54067
54067
54067
54067
54067
54067
54067
54067
54067
54067
54067
54067
54067
54067
54067
54067
54067
54067
54067
54067
54067
54067
54067
54067
54067
54067
54067
54067
54067
54067
54067
54067
54067
54067
54067
54067
54067
54067
54067
54067
54067
54067
54067
54067
54067
54067
54067
54067
54067
54067
54067
54067
54067
54067
54067
54067
54067
54067
54067
54067
54067
54067
54067
54067
54067
54067
54067
54067
54067
54067
54067
54067
54067
54067
54067
54067
54067
54067
54067
54067
54067
54067
54067
54067
54067
54067
54067
54067
54067
54067
54067
54067
54067
54067
54067
54067
54067
54067
54067
54067
54067
54067
54067
54067
54067
54067
54067
54067
54067
54067
54067
54067
54067
54067
54067
54067
54067
54067
54067
54067
54067
54067
54067
54067
54067
54067
54067
54067
54067
54067
54067
54067
54067
54067
54067
54067
54067
54067
54067
54067
54067
54067
54067
54067
54067
54067
54067
54067
54067
54067
54067
54067
54067
54067
54067
54067
54067
54067
54067
54067
54067
54067
54067
54067
54067
54067
54067
54067
54067
54067
54067
54067
54067
54067
54067
54067
54067
54067
54067
54067
54067
54067
54067
54067
54067
54067
54067
54067
54067
54067
54067
54067
54067
54067
54067
54067
54067
54067
54067
54067
54067
54067
54067
54067
54067
54067
54067
54067
54067
54067
54067
54067
54067
54067
54067
54067
54067
54067
54067
54067
54067
54067
54067
54067
54067
54067
54067
54067
54067
54067
54067
54067
54067
54067
54067
54067
54067
54067
54067
54067
54067
54067
54067
54067
54067
54067
54067
54067
54067
54067
54067
54067
54067
54067
54067
54067
54067
54067
54067
54067
54067
54067
54067
54067
54067
54067
54067
54067
54067
54067
54067
54067
54067
54067
54067
54067
54067
54067
54067
54067
54067
54067
54067
54067
54067
54067
54067
54067
54067
54067
54067
54067
54067
54067
54067
54067
54067
54067
54067
54067
54067
54067
54067
54067
54067
54067
54067
54067
54067
54067
54067
54067
54067
54067
54067
54067
54067
54067
54067
54067
54067
54067
54067
54067
54067
54067
54067
54067
54067
54067
54067
54067
54067
54067
54067
54067
54067
54067
54067
54067
54067
54067
54067
54067
54067
54067
54067
54067
54067
54067
54067
54067
54067
54067
54067
54067
54067
54067
54067
54067
54067
54067
54067
54067
54067
54067
54067
54067
54067
54067
54067
54067
54067
54067
54067
54067
54067
54067
54067
54067
54067
54067
54067
54067
54067
54067
54067
54067
54067
54067
54067
54067
54067
54067
54067
54067
54067
54067
54067
54067
54067
54067
54067
54067
54067
54067
54067
54067
54067
54067
54067
54067
54067
54067
54067
54067
54067
54067
54067
54067
54067
54067
54067
54067
54067
54067
54067
54067
54067
54067
54067
54067
54067
54067
54067
54067
54067
54067
54067
54067
54067
54067
54067
54067
54067
54067
54067
54067
54067
54067
54067
54067
54067
54067
54067
54067
54067
54067
54067
54067
54067
54067
54067
54067
54067
54067
54067
54067
54067
54067
54067
54067
54067
54067
54067
54067
54067
54067
54067
54067
54067
54067
54067
54067
54067
54067
54067
54067
54067
54067
54067
54067
54067
54067
54067
54067
54067
54067
54067
54067
54067
54067
54067
54067
54067
54067
54067
54067
54067
54067
54067
54067
54067
54067
54067
54067
54067
54067
54067
54067
54067
54067
54067
54067
54067
54067
54067
54067
54067
54067
54067
54067
54067
54067
54067
54067
54067
54067
54067
54067
54067
54067
54067
54067
54067
54067
54067
54067
54067
54067
54067
54067
54067
54067
54067
54067
54067
54067
54067
54067
54067
54067
54067
54067
54067
54067
54067
54067
54067
54067
54067
54067
54067
54067
54067
54067
54067
54067
54067
54067
54067
54067
54067
54067
54067
54067
54067
54067
54067
54067
54067
54067
54067
54067
54067
54067
54067
54067
54067
54067
54067
54067
54067
54067
54067
54067
54067
54067
54067
54067
54067
54067
54067
54067
54067
54067
54067
54067
54067
54067
54067
54067
54067
54067
54067
54067
54067
54067
54067
54067
54067
54067
54067
54067
54067
54067
54067
54067
54067
54067
54067
54067
54067
54067
54067
54067
54067
54067
54067
54067
54067
54067
54067
54067
54067
54067
54067
54067
54067
54067
54067
54067
54067
54067
54067
54067
54067
54067
54067
54067
54067
54067
54067
54067
54067
54067
54067
54067
54067
54067
54067
54067
54067
54067
54067
54067
54067
54067
54067
54067
54067
54067
54067
54067
54067
54067
54067
54067
54067
54067
54067
54067
54067
54067
54067
54067
54067
54067
54067
54067
54067
54067
54067
54067
54067
54067
54067
54067
54067
54067
54067
54067
54067
54067
54067
54067
54067
54067
54067
54067
54067
54067
54067
54067
54067
54067
54067
54067
54067
54067
54067
54067
54067
54067
54067
54067
54067
54067
54067
54067
54067
54067
54067
54067
54067
54067
54067
54067
54067
54067
54067
54067
54067
54067
54067
54067
54067
54067
54067
54067
54067
54067
54067
54067
54067
54067
54067
54067
54067
54067
54067
54067
54067
54067
54067
54067
54067
54067
54067
54067
54067
54067
54067
54067
54067
54067
54067
54067
54067
54067
54067
54067
54067
54067
54067
54067
54067
54067
54067
54067
54067
54067
54067
54067
54067
54067
54067
54067
54067
54067
54067
54067
54067
54067
54067
54067
54067
54067
54067
54067
54067
54067
54067
54067
54067
54067
54067
54067
54067
54067
54067
54067
54067
54067
54067
54067
54067
54067
54067
54067
54067
54067
54067
54067
54067
54067
54067
54067
54067
54067
54067
54067
54067
54067
54067
54067
54067
54067
54067
54067
54067
54067
54067
54067
54067
54067
54067
54067
54067
54067
54067
54067
54067
54067
54067
54067
54067
54067
54067
54067
54067
54067
54067
54067
54067
54067
54067
54067
54067
54067
54067
54067
54067
54067
54067
54067
54067
54067
54067
54067
54067
54067
54067
54067
54067
54067
54067
54067
54067
54067
54067
54067
54067
54067
54067
54067
54067
54067
54067
54067
54067
54067
54067
54067
54067
54067
54067
54067
54067
54067
54067
54067
54067
54067
54067
54067
54067
54067
54067
54067
54067
54067
54067
54067
54067
54067
54067
54067
54067
54067
54067
54067
54067
54067
54067
54067
54067
54067
54067
54067
54067
54067
54067
54067
54067
54067
54067
54067
54067
54067
54067
54067
54067
54067
54067
54067
54067
54067
54067
54067
54067
54067
54067
54067
54067
54067
54067
54067
54067
54067
54067
54067
54067
54067
54067
54067
54067
54067
54067
54067
54067
54067
54067
54067
54067
54067
54067
54067
54067
54067
54067
54067
54067
54067
54067
54067
54067
54067
54067
54067
54067
54067
54067
54067
54067
54067
54067
54067
54067
54067
54067
54067
54067
54067
54067
54067
54067
54067
54067
54067
54067
54067
54067
54067
54067
