%!PS-Adobe-3.0 EPSF-3.0
%%Creator: (MATLAB, The Mathworks, Inc. Version 9.13.0.2166757 \(R2022b\) Update 4. Operating System: Linux)
%%Title: ./err.eps
%%CreationDate: 2023-05-20T20:12:53
%%Pages: (atend)
%%BoundingBox:     2     0  1441   745
%%LanguageLevel: 3
%%EndComments
%%BeginProlog
%%BeginResource: procset (Apache XML Graphics Std ProcSet) 1.2 0
%%Version: 1.2 0
%%Copyright: (Copyright 2001-2003,2010 The Apache Software Foundation. License terms: http://www.apache.org/licenses/LICENSE-2.0)
/bd{bind def}bind def
/ld{load def}bd
/GR/grestore ld
/GS/gsave ld
/RM/rmoveto ld
/C/curveto ld
/t/show ld
/L/lineto ld
/ML/setmiterlimit ld
/CT/concat ld
/f/fill ld
/N/newpath ld
/S/stroke ld
/CC/setcmykcolor ld
/A/ashow ld
/cp/closepath ld
/RC/setrgbcolor ld
/LJ/setlinejoin ld
/GC/setgray ld
/LW/setlinewidth ld
/M/moveto ld
/re {4 2 roll M
1 index 0 rlineto
0 exch rlineto
neg 0 rlineto
cp } bd
/_ctm matrix def
/_tm matrix def
/BT { _ctm currentmatrix pop matrix _tm copy pop 0 0 moveto } bd
/ET { _ctm setmatrix } bd
/iTm { _ctm setmatrix _tm concat } bd
/Tm { _tm astore pop iTm 0 0 moveto } bd
/ux 0.0 def
/uy 0.0 def
/F {
  /Tp exch def
  /Tf exch def
  Tf findfont Tp scalefont setfont
  /cf Tf def  /cs Tp def
} bd
/ULS {currentpoint /uy exch def /ux exch def} bd
/ULE {
  /Tcx currentpoint pop def
  gsave
  newpath
  cf findfont cs scalefont dup
  /FontMatrix get 0 get /Ts exch def /FontInfo get dup
  /UnderlinePosition get Ts mul /To exch def
  /UnderlineThickness get Ts mul /Tt exch def
  ux uy To add moveto  Tcx uy To add lineto
  Tt setlinewidth stroke
  grestore
} bd
/OLE {
  /Tcx currentpoint pop def
  gsave
  newpath
  cf findfont cs scalefont dup
  /FontMatrix get 0 get /Ts exch def /FontInfo get dup
  /UnderlinePosition get Ts mul /To exch def
  /UnderlineThickness get Ts mul /Tt exch def
  ux uy To add cs add moveto Tcx uy To add cs add lineto
  Tt setlinewidth stroke
  grestore
} bd
/SOE {
  /Tcx currentpoint pop def
  gsave
  newpath
  cf findfont cs scalefont dup
  /FontMatrix get 0 get /Ts exch def /FontInfo get dup
  /UnderlinePosition get Ts mul /To exch def
  /UnderlineThickness get Ts mul /Tt exch def
  ux uy To add cs 10 mul 26 idiv add moveto Tcx uy To add cs 10 mul 26 idiv add lineto
  Tt setlinewidth stroke
  grestore
} bd
/QT {
/Y22 exch store
/X22 exch store
/Y21 exch store
/X21 exch store
currentpoint
/Y21 load 2 mul add 3 div exch
/X21 load 2 mul add 3 div exch
/X21 load 2 mul /X22 load add 3 div
/Y21 load 2 mul /Y22 load add 3 div
/X22 load /Y22 load curveto
} bd
/SSPD {
dup length /d exch dict def
{
/v exch def
/k exch def
currentpagedevice k known {
/cpdv currentpagedevice k get def
v cpdv ne {
/upd false def
/nullv v type /nulltype eq def
/nullcpdv cpdv type /nulltype eq def
nullv nullcpdv or
{
/upd true def
} {
/sametype v type cpdv type eq def
sametype {
v type /arraytype eq {
/vlen v length def
/cpdvlen cpdv length def
vlen cpdvlen eq {
0 1 vlen 1 sub {
/i exch def
/obj v i get def
/cpdobj cpdv i get def
obj cpdobj ne {
/upd true def
exit
} if
} for
} {
/upd true def
} ifelse
} {
v type /dicttype eq {
v {
/dv exch def
/dk exch def
/cpddv cpdv dk get def
dv cpddv ne {
/upd true def
exit
} if
} forall
} {
/upd true def
} ifelse
} ifelse
} if
} ifelse
upd true eq {
d k v put
} if
} if
} if
} forall
d length 0 gt {
d setpagedevice
} if
} bd
/RE { % /NewFontName [NewEncodingArray] /FontName RE -
  findfont dup length dict begin
  {
    1 index /FID ne
    {def} {pop pop} ifelse
  } forall
  /Encoding exch def
  /FontName 1 index def
  currentdict definefont pop
  end
} bind def
%%EndResource
%%BeginResource: procset (Apache XML Graphics EPS ProcSet) 1.0 0
%%Version: 1.0 0
%%Copyright: (Copyright 2002-2003 The Apache Software Foundation. License terms: http://www.apache.org/licenses/LICENSE-2.0)
/BeginEPSF { %def
/b4_Inc_state save def         % Save state for cleanup
/dict_count countdictstack def % Count objects on dict stack
/op_count count 1 sub def      % Count objects on operand stack
userdict begin                 % Push userdict on dict stack
/showpage { } def              % Redefine showpage, { } = null proc
0 setgray 0 setlinecap         % Prepare graphics state
1 setlinewidth 0 setlinejoin
10 setmiterlimit [ ] 0 setdash newpath
/languagelevel where           % If level not equal to 1 then
{pop languagelevel             % set strokeadjust and
1 ne                           % overprint to their defaults.
{false setstrokeadjust false setoverprint
} if
} if
} bd
/EndEPSF { %def
count op_count sub {pop} repeat            % Clean up stacks
countdictstack dict_count sub {end} repeat
b4_Inc_state restore
} bd
%%EndResource
%FOPBeginFontDict
%%IncludeResource: font Courier-Oblique
%%IncludeResource: font Courier-BoldOblique
%%IncludeResource: font Courier-Bold
%%IncludeResource: font ZapfDingbats
%%IncludeResource: font Symbol
%%IncludeResource: font Helvetica
%%IncludeResource: font Helvetica-Oblique
%%IncludeResource: font Helvetica-Bold
%%IncludeResource: font Helvetica-BoldOblique
%%IncludeResource: font Times-Roman
%%IncludeResource: font Times-Italic
%%IncludeResource: font Times-Bold
%%IncludeResource: font Times-BoldItalic
%%IncludeResource: font Courier
%FOPEndFontDict
%%BeginResource: encoding WinAnsiEncoding
/WinAnsiEncoding [
/.notdef /.notdef /.notdef /.notdef /.notdef
/.notdef /.notdef /.notdef /.notdef /.notdef
/.notdef /.notdef /.notdef /.notdef /.notdef
/.notdef /.notdef /.notdef /.notdef /.notdef
/.notdef /.notdef /.notdef /.notdef /.notdef
/.notdef /.notdef /.notdef /.notdef /.notdef
/.notdef /.notdef /space /exclam /quotedbl
/numbersign /dollar /percent /ampersand /quotesingle
/parenleft /parenright /asterisk /plus /comma
/hyphen /period /slash /zero /one
/two /three /four /five /six
/seven /eight /nine /colon /semicolon
/less /equal /greater /question /at
/A /B /C /D /E
/F /G /H /I /J
/K /L /M /N /O
/P /Q /R /S /T
/U /V /W /X /Y
/Z /bracketleft /backslash /bracketright /asciicircum
/underscore /quoteleft /a /b /c
/d /e /f /g /h
/i /j /k /l /m
/n /o /p /q /r
/s /t /u /v /w
/x /y /z /braceleft /bar
/braceright /asciitilde /bullet /Euro /bullet
/quotesinglbase /florin /quotedblbase /ellipsis /dagger
/daggerdbl /circumflex /perthousand /Scaron /guilsinglleft
/OE /bullet /Zcaron /bullet /bullet
/quoteleft /quoteright /quotedblleft /quotedblright /bullet
/endash /emdash /asciitilde /trademark /scaron
/guilsinglright /oe /bullet /zcaron /Ydieresis
/space /exclamdown /cent /sterling /currency
/yen /brokenbar /section /dieresis /copyright
/ordfeminine /guillemotleft /logicalnot /sfthyphen /registered
/macron /degree /plusminus /twosuperior /threesuperior
/acute /mu /paragraph /middot /cedilla
/onesuperior /ordmasculine /guillemotright /onequarter /onehalf
/threequarters /questiondown /Agrave /Aacute /Acircumflex
/Atilde /Adieresis /Aring /AE /Ccedilla
/Egrave /Eacute /Ecircumflex /Edieresis /Igrave
/Iacute /Icircumflex /Idieresis /Eth /Ntilde
/Ograve /Oacute /Ocircumflex /Otilde /Odieresis
/multiply /Oslash /Ugrave /Uacute /Ucircumflex
/Udieresis /Yacute /Thorn /germandbls /agrave
/aacute /acircumflex /atilde /adieresis /aring
/ae /ccedilla /egrave /eacute /ecircumflex
/edieresis /igrave /iacute /icircumflex /idieresis
/eth /ntilde /ograve /oacute /ocircumflex
/otilde /odieresis /divide /oslash /ugrave
/uacute /ucircumflex /udieresis /yacute /thorn
/ydieresis
] def
%%EndResource
%FOPBeginFontReencode
/Courier-Oblique findfont
dup length dict begin
  {1 index /FID ne {def} {pop pop} ifelse} forall
  /Encoding WinAnsiEncoding def
  currentdict
end
/Courier-Oblique exch definefont pop
/Courier-BoldOblique findfont
dup length dict begin
  {1 index /FID ne {def} {pop pop} ifelse} forall
  /Encoding WinAnsiEncoding def
  currentdict
end
/Courier-BoldOblique exch definefont pop
/Courier-Bold findfont
dup length dict begin
  {1 index /FID ne {def} {pop pop} ifelse} forall
  /Encoding WinAnsiEncoding def
  currentdict
end
/Courier-Bold exch definefont pop
/Helvetica findfont
dup length dict begin
  {1 index /FID ne {def} {pop pop} ifelse} forall
  /Encoding WinAnsiEncoding def
  currentdict
end
/Helvetica exch definefont pop
/Helvetica-Oblique findfont
dup length dict begin
  {1 index /FID ne {def} {pop pop} ifelse} forall
  /Encoding WinAnsiEncoding def
  currentdict
end
/Helvetica-Oblique exch definefont pop
/Helvetica-Bold findfont
dup length dict begin
  {1 index /FID ne {def} {pop pop} ifelse} forall
  /Encoding WinAnsiEncoding def
  currentdict
end
/Helvetica-Bold exch definefont pop
/Helvetica-BoldOblique findfont
dup length dict begin
  {1 index /FID ne {def} {pop pop} ifelse} forall
  /Encoding WinAnsiEncoding def
  currentdict
end
/Helvetica-BoldOblique exch definefont pop
/Times-Roman findfont
dup length dict begin
  {1 index /FID ne {def} {pop pop} ifelse} forall
  /Encoding WinAnsiEncoding def
  currentdict
end
/Times-Roman exch definefont pop
/Times-Italic findfont
dup length dict begin
  {1 index /FID ne {def} {pop pop} ifelse} forall
  /Encoding WinAnsiEncoding def
  currentdict
end
/Times-Italic exch definefont pop
/Times-Bold findfont
dup length dict begin
  {1 index /FID ne {def} {pop pop} ifelse} forall
  /Encoding WinAnsiEncoding def
  currentdict
end
/Times-Bold exch definefont pop
/Times-BoldItalic findfont
dup length dict begin
  {1 index /FID ne {def} {pop pop} ifelse} forall
  /Encoding WinAnsiEncoding def
  currentdict
end
/Times-BoldItalic exch definefont pop
/Courier findfont
dup length dict begin
  {1 index /FID ne {def} {pop pop} ifelse} forall
  /Encoding WinAnsiEncoding def
  currentdict
end
/Courier exch definefont pop
%FOPEndFontReencode
%%EndProlog
%%Page: 1 1
%%PageBoundingBox: 0 0 1440 749
%%BeginPageSetup
N
    2     0 M
 1443     0 L
 1443   745 L
    2   745 L
cp
clip
[1 0 0 -1 0 749] CT
%%EndPageSetup
GS
[0.75 0 0 0.75 0 -0.25] CT
1 GC
N
0 0 1920 999 re
f
GR
GS
[0.75 0 0 0.75 0 -0.25] CT
1 GC
N
0 0 1920 999 re
f
GR
GS
[0.75 0 0 0.75 0 -0.25] CT
1 GC
N
65 943 M
1920 943 L
1920 39 L
65 39 L
cp
f
GR
GS
[0.75 0 0 0.75 0 -0.25] CT
0.149 GC
2 setlinecap
1 LJ
0.667 LW
N
65 943 M
1920 943 L
S
GR
GS
[0.75 0 0 0.75 0 -0.25] CT
0.149 GC
2 setlinecap
1 LJ
0.667 LW
N
65 943 M
65 924.45 L
S
GR
GS
[0.75 0 0 0.75 0 -0.25] CT
0.149 GC
2 setlinecap
1 LJ
0.667 LW
N
242.139 943 M
242.139 924.45 L
S
GR
GS
[0.75 0 0 0.75 0 -0.25] CT
0.149 GC
2 setlinecap
1 LJ
0.667 LW
N
419.279 943 M
419.279 924.45 L
S
GR
GS
[0.75 0 0 0.75 0 -0.25] CT
0.149 GC
2 setlinecap
1 LJ
0.667 LW
N
596.418 943 M
596.418 924.45 L
S
GR
GS
[0.75 0 0 0.75 0 -0.25] CT
0.149 GC
2 setlinecap
1 LJ
0.667 LW
N
773.558 943 M
773.558 924.45 L
S
GR
GS
[0.75 0 0 0.75 0 -0.25] CT
0.149 GC
2 setlinecap
1 LJ
0.667 LW
N
950.697 943 M
950.697 924.45 L
S
GR
GS
[0.75 0 0 0.75 0 -0.25] CT
0.149 GC
2 setlinecap
1 LJ
0.667 LW
N
1127.837 943 M
1127.837 924.45 L
S
GR
GS
[0.75 0 0 0.75 0 -0.25] CT
0.149 GC
2 setlinecap
1 LJ
0.667 LW
N
1304.976 943 M
1304.976 924.45 L
S
GR
GS
[0.75 0 0 0.75 0 -0.25] CT
0.149 GC
2 setlinecap
1 LJ
0.667 LW
N
1482.116 943 M
1482.116 924.45 L
S
GR
GS
[0.75 0 0 0.75 0 -0.25] CT
0.149 GC
2 setlinecap
1 LJ
0.667 LW
N
1659.255 943 M
1659.255 924.45 L
S
GR
GS
[0.75 0 0 0.75 0 -0.25] CT
0.149 GC
2 setlinecap
1 LJ
0.667 LW
N
1836.395 943 M
1836.395 924.45 L
S
GR
GS
[0.75 0 0 0.75 48.75 710.99998] CT
0.149 GC
/Helvetica 13.333 F
GS
[1 0 0 1 0 0] CT
-4 13 moveto 
1 -1 scale
(0) t 
GR
GR
GS
[0.75 0 0 0.75 181.60459 710.99998] CT
0.149 GC
/Helvetica 13.333 F
GS
[1 0 0 1 0 0] CT
-7.5 13 moveto 
1 -1 scale
(10) t 
GR
GR
GS
[0.75 0 0 0.75 314.45918 710.99998] CT
0.149 GC
/Helvetica 13.333 F
GS
[1 0 0 1 0 0] CT
-7.5 13 moveto 
1 -1 scale
(20) t 
GR
GR
GS
[0.75 0 0 0.75 447.3138 710.99998] CT
0.149 GC
/Helvetica 13.333 F
GS
[1 0 0 1 0 0] CT
-7.5 13 moveto 
1 -1 scale
(30) t 
GR
GR
GS
[0.75 0 0 0.75 580.16835 710.99998] CT
0.149 GC
/Helvetica 13.333 F
GS
[1 0 0 1 0 0] CT
-7.5 13 moveto 
1 -1 scale
(40) t 
GR
GR
GS
[0.75 0 0 0.75 713.02295 710.99998] CT
0.149 GC
/Helvetica 13.333 F
GS
[1 0 0 1 0 0] CT
-7.5 13 moveto 
1 -1 scale
(50) t 
GR
GR
GS
[0.75 0 0 0.75 845.87759 710.99998] CT
0.149 GC
/Helvetica 13.333 F
GS
[1 0 0 1 0 0] CT
-7.5 13 moveto 
1 -1 scale
(60) t 
GR
GR
GS
[0.75 0 0 0.75 978.73215 710.99998] CT
0.149 GC
/Helvetica 13.333 F
GS
[1 0 0 1 0 0] CT
-7.5 13 moveto 
1 -1 scale
(70) t 
GR
GR
GS
[0.75 0 0 0.75 1111.5867 710.99998] CT
0.149 GC
/Helvetica 13.333 F
GS
[1 0 0 1 0 0] CT
-7.5 13 moveto 
1 -1 scale
(80) t 
GR
GR
GS
[0.75 0 0 0.75 1244.44125 710.99998] CT
0.149 GC
/Helvetica 13.333 F
GS
[1 0 0 1 0 0] CT
-7.5 13 moveto 
1 -1 scale
(90) t 
GR
GR
GS
[0.75 0 0 0.75 1377.2959 710.99998] CT
0.149 GC
/Helvetica 13.333 F
GS
[1 0 0 1 0 0] CT
-11.5 13 moveto 
1 -1 scale
(100) t 
GR
GR
GS
[0.75 0 0 0.75 705 743.75] CT
0.149 GC
N
3.266 0.297 M
1.734 0.297 1.055 -0.82 QT
0.375 -1.938 0.375 -3.563 QT
0.375 -4.625 0.57 -5.648 QT
0.766 -6.672 1.156 -7.719 QT
1.547 -8.766 2.047 -9.68 QT
2.547 -10.594 3.172 -11.469 QT
3.281 -11.641 3.484 -11.641 QT
3.656 -11.641 3.758 -11.539 QT
3.859 -11.438 3.859 -11.281 QT
3.859 -11.141 3.781 -11.016 QT
1.313 -7.641 1.313 -4.766 QT
1.313 -3.531 1.891 -2.641 QT
2.469 -1.75 3.641 -1.75 QT
4.656 -1.75 5.516 -2.344 QT
6.375 -2.938 7.016 -3.859 QT
7.016 -4.344 7.18 -5.344 QT
7.344 -6.344 7.695 -7.125 QT
8.047 -7.906 8.531 -7.906 QT
9.156 -7.906 9.156 -7.188 QT
9.156 -6.766 8.977 -6.125 QT
8.797 -5.484 8.578 -4.93 QT
8.359 -4.375 8.047 -3.672 QT
8.359 -1.75 9.969 -1.75 QT
10.906 -1.75 11.844 -2.289 QT
12.781 -2.828 13.508 -3.711 QT
14.234 -4.594 14.648 -5.609 QT
15.063 -6.625 15.063 -7.531 QT
15.063 -8.344 14.813 -8.797 QT
14.563 -9.25 14.141 -9.75 QT
13.719 -10.25 13.719 -10.563 QT
13.719 -11.094 14.164 -11.523 QT
14.609 -11.953 15.125 -11.953 QT
15.781 -11.953 16.055 -11.359 QT
16.328 -10.766 16.328 -10 QT
16.328 -8.75 15.836 -6.867 QT
15.344 -4.984 14.719 -3.734 QT
13.844 -2.031 12.531 -0.867 QT
11.219 0.297 9.578 0.297 QT
8.547 0.297 7.906 -0.328 QT
7.266 -0.953 7.078 -2.031 QT
6.328 -0.969 5.367 -0.336 QT
4.406 0.297 3.266 0.297 QT
cp
f
GR
GS
[0.75 0 0 0.75 717.75 743.75] CT
0.149 GC
/Helvetica 26.667 F
GS
[1 0 0 1 0 0] CT
0 0 moveto 
1 -1 scale
( \(rad/s\)) t 
GR
GR
GS
[0.75 0 0 0.75 0 -0.25] CT
0.149 GC
2 setlinecap
1 LJ
0.667 LW
N
65 943 M
65 39 L
S
GR
GS
[0.75 0 0 0.75 0 -0.25] CT
0.149 GC
2 setlinecap
1 LJ
0.667 LW
N
65 943 M
83.55 943 L
S
GR
GS
[0.75 0 0 0.75 0 -0.25] CT
0.149 GC
2 setlinecap
1 LJ
0.667 LW
N
65 813.857 M
83.55 813.857 L
S
GR
GS
[0.75 0 0 0.75 0 -0.25] CT
0.149 GC
2 setlinecap
1 LJ
0.667 LW
N
65 684.714 M
83.55 684.714 L
S
GR
GS
[0.75 0 0 0.75 0 -0.25] CT
0.149 GC
2 setlinecap
1 LJ
0.667 LW
N
65 555.571 M
83.55 555.571 L
S
GR
GS
[0.75 0 0 0.75 0 -0.25] CT
0.149 GC
2 setlinecap
1 LJ
0.667 LW
N
65 426.429 M
83.55 426.429 L
S
GR
GS
[0.75 0 0 0.75 0 -0.25] CT
0.149 GC
2 setlinecap
1 LJ
0.667 LW
N
65 297.286 M
83.55 297.286 L
S
GR
GS
[0.75 0 0 0.75 0 -0.25] CT
0.149 GC
2 setlinecap
1 LJ
0.667 LW
N
65 168.143 M
83.55 168.143 L
S
GR
GS
[0.75 0 0 0.75 0 -0.25] CT
0.149 GC
2 setlinecap
1 LJ
0.667 LW
N
65 39 M
83.55 39 L
S
GR
GS
[0.75 0 0 0.75 0 -0.25] CT
0.149 GC
2 setlinecap
1 LJ
0.667 LW
N
65 943 M
74.275 943 L
S
GR
GS
[0.75 0 0 0.75 0 -0.25] CT
0.149 GC
2 setlinecap
1 LJ
0.667 LW
N
65 904.124 M
74.275 904.124 L
S
GR
GS
[0.75 0 0 0.75 0 -0.25] CT
0.149 GC
2 setlinecap
1 LJ
0.667 LW
N
65 881.383 M
74.275 881.383 L
S
GR
GS
[0.75 0 0 0.75 0 -0.25] CT
0.149 GC
2 setlinecap
1 LJ
0.667 LW
N
65 865.248 M
74.275 865.248 L
S
GR
GS
[0.75 0 0 0.75 0 -0.25] CT
0.149 GC
2 setlinecap
1 LJ
0.667 LW
N
65 852.733 M
74.275 852.733 L
S
GR
GS
[0.75 0 0 0.75 0 -0.25] CT
0.149 GC
2 setlinecap
1 LJ
0.667 LW
N
65 842.507 M
74.275 842.507 L
S
GR
GS
[0.75 0 0 0.75 0 -0.25] CT
0.149 GC
2 setlinecap
1 LJ
0.667 LW
N
65 833.862 M
74.275 833.862 L
S
GR
GS
[0.75 0 0 0.75 0 -0.25] CT
0.149 GC
2 setlinecap
1 LJ
0.667 LW
N
65 826.372 M
74.275 826.372 L
S
GR
GS
[0.75 0 0 0.75 0 -0.25] CT
0.149 GC
2 setlinecap
1 LJ
0.667 LW
N
65 819.766 M
74.275 819.766 L
S
GR
GS
[0.75 0 0 0.75 0 -0.25] CT
0.149 GC
2 setlinecap
1 LJ
0.667 LW
N
65 813.857 M
74.275 813.857 L
S
GR
GS
[0.75 0 0 0.75 0 -0.25] CT
0.149 GC
2 setlinecap
1 LJ
0.667 LW
N
65 774.981 M
74.275 774.981 L
S
GR
GS
[0.75 0 0 0.75 0 -0.25] CT
0.149 GC
2 setlinecap
1 LJ
0.667 LW
N
65 752.24 M
74.275 752.24 L
S
GR
GS
[0.75 0 0 0.75 0 -0.25] CT
0.149 GC
2 setlinecap
1 LJ
0.667 LW
N
65 736.105 M
74.275 736.105 L
S
GR
GS
[0.75 0 0 0.75 0 -0.25] CT
0.149 GC
2 setlinecap
1 LJ
0.667 LW
N
65 723.59 M
74.275 723.59 L
S
GR
GS
[0.75 0 0 0.75 0 -0.25] CT
0.149 GC
2 setlinecap
1 LJ
0.667 LW
N
65 713.364 M
74.275 713.364 L
S
GR
GS
[0.75 0 0 0.75 0 -0.25] CT
0.149 GC
2 setlinecap
1 LJ
0.667 LW
N
65 704.719 M
74.275 704.719 L
S
GR
GS
[0.75 0 0 0.75 0 -0.25] CT
0.149 GC
2 setlinecap
1 LJ
0.667 LW
N
65 697.23 M
74.275 697.23 L
S
GR
GS
[0.75 0 0 0.75 0 -0.25] CT
0.149 GC
2 setlinecap
1 LJ
0.667 LW
N
65 690.624 M
74.275 690.624 L
S
GR
GS
[0.75 0 0 0.75 0 -0.25] CT
0.149 GC
2 setlinecap
1 LJ
0.667 LW
N
65 684.714 M
74.275 684.714 L
S
GR
GS
[0.75 0 0 0.75 0 -0.25] CT
0.149 GC
2 setlinecap
1 LJ
0.667 LW
N
65 645.838 M
74.275 645.838 L
S
GR
GS
[0.75 0 0 0.75 0 -0.25] CT
0.149 GC
2 setlinecap
1 LJ
0.667 LW
N
65 623.097 M
74.275 623.097 L
S
GR
GS
[0.75 0 0 0.75 0 -0.25] CT
0.149 GC
2 setlinecap
1 LJ
0.667 LW
N
65 606.963 M
74.275 606.963 L
S
GR
GS
[0.75 0 0 0.75 0 -0.25] CT
0.149 GC
2 setlinecap
1 LJ
0.667 LW
N
65 594.447 M
74.275 594.447 L
S
GR
GS
[0.75 0 0 0.75 0 -0.25] CT
0.149 GC
2 setlinecap
1 LJ
0.667 LW
N
65 584.222 M
74.275 584.222 L
S
GR
GS
[0.75 0 0 0.75 0 -0.25] CT
0.149 GC
2 setlinecap
1 LJ
0.667 LW
N
65 575.576 M
74.275 575.576 L
S
GR
GS
[0.75 0 0 0.75 0 -0.25] CT
0.149 GC
2 setlinecap
1 LJ
0.667 LW
N
65 568.087 M
74.275 568.087 L
S
GR
GS
[0.75 0 0 0.75 0 -0.25] CT
0.149 GC
2 setlinecap
1 LJ
0.667 LW
N
65 561.481 M
74.275 561.481 L
S
GR
GS
[0.75 0 0 0.75 0 -0.25] CT
0.149 GC
2 setlinecap
1 LJ
0.667 LW
N
65 555.571 M
74.275 555.571 L
S
GR
GS
[0.75 0 0 0.75 0 -0.25] CT
0.149 GC
2 setlinecap
1 LJ
0.667 LW
N
65 516.696 M
74.275 516.696 L
S
GR
GS
[0.75 0 0 0.75 0 -0.25] CT
0.149 GC
2 setlinecap
1 LJ
0.667 LW
N
65 493.955 M
74.275 493.955 L
S
GR
GS
[0.75 0 0 0.75 0 -0.25] CT
0.149 GC
2 setlinecap
1 LJ
0.667 LW
N
65 477.82 M
74.275 477.82 L
S
GR
GS
[0.75 0 0 0.75 0 -0.25] CT
0.149 GC
2 setlinecap
1 LJ
0.667 LW
N
65 465.304 M
74.275 465.304 L
S
GR
GS
[0.75 0 0 0.75 0 -0.25] CT
0.149 GC
2 setlinecap
1 LJ
0.667 LW
N
65 455.079 M
74.275 455.079 L
S
GR
GS
[0.75 0 0 0.75 0 -0.25] CT
0.149 GC
2 setlinecap
1 LJ
0.667 LW
N
65 446.433 M
74.275 446.433 L
S
GR
GS
[0.75 0 0 0.75 0 -0.25] CT
0.149 GC
2 setlinecap
1 LJ
0.667 LW
N
65 438.944 M
74.275 438.944 L
S
GR
GS
[0.75 0 0 0.75 0 -0.25] CT
0.149 GC
2 setlinecap
1 LJ
0.667 LW
N
65 432.338 M
74.275 432.338 L
S
GR
GS
[0.75 0 0 0.75 0 -0.25] CT
0.149 GC
2 setlinecap
1 LJ
0.667 LW
N
65 426.429 M
74.275 426.429 L
S
GR
GS
[0.75 0 0 0.75 0 -0.25] CT
0.149 GC
2 setlinecap
1 LJ
0.667 LW
N
65 387.553 M
74.275 387.553 L
S
GR
GS
[0.75 0 0 0.75 0 -0.25] CT
0.149 GC
2 setlinecap
1 LJ
0.667 LW
N
65 364.812 M
74.275 364.812 L
S
GR
GS
[0.75 0 0 0.75 0 -0.25] CT
0.149 GC
2 setlinecap
1 LJ
0.667 LW
N
65 348.677 M
74.275 348.677 L
S
GR
GS
[0.75 0 0 0.75 0 -0.25] CT
0.149 GC
2 setlinecap
1 LJ
0.667 LW
N
65 336.162 M
74.275 336.162 L
S
GR
GS
[0.75 0 0 0.75 0 -0.25] CT
0.149 GC
2 setlinecap
1 LJ
0.667 LW
N
65 325.936 M
74.275 325.936 L
S
GR
GS
[0.75 0 0 0.75 0 -0.25] CT
0.149 GC
2 setlinecap
1 LJ
0.667 LW
N
65 317.29 M
74.275 317.29 L
S
GR
GS
[0.75 0 0 0.75 0 -0.25] CT
0.149 GC
2 setlinecap
1 LJ
0.667 LW
N
65 309.801 M
74.275 309.801 L
S
GR
GS
[0.75 0 0 0.75 0 -0.25] CT
0.149 GC
2 setlinecap
1 LJ
0.667 LW
N
65 303.195 M
74.275 303.195 L
S
GR
GS
[0.75 0 0 0.75 0 -0.25] CT
0.149 GC
2 setlinecap
1 LJ
0.667 LW
N
65 297.286 M
74.275 297.286 L
S
GR
GS
[0.75 0 0 0.75 0 -0.25] CT
0.149 GC
2 setlinecap
1 LJ
0.667 LW
N
65 258.41 M
74.275 258.41 L
S
GR
GS
[0.75 0 0 0.75 0 -0.25] CT
0.149 GC
2 setlinecap
1 LJ
0.667 LW
N
65 235.669 M
74.275 235.669 L
S
GR
GS
[0.75 0 0 0.75 0 -0.25] CT
0.149 GC
2 setlinecap
1 LJ
0.667 LW
N
65 219.534 M
74.275 219.534 L
S
GR
GS
[0.75 0 0 0.75 0 -0.25] CT
0.149 GC
2 setlinecap
1 LJ
0.667 LW
N
65 207.019 M
74.275 207.019 L
S
GR
GS
[0.75 0 0 0.75 0 -0.25] CT
0.149 GC
2 setlinecap
1 LJ
0.667 LW
N
65 196.793 M
74.275 196.793 L
S
GR
GS
[0.75 0 0 0.75 0 -0.25] CT
0.149 GC
2 setlinecap
1 LJ
0.667 LW
N
65 188.147 M
74.275 188.147 L
S
GR
GS
[0.75 0 0 0.75 0 -0.25] CT
0.149 GC
2 setlinecap
1 LJ
0.667 LW
N
65 180.658 M
74.275 180.658 L
S
GR
GS
[0.75 0 0 0.75 0 -0.25] CT
0.149 GC
2 setlinecap
1 LJ
0.667 LW
N
65 174.052 M
74.275 174.052 L
S
GR
GS
[0.75 0 0 0.75 0 -0.25] CT
0.149 GC
2 setlinecap
1 LJ
0.667 LW
N
65 168.143 M
74.275 168.143 L
S
GR
GS
[0.75 0 0 0.75 0 -0.25] CT
0.149 GC
2 setlinecap
1 LJ
0.667 LW
N
65 129.267 M
74.275 129.267 L
S
GR
GS
[0.75 0 0 0.75 0 -0.25] CT
0.149 GC
2 setlinecap
1 LJ
0.667 LW
N
65 106.526 M
74.275 106.526 L
S
GR
GS
[0.75 0 0 0.75 0 -0.25] CT
0.149 GC
2 setlinecap
1 LJ
0.667 LW
N
65 90.391 M
74.275 90.391 L
S
GR
GS
[0.75 0 0 0.75 0 -0.25] CT
0.149 GC
2 setlinecap
1 LJ
0.667 LW
N
65 77.876 M
74.275 77.876 L
S
GR
GS
[0.75 0 0 0.75 0 -0.25] CT
0.149 GC
2 setlinecap
1 LJ
0.667 LW
N
65 67.65 M
74.275 67.65 L
S
GR
GS
[0.75 0 0 0.75 0 -0.25] CT
0.149 GC
2 setlinecap
1 LJ
0.667 LW
N
65 59.005 M
74.275 59.005 L
S
GR
GS
[0.75 0 0 0.75 0 -0.25] CT
0.149 GC
2 setlinecap
1 LJ
0.667 LW
N
65 51.515 M
74.275 51.515 L
S
GR
GS
[0.75 0 0 0.75 0 -0.25] CT
0.149 GC
2 setlinecap
1 LJ
0.667 LW
N
65 44.909 M
74.275 44.909 L
S
GR
GS
[0.75 0 0 0.75 0 -0.25] CT
0.149 GC
2 setlinecap
1 LJ
0.667 LW
N
65 39 M
74.275 39 L
S
GR
GS
[0.75 0 0 0.75 27 711.5] CT
0.149 GC
/Helvetica 13.333 F
GS
[1 0 0 1 0 0] CT
0 0 moveto 
1 -1 scale
(10) t 
GR
GR
GS
[0.75 0 0 0.75 38.25 707] CT
0.149 GC
/Helvetica 10.667 F
GS
[1 0 0 1 0 0] CT
0 0 moveto 
1 -1 scale
(-4) t 
GR
GR
GS
[0.75 0 0 0.75 27 614.75] CT
0.149 GC
/Helvetica 13.333 F
GS
[1 0 0 1 0 0] CT
0 0 moveto 
1 -1 scale
(10) t 
GR
GR
GS
[0.75 0 0 0.75 38.25 610.25] CT
0.149 GC
/Helvetica 10.667 F
GS
[1 0 0 1 0 0] CT
0 0 moveto 
1 -1 scale
(-3) t 
GR
GR
GS
[0.75 0 0 0.75 27 518] CT
0.149 GC
/Helvetica 13.333 F
GS
[1 0 0 1 0 0] CT
0 0 moveto 
1 -1 scale
(10) t 
GR
GR
GS
[0.75 0 0 0.75 38.25 513.5] CT
0.149 GC
/Helvetica 10.667 F
GS
[1 0 0 1 0 0] CT
0 0 moveto 
1 -1 scale
(-2) t 
GR
GR
GS
[0.75 0 0 0.75 27 421.25] CT
0.149 GC
/Helvetica 13.333 F
GS
[1 0 0 1 0 0] CT
0 0 moveto 
1 -1 scale
(10) t 
GR
GR
GS
[0.75 0 0 0.75 38.25 416.75] CT
0.149 GC
/Helvetica 10.667 F
GS
[1 0 0 1 0 0] CT
0 0 moveto 
1 -1 scale
(-1) t 
GR
GR
GS
[0.75 0 0 0.75 29.25 323.75] CT
0.149 GC
/Helvetica 13.333 F
GS
[1 0 0 1 0 0] CT
0 0 moveto 
1 -1 scale
(10) t 
GR
GR
GS
[0.75 0 0 0.75 40.5 319.25] CT
0.149 GC
/Helvetica 10.667 F
GS
[1 0 0 1 0 0] CT
0 0 moveto 
1 -1 scale
(0) t 
GR
GR
GS
[0.75 0 0 0.75 29.25 227] CT
0.149 GC
/Helvetica 13.333 F
GS
[1 0 0 1 0 0] CT
0 0 moveto 
1 -1 scale
(10) t 
GR
GR
GS
[0.75 0 0 0.75 40.5 222.5] CT
0.149 GC
/Helvetica 10.667 F
GS
[1 0 0 1 0 0] CT
0 0 moveto 
1 -1 scale
(1) t 
GR
GR
GS
[0.75 0 0 0.75 29.25 130.25] CT
0.149 GC
/Helvetica 13.333 F
GS
[1 0 0 1 0 0] CT
0 0 moveto 
1 -1 scale
(10) t 
GR
GR
GS
[0.75 0 0 0.75 40.5 125.75] CT
0.149 GC
/Helvetica 10.667 F
GS
[1 0 0 1 0 0] CT
0 0 moveto 
1 -1 scale
(2) t 
GR
GR
GS
[0.75 0 0 0.75 29.25 33.5] CT
0.149 GC
/Helvetica 13.333 F
GS
[1 0 0 1 0 0] CT
0 0 moveto 
1 -1 scale
(10) t 
GR
GR
GS
[0.75 0 0 0.75 40.5 29] CT
0.149 GC
/Helvetica 10.667 F
GS
[1 0 0 1 0 0] CT
0 0 moveto 
1 -1 scale
(3) t 
GR
GR
GS
[0 -0.75 0.75 0 23.75 367.99968] CT
0.149 GC
/Helvetica 26.667 F
GS
[1 0 0 1 0 0] CT
-104 -7 moveto 
1 -1 scale
(Relative error \(/1\)) t 
GR
GR
GS
[0.75 0 0 0.75 744.37573 25.25001] CT
/Helvetica-Bold 26.667 F
GS
[1 0 0 1 0 0] CT
-219.5 -7 moveto 
1 -1 scale
(Error rate in the motor's speed range) t 
GR
GR
GS
[0.75 0 0 0.75 0 -0.25] CT
0 0.447 0.741 RC
1 LJ
2.667 LW
N
65.018 155.331 M
66.875 416.791 L
68.731 455.401 L
70.588 478.053 L
72.445 494.144 L
74.302 506.632 L
76.159 516.84 L
78.016 525.473 L
79.872 532.953 L
81.729 539.551 L
83.586 545.455 L
85.443 550.796 L
87.3 555.672 L
89.157 560.157 L
91.013 564.311 L
92.87 568.178 L
94.727 571.795 L
96.584 575.194 L
98.441 578.398 L
100.298 581.429 L
102.154 584.304 L
104.011 587.039 L
105.868 589.647 L
107.725 592.139 L
109.582 594.525 L
111.439 596.814 L
113.296 599.013 L
115.152 601.129 L
117.009 603.168 L
118.866 605.135 L
120.723 607.036 L
122.58 608.874 L
124.437 610.655 L
126.293 612.38 L
128.15 614.054 L
130.007 615.679 L
131.864 617.259 L
133.721 618.795 L
135.578 620.29 L
137.434 621.747 L
139.291 623.166 L
141.148 624.551 L
143.005 625.902 L
144.862 627.222 L
146.719 628.511 L
148.575 629.771 L
150.432 631.003 L
152.289 632.209 L
154.146 633.39 L
156.003 634.546 L
157.86 635.679 L
159.717 636.789 L
161.573 637.878 L
163.43 638.946 L
165.287 639.995 L
167.144 641.024 L
169.001 642.034 L
170.858 643.027 L
172.714 644.002 L
174.571 644.96 L
176.428 645.903 L
178.285 646.83 L
180.142 647.742 L
181.999 648.639 L
183.855 649.522 L
185.712 650.391 L
187.569 651.248 L
189.426 652.091 L
191.283 652.922 L
193.14 653.74 L
194.996 654.547 L
196.853 655.343 L
198.71 656.127 L
200.567 656.901 L
202.424 657.664 L
204.281 658.416 L
206.137 659.159 L
207.994 659.892 L
209.851 660.616 L
211.708 661.33 L
213.565 662.036 L
215.422 662.732 L
217.279 663.42 L
219.135 664.1 L
220.992 664.772 L
222.849 665.435 L
224.706 666.091 L
226.563 666.74 L
228.42 667.381 L
230.276 668.014 L
232.133 668.641 L
233.99 669.261 L
235.847 669.873 L
237.704 670.48 L
239.561 671.08 L
241.417 671.673 L
243.274 672.26 L
245.131 672.841 L
246.988 673.417 L
248.845 673.986 L
250.702 674.549 L
252.558 675.108 L
254.415 675.66 L
256.272 676.207 L
258.129 676.749 L
259.986 677.286 L
261.843 677.817 L
263.699 678.344 L
265.556 678.866 L
267.413 679.382 L
269.27 679.895 L
271.127 680.402 L
272.984 680.905 L
274.841 681.404 L
276.697 681.898 L
278.554 682.388 L
280.411 682.873 L
282.268 683.354 L
284.125 683.832 L
285.982 684.305 L
287.838 684.714 L
289.695 684.714 L
291.552 684.714 L
293.409 684.714 L
295.266 684.714 L
297.123 684.714 L
298.979 684.714 L
300.836 684.714 L
302.693 684.714 L
304.55 684.714 L
306.407 684.714 L
308.264 684.714 L
310.12 684.714 L
311.977 684.714 L
313.834 684.714 L
315.691 684.714 L
317.548 684.714 L
319.405 684.714 L
321.262 684.714 L
323.118 684.714 L
324.975 684.714 L
326.832 684.714 L
328.689 684.714 L
330.546 684.714 L
332.403 684.714 L
334.259 684.714 L
336.116 684.714 L
337.973 684.714 L
339.83 684.714 L
341.687 684.714 L
343.544 684.714 L
345.4 684.714 L
347.257 684.714 L
349.114 684.714 L
350.971 684.714 L
352.828 684.714 L
354.685 684.714 L
356.541 684.714 L
358.398 684.714 L
360.255 684.714 L
362.112 684.714 L
363.969 684.714 L
365.826 684.714 L
367.682 684.714 L
369.539 684.714 L
371.396 684.714 L
373.253 684.714 L
375.11 684.714 L
376.967 684.714 L
378.824 684.714 L
380.68 684.714 L
382.537 684.714 L
384.394 684.714 L
386.251 684.714 L
388.108 684.714 L
389.965 684.714 L
391.821 684.714 L
393.678 684.714 L
395.535 684.714 L
397.392 684.714 L
399.249 684.714 L
401.106 684.714 L
402.962 684.714 L
404.819 684.714 L
406.676 684.714 L
408.533 684.714 L
410.39 684.714 L
412.247 684.714 L
414.103 684.714 L
415.96 684.714 L
417.817 684.714 L
419.674 684.714 L
421.531 684.714 L
423.388 684.714 L
425.245 684.714 L
427.101 684.714 L
428.958 684.714 L
430.815 684.714 L
432.672 684.714 L
434.529 684.714 L
436.386 684.714 L
438.242 684.714 L
440.099 684.714 L
441.956 684.714 L
443.813 684.714 L
445.67 684.714 L
447.527 684.714 L
449.383 684.714 L
451.24 684.714 L
453.097 684.714 L
454.954 684.714 L
456.811 684.714 L
458.668 684.714 L
460.524 684.714 L
462.381 684.714 L
464.238 684.714 L
466.095 684.714 L
467.952 684.714 L
469.809 684.714 L
471.665 684.714 L
473.522 684.714 L
475.379 684.714 L
477.236 684.714 L
479.093 684.714 L
480.95 684.714 L
482.807 684.714 L
484.663 684.714 L
486.52 684.714 L
488.377 684.714 L
490.234 684.714 L
492.091 684.714 L
493.948 684.714 L
495.804 684.714 L
497.661 684.714 L
499.518 684.714 L
501.375 684.714 L
503.232 684.714 L
505.089 684.714 L
506.945 684.714 L
508.802 684.714 L
510.659 684.714 L
512.516 684.714 L
514.373 684.714 L
516.23 684.714 L
518.086 684.714 L
519.943 684.714 L
521.8 684.714 L
523.657 684.714 L
525.514 684.714 L
527.371 684.714 L
529.227 684.714 L
531.084 684.714 L
532.941 684.714 L
534.798 684.714 L
536.655 684.714 L
538.512 684.714 L
540.369 684.714 L
542.225 684.714 L
544.082 684.714 L
545.939 684.714 L
547.796 684.714 L
549.653 684.714 L
551.51 684.714 L
553.366 684.714 L
555.223 684.714 L
557.08 684.714 L
558.937 684.714 L
560.794 684.714 L
562.651 684.714 L
564.507 684.714 L
566.364 684.714 L
568.221 684.714 L
570.078 684.714 L
571.935 684.714 L
573.792 684.714 L
575.648 684.714 L
577.505 684.714 L
579.362 684.714 L
581.219 684.714 L
583.076 684.714 L
584.933 684.714 L
586.789 684.714 L
588.646 684.714 L
590.503 684.714 L
592.36 684.714 L
594.217 684.714 L
596.074 684.714 L
597.931 684.714 L
599.787 684.714 L
601.644 684.714 L
603.501 684.714 L
605.358 684.714 L
607.215 684.714 L
609.072 684.714 L
610.928 684.714 L
612.785 684.714 L
614.642 684.714 L
616.499 684.714 L
618.356 684.714 L
620.213 684.714 L
622.069 684.714 L
623.926 684.714 L
625.783 684.714 L
627.64 684.714 L
629.497 684.714 L
631.354 684.714 L
633.21 684.714 L
635.067 684.714 L
636.924 684.714 L
638.781 684.714 L
640.638 684.714 L
642.495 684.714 L
644.352 684.714 L
646.208 684.714 L
648.065 684.714 L
649.922 684.714 L
651.779 684.714 L
653.636 684.714 L
655.493 684.714 L
657.349 684.714 L
659.206 684.714 L
661.063 684.714 L
662.92 684.714 L
664.777 684.714 L
666.634 684.714 L
668.49 684.714 L
670.347 684.714 L
672.204 684.714 L
674.061 684.714 L
675.918 684.714 L
677.775 684.714 L
679.631 684.714 L
681.488 684.714 L
683.345 684.714 L
685.202 684.714 L
687.059 684.714 L
688.916 684.714 L
690.773 684.714 L
692.629 684.714 L
694.486 684.714 L
696.343 684.714 L
698.2 684.714 L
700.057 684.714 L
701.914 684.714 L
703.77 684.714 L
705.627 684.714 L
707.484 684.714 L
709.341 684.714 L
711.198 684.714 L
713.055 684.714 L
714.911 684.714 L
716.768 684.714 L
718.625 684.714 L
720.482 684.714 L
722.339 684.714 L
724.196 684.714 L
726.052 684.714 L
727.909 684.714 L
729.766 684.714 L
731.623 684.714 L
733.48 684.714 L
735.337 684.714 L
737.193 684.714 L
739.05 684.714 L
740.907 684.714 L
742.764 684.714 L
744.621 684.714 L
746.478 684.714 L
748.335 684.714 L
750.191 684.714 L
752.048 684.714 L
753.905 684.714 L
755.762 684.714 L
757.619 684.714 L
759.476 684.714 L
761.332 684.714 L
763.189 684.714 L
765.046 684.714 L
766.903 684.714 L
768.76 684.714 L
770.617 684.714 L
772.473 684.714 L
774.33 684.714 L
776.187 684.714 L
778.044 684.714 L
779.901 684.714 L
781.758 684.714 L
783.614 684.714 L
785.471 684.714 L
787.328 684.714 L
789.185 684.714 L
791.042 684.714 L
792.899 684.714 L
794.755 684.714 L
796.612 684.714 L
798.469 684.714 L
800.326 684.714 L
802.183 684.714 L
804.04 684.714 L
805.896 684.714 L
807.753 684.714 L
809.61 684.714 L
811.467 684.714 L
813.324 684.714 L
815.181 684.714 L
817.038 684.714 L
818.894 684.714 L
820.751 684.714 L
822.608 684.714 L
824.465 684.714 L
826.322 684.714 L
828.179 684.714 L
830.035 684.714 L
831.892 684.714 L
833.749 684.714 L
835.606 684.714 L
837.463 684.714 L
839.32 684.714 L
841.177 684.714 L
843.033 684.714 L
844.89 684.714 L
846.747 684.714 L
848.604 684.714 L
850.461 684.714 L
852.318 684.714 L
854.174 684.714 L
856.031 684.714 L
857.888 684.714 L
859.745 684.714 L
861.602 684.714 L
863.459 684.714 L
865.315 684.714 L
867.172 684.714 L
869.029 684.714 L
870.886 684.714 L
872.743 684.714 L
874.6 684.714 L
876.456 684.714 L
878.313 684.714 L
880.17 684.714 L
882.027 684.714 L
883.884 684.714 L
885.741 684.714 L
887.597 684.714 L
889.454 684.714 L
891.311 684.714 L
893.168 684.714 L
895.025 684.714 L
896.882 684.714 L
898.738 684.714 L
900.595 684.714 L
902.452 684.714 L
904.309 684.714 L
906.166 684.714 L
908.023 684.714 L
909.88 684.714 L
911.736 684.714 L
913.593 684.714 L
915.45 684.714 L
917.307 684.714 L
919.164 684.714 L
921.021 684.714 L
922.877 684.714 L
924.734 684.714 L
926.591 684.714 L
928.448 684.714 L
930.305 684.714 L
932.162 684.714 L
934.018 684.714 L
935.875 684.714 L
937.732 684.714 L
939.589 684.714 L
941.446 684.714 L
943.303 684.714 L
945.159 684.714 L
947.016 684.714 L
948.873 684.714 L
950.73 684.714 L
952.587 684.714 L
954.444 684.714 L
956.3 684.714 L
958.157 684.714 L
960.014 684.714 L
961.871 684.714 L
963.728 684.714 L
965.585 684.714 L
967.442 684.714 L
969.298 684.714 L
971.155 684.714 L
973.012 684.714 L
974.869 684.714 L
976.726 684.714 L
978.583 684.714 L
980.439 684.714 L
982.296 684.714 L
984.153 684.714 L
986.01 684.714 L
987.867 684.714 L
989.724 684.714 L
991.58 684.714 L
993.437 684.714 L
995.294 684.714 L
997.151 684.714 L
999.008 684.714 L
1000.865 684.714 L
1002.721 684.714 L
1004.578 684.714 L
1006.435 684.714 L
1008.292 684.714 L
1010.149 684.714 L
1012.006 684.714 L
1013.862 684.714 L
1015.719 684.714 L
1017.576 684.714 L
1019.433 684.714 L
1021.29 684.714 L
1023.147 684.714 L
1025.004 684.714 L
1026.86 684.714 L
1028.717 684.714 L
1030.574 684.714 L
1032.431 684.714 L
1034.288 684.714 L
1036.145 684.714 L
1038.001 684.714 L
1039.858 684.714 L
1041.715 684.714 L
1043.572 684.714 L
1045.429 684.714 L
1047.286 684.714 L
1049.142 684.714 L
1050.999 684.714 L
1052.856 684.714 L
1054.713 684.714 L
1056.57 684.714 L
1058.427 684.714 L
1060.284 684.714 L
1062.14 684.714 L
1063.997 684.714 L
1065.854 684.714 L
1067.711 684.714 L
1069.568 684.714 L
1071.425 684.714 L
1073.281 684.714 L
1075.138 684.714 L
1076.995 684.714 L
1078.852 684.714 L
1080.709 684.714 L
1082.566 684.714 L
1084.422 684.714 L
1086.279 684.714 L
1088.136 684.714 L
1089.993 684.714 L
1091.85 684.714 L
1093.707 684.714 L
1095.563 684.714 L
1097.42 684.714 L
1099.277 684.714 L
1101.134 684.714 L
1102.991 684.714 L
1104.848 684.714 L
1106.704 684.714 L
1108.561 684.714 L
1110.418 684.714 L
1112.275 684.714 L
1114.132 684.714 L
1115.989 684.714 L
1117.845 684.714 L
1119.702 684.714 L
1121.559 684.714 L
1123.416 684.714 L
1125.273 684.714 L
1127.13 684.714 L
1128.987 684.714 L
1130.843 684.714 L
1132.7 684.714 L
1134.557 684.714 L
1136.414 684.714 L
1138.271 684.714 L
1140.128 684.714 L
1141.984 684.714 L
1143.841 684.714 L
1145.698 684.714 L
1147.555 684.714 L
1149.412 684.714 L
1151.269 684.714 L
1153.125 684.714 L
1154.982 684.714 L
1156.839 684.714 L
1158.696 684.714 L
1160.553 684.714 L
1162.41 684.714 L
1164.266 684.714 L
1166.123 684.714 L
1167.98 684.714 L
1169.837 684.714 L
1171.694 684.714 L
1173.551 684.714 L
1175.407 684.714 L
1177.264 684.714 L
1179.121 684.714 L
1180.978 684.714 L
1182.835 684.714 L
1184.692 684.714 L
1186.548 684.714 L
1188.405 684.714 L
1190.262 684.714 L
1192.119 684.714 L
1193.976 684.714 L
1195.833 684.714 L
1197.69 684.714 L
1199.546 684.714 L
1201.403 684.714 L
1203.26 684.714 L
1205.117 684.714 L
1206.974 684.714 L
1208.831 684.714 L
1210.687 684.714 L
1212.544 684.714 L
1214.401 684.714 L
1216.258 684.714 L
1218.115 684.714 L
1219.972 684.714 L
1221.828 684.714 L
1223.685 684.714 L
1225.542 684.714 L
1227.399 684.714 L
1229.256 684.714 L
1231.113 684.714 L
1232.97 684.714 L
1234.826 684.714 L
1236.683 684.714 L
1238.54 684.714 L
1240.397 684.714 L
1242.254 684.714 L
1244.111 684.714 L
1245.967 684.714 L
1247.824 684.714 L
1249.681 684.714 L
1251.538 684.714 L
1253.395 684.714 L
1255.252 684.714 L
1257.109 684.714 L
1258.965 684.714 L
1260.822 684.714 L
1262.679 684.714 L
1264.536 684.714 L
1266.393 684.714 L
1268.25 684.714 L
1270.106 684.714 L
1271.963 684.714 L
1273.82 684.714 L
1275.677 684.714 L
1277.534 684.714 L
1279.391 684.714 L
1281.247 684.714 L
1283.104 684.714 L
1284.961 684.714 L
1286.818 684.714 L
1288.675 684.714 L
1290.531 684.714 L
1292.388 684.714 L
1294.245 684.714 L
1296.102 684.714 L
1297.959 684.714 L
1299.816 684.714 L
1301.673 684.714 L
1303.529 684.714 L
1305.386 684.714 L
1307.243 684.714 L
1309.1 684.714 L
1310.957 684.714 L
1312.814 684.714 L
1314.67 684.714 L
1316.527 684.714 L
1318.384 684.714 L
1320.241 684.714 L
1322.098 684.714 L
1323.955 684.714 L
1325.812 684.714 L
1327.668 684.714 L
1329.525 684.714 L
1331.382 684.714 L
1333.239 684.714 L
1335.096 684.714 L
1336.953 684.714 L
1338.809 684.714 L
1340.666 684.714 L
1342.523 684.714 L
1344.38 684.714 L
1346.237 684.714 L
1348.094 684.714 L
1349.95 684.714 L
1351.807 684.714 L
1353.664 684.714 L
1355.521 684.714 L
1357.378 684.714 L
1359.234 684.714 L
1361.091 684.714 L
1362.948 684.714 L
1364.805 684.714 L
1366.662 684.714 L
1368.519 684.714 L
1370.376 684.714 L
1372.232 684.714 L
1374.089 684.714 L
1375.946 684.714 L
1377.803 684.714 L
1379.66 684.714 L
1381.517 684.714 L
1383.373 684.714 L
1385.23 684.714 L
1387.087 684.714 L
1388.944 684.714 L
1390.801 684.714 L
1392.658 684.714 L
1394.515 684.714 L
1396.371 684.714 L
1398.228 684.714 L
1400.085 684.714 L
1401.942 684.714 L
1403.799 684.714 L
1405.656 684.714 L
1407.512 684.714 L
1409.369 684.714 L
1411.226 684.714 L
1413.083 684.714 L
1414.94 684.714 L
1416.797 684.714 L
1418.653 684.714 L
1420.51 684.714 L
1422.367 684.714 L
1424.224 684.714 L
1426.081 684.714 L
1427.938 684.714 L
1429.795 684.714 L
1431.651 684.714 L
1433.508 684.714 L
1435.365 684.714 L
1437.222 684.714 L
1439.079 684.714 L
1440.936 684.714 L
1442.792 684.714 L
1444.649 684.714 L
1446.506 684.714 L
1448.363 684.714 L
1450.22 684.714 L
1452.077 684.714 L
1453.933 684.714 L
1455.79 684.714 L
1457.647 684.714 L
1459.504 684.714 L
1461.361 684.714 L
1463.218 684.714 L
1465.074 684.714 L
1466.931 684.714 L
1468.788 684.714 L
1470.645 684.714 L
1472.502 684.714 L
1474.359 684.714 L
1476.215 684.714 L
1478.072 684.714 L
1479.929 684.714 L
1481.786 684.714 L
1483.643 684.714 L
1485.5 684.714 L
1487.356 684.714 L
1489.213 684.714 L
1491.07 684.714 L
1492.927 684.714 L
1494.784 684.714 L
1496.641 684.714 L
1498.498 684.714 L
1500.354 684.714 L
1502.211 684.714 L
1504.068 684.714 L
1505.925 684.714 L
1507.782 684.714 L
1509.639 684.714 L
1511.495 684.714 L
1513.352 684.714 L
1515.209 684.714 L
1517.066 684.714 L
1518.923 684.714 L
1520.78 684.714 L
1522.636 684.714 L
1524.493 684.714 L
1526.35 684.714 L
1528.207 684.714 L
1530.064 684.714 L
1531.921 684.714 L
1533.777 684.714 L
1535.634 684.714 L
1537.491 684.714 L
1539.348 684.714 L
1541.205 684.714 L
1543.062 684.714 L
1544.918 684.714 L
1546.775 684.714 L
1548.632 684.714 L
1550.489 684.714 L
1552.346 684.714 L
1554.203 684.714 L
1556.059 684.714 L
1557.916 684.714 L
1559.773 684.714 L
1561.63 684.714 L
1563.487 684.714 L
1565.344 684.714 L
1567.201 684.714 L
1569.057 684.714 L
1570.914 684.714 L
1572.771 684.714 L
1574.628 684.714 L
1576.485 684.714 L
1578.342 684.714 L
1580.198 684.714 L
1582.055 684.714 L
1583.912 684.714 L
1585.769 684.714 L
1587.626 684.714 L
1589.483 684.714 L
1591.339 684.714 L
1593.196 684.714 L
1595.053 684.714 L
1596.91 684.714 L
1598.767 684.714 L
1600.624 684.714 L
1602.481 684.714 L
1604.337 684.714 L
1606.194 684.714 L
1608.051 684.714 L
1609.908 684.714 L
1611.765 684.714 L
1613.622 684.714 L
1615.478 684.714 L
1617.335 684.714 L
1619.192 684.714 L
1621.049 684.714 L
1622.906 684.714 L
1624.763 684.714 L
1626.619 684.714 L
1628.476 684.714 L
1630.333 684.714 L
1632.19 684.714 L
1634.047 684.714 L
1635.904 684.714 L
1637.76 684.714 L
1639.617 684.714 L
1641.474 684.714 L
1643.331 684.714 L
1645.188 684.714 L
1647.045 684.714 L
1648.901 684.714 L
1650.758 684.714 L
1652.615 684.714 L
1654.472 684.714 L
1656.329 684.714 L
1658.186 684.714 L
1660.042 684.714 L
1661.899 684.714 L
1663.756 684.714 L
1665.613 684.714 L
1667.47 684.714 L
1669.327 684.714 L
1671.184 684.714 L
1673.04 684.714 L
1674.897 684.714 L
1676.754 684.714 L
1678.611 684.714 L
1680.468 684.714 L
1682.325 684.714 L
1684.181 684.714 L
1686.038 684.714 L
1687.895 684.714 L
1689.752 684.714 L
1691.609 684.714 L
1693.466 684.714 L
1695.322 684.714 L
1697.179 684.714 L
1699.036 684.714 L
1700.893 684.714 L
1702.75 684.714 L
1704.607 684.714 L
1706.464 684.714 L
1708.32 684.714 L
1710.177 684.714 L
1712.034 684.714 L
1713.891 684.714 L
1715.748 684.714 L
1717.604 684.714 L
1719.461 684.714 L
1721.318 684.714 L
1723.175 684.714 L
1725.032 684.714 L
1726.889 684.714 L
1728.745 684.714 L
1730.602 684.714 L
1732.459 684.714 L
1734.316 684.714 L
1736.173 684.714 L
1738.03 684.714 L
1739.887 684.714 L
1741.743 684.714 L
1743.6 684.714 L
1745.457 684.714 L
1747.314 684.714 L
1749.171 684.714 L
1751.028 684.714 L
1752.885 684.714 L
1754.741 684.714 L
1756.598 684.714 L
1758.455 684.714 L
1760.312 684.714 L
1762.169 684.714 L
1764.026 684.714 L
1765.882 684.714 L
1767.739 684.714 L
1769.596 684.714 L
1771.453 684.714 L
1773.31 684.714 L
1775.167 684.714 L
1777.023 684.714 L
1778.88 684.714 L
1780.737 684.714 L
1782.594 684.714 L
1784.451 684.714 L
1786.308 684.714 L
1788.164 684.714 L
1790.021 684.714 L
1791.878 684.714 L
1793.735 684.714 L
1795.592 684.714 L
1797.449 684.714 L
1799.306 684.714 L
1801.162 684.714 L
1803.019 684.714 L
1804.876 684.714 L
1806.733 684.714 L
1808.59 684.714 L
1810.447 684.714 L
1812.303 684.714 L
1814.16 684.714 L
1816.017 684.714 L
1817.874 684.714 L
1819.731 684.714 L
1821.588 684.714 L
1823.444 684.714 L
1825.301 684.714 L
1827.158 684.714 L
1829.015 684.714 L
1830.872 684.714 L
1832.729 684.714 L
1834.585 684.714 L
1836.442 684.714 L
1838.299 684.714 L
1840.156 684.714 L
1842.013 684.714 L
1843.87 684.714 L
1845.726 684.714 L
1847.583 684.714 L
1849.44 684.714 L
1851.297 684.714 L
1853.154 684.714 L
1855.011 684.714 L
1856.867 684.714 L
1858.724 684.714 L
1860.581 684.714 L
1862.438 684.714 L
1864.295 684.714 L
1866.152 684.714 L
1868.008 684.714 L
1869.865 684.714 L
1871.722 684.714 L
1873.579 684.714 L
1875.436 684.714 L
1877.293 684.714 L
1879.15 684.714 L
1881.006 684.714 L
1882.863 684.714 L
1884.72 684.714 L
1886.577 684.714 L
1888.434 684.714 L
1890.291 684.714 L
1892.147 684.714 L
1894.004 684.714 L
1895.861 684.714 L
1897.718 684.714 L
1899.575 684.714 L
1901.432 684.714 L
1903.288 684.714 L
1905.145 684.714 L
1907.002 684.714 L
1908.859 684.714 L
1910.716 684.714 L
1912.573 684.714 L
1914.429 684.714 L
1916.286 684.714 L
1918.143 684.714 L
1920 684.714 L
S
GR
GS
[0.75 0 0 0.75 0 -0.25] CT
0.851 0.325 0.098 RC
1 LJ
2.667 LW
N
65.018 155.331 M
66.875 416.791 L
68.731 455.401 L
70.588 478.053 L
72.445 494.144 L
74.302 506.632 L
76.159 516.84 L
78.016 525.473 L
79.872 532.953 L
81.729 539.551 L
83.586 545.455 L
85.443 550.796 L
87.3 555.672 L
89.157 560.157 L
91.013 564.311 L
92.87 568.178 L
94.727 571.795 L
96.584 575.194 L
98.441 578.398 L
100.298 581.429 L
102.154 584.304 L
104.011 587.039 L
105.868 589.647 L
107.725 592.139 L
109.582 594.525 L
111.439 596.814 L
113.296 599.013 L
115.152 601.129 L
117.009 603.168 L
118.866 605.135 L
120.723 607.036 L
122.58 608.874 L
124.437 610.655 L
126.293 612.38 L
128.15 614.054 L
130.007 615.679 L
131.864 617.259 L
133.721 618.795 L
135.578 620.29 L
137.434 621.747 L
139.291 623.166 L
141.148 624.551 L
143.005 625.902 L
144.862 627.222 L
146.719 628.511 L
148.575 629.771 L
150.432 631.003 L
152.289 632.209 L
154.146 633.39 L
156.003 634.546 L
157.86 635.679 L
159.717 636.789 L
161.573 637.878 L
163.43 638.946 L
165.287 639.995 L
167.144 641.024 L
169.001 642.034 L
170.858 643.027 L
172.714 644.002 L
174.571 644.96 L
176.428 645.903 L
178.285 646.83 L
180.142 647.742 L
181.999 648.639 L
183.855 649.522 L
185.712 650.391 L
187.569 651.248 L
189.426 652.091 L
191.283 652.922 L
193.14 653.74 L
194.996 654.547 L
196.853 655.343 L
198.71 656.127 L
200.567 656.901 L
202.424 657.664 L
204.281 658.416 L
206.137 659.159 L
207.994 659.892 L
209.851 660.616 L
211.708 661.33 L
213.565 662.036 L
215.422 662.732 L
217.279 663.42 L
219.135 664.1 L
220.992 664.772 L
222.849 665.435 L
224.706 666.091 L
226.563 666.74 L
228.42 667.381 L
230.276 668.014 L
232.133 668.641 L
233.99 669.261 L
235.847 669.873 L
237.704 670.48 L
239.561 671.08 L
241.417 671.673 L
243.274 672.26 L
245.131 672.841 L
246.988 673.417 L
248.845 673.986 L
250.702 674.549 L
252.558 675.108 L
254.415 675.66 L
256.272 676.207 L
258.129 676.749 L
259.986 677.286 L
261.843 677.817 L
263.699 678.344 L
265.556 678.866 L
267.413 679.382 L
269.27 679.895 L
271.127 680.402 L
272.984 680.905 L
274.841 681.404 L
276.697 681.898 L
278.554 682.388 L
280.411 682.873 L
282.268 683.354 L
284.125 683.832 L
285.982 684.305 L
287.838 684.774 L
289.695 685.24 L
291.552 685.701 L
293.409 686.159 L
295.266 686.613 L
297.123 687.064 L
298.979 687.511 L
300.836 687.954 L
302.693 688.394 L
304.55 688.83 L
306.407 689.263 L
308.264 689.693 L
310.12 690.12 L
311.977 690.543 L
313.834 690.963 L
315.691 691.38 L
317.548 691.794 L
319.405 692.205 L
321.262 692.612 L
323.118 693.017 L
324.975 693.419 L
326.832 693.819 L
328.689 694.215 L
330.546 694.608 L
332.403 694.999 L
334.259 695.387 L
336.116 695.773 L
337.973 696.156 L
339.83 696.536 L
341.687 696.914 L
343.544 697.289 L
345.4 697.661 L
347.257 698.031 L
349.114 698.399 L
350.971 698.765 L
352.828 699.128 L
354.685 699.488 L
356.541 699.847 L
358.398 700.203 L
360.255 700.557 L
362.112 700.908 L
363.969 701.258 L
365.826 701.605 L
367.682 701.95 L
369.539 702.293 L
371.396 702.634 L
373.253 702.973 L
375.11 703.31 L
376.967 703.644 L
378.824 703.977 L
380.68 704.308 L
382.537 704.637 L
384.394 704.964 L
386.251 705.289 L
388.108 705.612 L
389.965 705.934 L
391.821 706.253 L
393.678 706.571 L
395.535 706.887 L
397.392 707.201 L
399.249 707.514 L
401.106 707.824 L
402.962 708.133 L
404.819 708.441 L
406.676 708.746 L
408.533 709.05 L
410.39 709.353 L
412.247 709.653 L
414.103 709.953 L
415.96 710.25 L
417.817 710.546 L
419.674 710.84 L
421.531 711.133 L
423.388 711.425 L
425.245 711.714 L
427.101 712.003 L
428.958 712.29 L
430.815 712.575 L
432.672 712.859 L
434.529 713.142 L
436.386 713.423 L
438.242 713.702 L
440.099 713.981 L
441.956 714.258 L
443.813 714.533 L
445.67 714.808 L
447.527 715.081 L
449.383 715.352 L
451.24 715.622 L
453.097 715.891 L
454.954 716.159 L
456.811 716.425 L
458.668 716.691 L
460.524 716.955 L
462.381 717.217 L
464.238 717.479 L
466.095 717.739 L
467.952 717.998 L
469.809 718.256 L
471.665 718.513 L
473.522 718.768 L
475.379 719.022 L
477.236 719.276 L
479.093 719.528 L
480.95 719.779 L
482.807 720.028 L
484.663 720.277 L
486.52 720.525 L
488.377 720.771 L
490.234 721.017 L
492.091 721.261 L
493.948 721.504 L
495.804 721.747 L
497.661 721.988 L
499.518 722.228 L
501.375 722.467 L
503.232 722.705 L
505.089 722.943 L
506.945 723.179 L
508.802 723.414 L
510.659 723.59 L
512.516 723.59 L
514.373 723.59 L
516.23 723.59 L
518.086 723.59 L
519.943 723.59 L
521.8 723.59 L
523.657 723.59 L
525.514 723.59 L
527.371 723.59 L
529.227 723.59 L
531.084 723.59 L
532.941 723.59 L
534.798 723.59 L
536.655 723.59 L
538.512 723.59 L
540.369 723.59 L
542.225 723.59 L
544.082 723.59 L
545.939 723.59 L
547.796 723.59 L
549.653 723.59 L
551.51 723.59 L
553.366 723.59 L
555.223 723.59 L
557.08 723.59 L
558.937 723.59 L
560.794 723.59 L
562.651 723.59 L
564.507 723.59 L
566.364 723.59 L
568.221 723.59 L
570.078 723.59 L
571.935 723.59 L
573.792 723.59 L
575.648 723.59 L
577.505 723.59 L
579.362 723.59 L
581.219 723.59 L
583.076 723.59 L
584.933 723.59 L
586.789 723.59 L
588.646 723.59 L
590.503 723.59 L
592.36 723.59 L
594.217 723.59 L
596.074 723.59 L
597.931 723.59 L
599.787 723.59 L
601.644 723.59 L
603.501 723.59 L
605.358 723.59 L
607.215 723.59 L
609.072 723.59 L
610.928 723.59 L
612.785 723.59 L
614.642 723.59 L
616.499 723.59 L
618.356 723.59 L
620.213 723.59 L
622.069 723.59 L
623.926 723.59 L
625.783 723.59 L
627.64 723.59 L
629.497 723.59 L
631.354 723.59 L
633.21 723.59 L
635.067 723.59 L
636.924 723.59 L
638.781 723.59 L
640.638 723.59 L
642.495 723.59 L
644.352 723.59 L
646.208 723.59 L
648.065 723.59 L
649.922 723.59 L
651.779 723.59 L
653.636 723.59 L
655.493 723.59 L
657.349 723.59 L
659.206 723.59 L
661.063 723.59 L
662.92 723.59 L
664.777 723.59 L
666.634 723.59 L
668.49 723.59 L
670.347 723.59 L
672.204 723.59 L
674.061 723.59 L
675.918 723.59 L
677.775 723.59 L
679.631 723.59 L
681.488 723.59 L
683.345 723.59 L
685.202 723.59 L
687.059 723.59 L
688.916 723.59 L
690.773 723.59 L
692.629 723.59 L
694.486 723.59 L
696.343 723.59 L
698.2 723.59 L
700.057 723.59 L
701.914 723.59 L
703.77 723.59 L
705.627 723.59 L
707.484 723.59 L
709.341 723.59 L
711.198 723.59 L
713.055 723.59 L
714.911 723.59 L
716.768 723.59 L
718.625 723.59 L
720.482 723.59 L
722.339 723.59 L
724.196 723.59 L
726.052 723.59 L
727.909 723.59 L
729.766 723.59 L
731.623 723.59 L
733.48 723.59 L
735.337 723.59 L
737.193 723.59 L
739.05 723.59 L
740.907 723.59 L
742.764 723.59 L
744.621 723.59 L
746.478 723.59 L
748.335 723.59 L
750.191 723.59 L
752.048 723.59 L
753.905 723.59 L
755.762 723.59 L
757.619 723.59 L
759.476 723.59 L
761.332 723.59 L
763.189 723.59 L
765.046 723.59 L
766.903 723.59 L
768.76 723.59 L
770.617 723.59 L
772.473 723.59 L
774.33 723.59 L
776.187 723.59 L
778.044 723.59 L
779.901 723.59 L
781.758 723.59 L
783.614 723.59 L
785.471 723.59 L
787.328 723.59 L
789.185 723.59 L
791.042 723.59 L
792.899 723.59 L
794.755 723.59 L
796.612 723.59 L
798.469 723.59 L
800.326 723.59 L
802.183 723.59 L
804.04 723.59 L
805.896 723.59 L
807.753 723.59 L
809.61 723.59 L
811.467 723.59 L
813.324 723.59 L
815.181 723.59 L
817.038 723.59 L
818.894 723.59 L
820.751 723.59 L
822.608 723.59 L
824.465 723.59 L
826.322 723.59 L
828.179 723.59 L
830.035 723.59 L
831.892 723.59 L
833.749 723.59 L
835.606 723.59 L
837.463 723.59 L
839.32 723.59 L
841.177 723.59 L
843.033 723.59 L
844.89 723.59 L
846.747 723.59 L
848.604 723.59 L
850.461 723.59 L
852.318 723.59 L
854.174 723.59 L
856.031 723.59 L
857.888 723.59 L
859.745 723.59 L
861.602 723.59 L
863.459 723.59 L
865.315 723.59 L
867.172 723.59 L
869.029 723.59 L
870.886 723.59 L
872.743 723.59 L
874.6 723.59 L
876.456 723.59 L
878.313 723.59 L
880.17 723.59 L
882.027 723.59 L
883.884 723.59 L
885.741 723.59 L
887.597 723.59 L
889.454 723.59 L
891.311 723.59 L
893.168 723.59 L
895.025 723.59 L
896.882 723.59 L
898.738 723.59 L
900.595 723.59 L
902.452 723.59 L
904.309 723.59 L
906.166 723.59 L
908.023 723.59 L
909.88 723.59 L
911.736 723.59 L
913.593 723.59 L
915.45 723.59 L
917.307 723.59 L
919.164 723.59 L
921.021 723.59 L
922.877 723.59 L
924.734 723.59 L
926.591 723.59 L
928.448 723.59 L
930.305 723.59 L
932.162 723.59 L
934.018 723.59 L
935.875 723.59 L
937.732 723.59 L
939.589 723.59 L
941.446 723.59 L
943.303 723.59 L
945.159 723.59 L
947.016 723.59 L
948.873 723.59 L
950.73 723.59 L
952.587 723.59 L
954.444 723.59 L
956.3 723.59 L
958.157 723.59 L
960.014 723.59 L
961.871 723.59 L
963.728 723.59 L
965.585 723.59 L
967.442 723.59 L
969.298 723.59 L
971.155 723.59 L
973.012 723.59 L
974.869 723.59 L
976.726 723.59 L
978.583 723.59 L
980.439 723.59 L
982.296 723.59 L
984.153 723.59 L
986.01 723.59 L
987.867 723.59 L
989.724 723.59 L
991.58 723.59 L
993.437 723.59 L
995.294 723.59 L
997.151 723.59 L
999.008 723.59 L
1000.865 723.59 L
1002.721 723.59 L
1004.578 723.59 L
1006.435 723.59 L
1008.292 723.59 L
1010.149 723.59 L
1012.006 723.59 L
1013.862 723.59 L
1015.719 723.59 L
1017.576 723.59 L
1019.433 723.59 L
1021.29 723.59 L
1023.147 723.59 L
1025.004 723.59 L
1026.86 723.59 L
1028.717 723.59 L
1030.574 723.59 L
1032.431 723.59 L
1034.288 723.59 L
1036.145 723.59 L
1038.001 723.59 L
1039.858 723.59 L
1041.715 723.59 L
1043.572 723.59 L
1045.429 723.59 L
1047.286 723.59 L
1049.142 723.59 L
1050.999 723.59 L
1052.856 723.59 L
1054.713 723.59 L
1056.57 723.59 L
1058.427 723.59 L
1060.284 723.59 L
1062.14 723.59 L
1063.997 723.59 L
1065.854 723.59 L
1067.711 723.59 L
1069.568 723.59 L
1071.425 723.59 L
1073.281 723.59 L
1075.138 723.59 L
1076.995 723.59 L
1078.852 723.59 L
1080.709 723.59 L
1082.566 723.59 L
1084.422 723.59 L
1086.279 723.59 L
1088.136 723.59 L
1089.993 723.59 L
1091.85 723.59 L
1093.707 723.59 L
1095.563 723.59 L
1097.42 723.59 L
1099.277 723.59 L
1101.134 723.59 L
1102.991 723.59 L
1104.848 723.59 L
1106.704 723.59 L
1108.561 723.59 L
1110.418 723.59 L
1112.275 723.59 L
1114.132 723.59 L
1115.989 723.59 L
1117.845 723.59 L
1119.702 723.59 L
1121.559 723.59 L
1123.416 723.59 L
1125.273 723.59 L
1127.13 723.59 L
1128.987 723.59 L
1130.843 723.59 L
1132.7 723.59 L
1134.557 723.59 L
1136.414 723.59 L
1138.271 723.59 L
1140.128 723.59 L
1141.984 723.59 L
1143.841 723.59 L
1145.698 723.59 L
1147.555 723.59 L
1149.412 723.59 L
1151.269 723.59 L
1153.125 723.59 L
1154.982 723.59 L
1156.839 723.59 L
1158.696 723.59 L
1160.553 723.59 L
1162.41 723.59 L
1164.266 723.59 L
1166.123 723.59 L
1167.98 723.59 L
1169.837 723.59 L
1171.694 723.59 L
1173.551 723.59 L
1175.407 723.59 L
1177.264 723.59 L
1179.121 723.59 L
1180.978 723.59 L
1182.835 723.59 L
1184.692 723.59 L
1186.548 723.59 L
1188.405 723.59 L
1190.262 723.59 L
1192.119 723.59 L
1193.976 723.59 L
1195.833 723.59 L
1197.69 723.59 L
1199.546 723.59 L
1201.403 723.59 L
1203.26 723.59 L
1205.117 723.59 L
1206.974 723.59 L
1208.831 723.59 L
1210.687 723.59 L
1212.544 723.59 L
1214.401 723.59 L
1216.258 723.59 L
1218.115 723.59 L
1219.972 723.59 L
1221.828 723.59 L
1223.685 723.59 L
1225.542 723.59 L
1227.399 723.59 L
1229.256 723.59 L
1231.113 723.59 L
1232.97 723.59 L
1234.826 723.59 L
1236.683 723.59 L
1238.54 723.59 L
1240.397 723.59 L
1242.254 723.59 L
1244.111 723.59 L
1245.967 723.59 L
1247.824 723.59 L
1249.681 723.59 L
1251.538 723.59 L
1253.395 723.59 L
1255.252 723.59 L
1257.109 723.59 L
1258.965 723.59 L
1260.822 723.59 L
1262.679 723.59 L
1264.536 723.59 L
1266.393 723.59 L
1268.25 723.59 L
1270.106 723.59 L
1271.963 723.59 L
1273.82 723.59 L
1275.677 723.59 L
1277.534 723.59 L
1279.391 723.59 L
1281.247 723.59 L
1283.104 723.59 L
1284.961 723.59 L
1286.818 723.59 L
1288.675 723.59 L
1290.531 723.59 L
1292.388 723.59 L
1294.245 723.59 L
1296.102 723.59 L
1297.959 723.59 L
1299.816 723.59 L
1301.673 723.59 L
1303.529 723.59 L
1305.386 723.59 L
1307.243 723.59 L
1309.1 723.59 L
1310.957 723.59 L
1312.814 723.59 L
1314.67 723.59 L
1316.527 723.59 L
1318.384 723.59 L
1320.241 723.59 L
1322.098 723.59 L
1323.955 723.59 L
1325.812 723.59 L
1327.668 723.59 L
1329.525 723.59 L
1331.382 723.59 L
1333.239 723.59 L
1335.096 723.59 L
1336.953 723.59 L
1338.809 723.59 L
1340.666 723.59 L
1342.523 723.59 L
1344.38 723.59 L
1346.237 723.59 L
1348.094 723.59 L
1349.95 723.59 L
1351.807 723.59 L
1353.664 723.59 L
1355.521 723.59 L
1357.378 723.59 L
1359.234 723.59 L
1361.091 723.59 L
1362.948 723.59 L
1364.805 723.59 L
1366.662 723.59 L
1368.519 723.59 L
1370.376 723.59 L
1372.232 723.59 L
1374.089 723.59 L
1375.946 723.59 L
1377.803 723.59 L
1379.66 723.59 L
1381.517 723.59 L
1383.373 723.59 L
1385.23 723.59 L
1387.087 723.59 L
1388.944 723.59 L
1390.801 723.59 L
1392.658 723.59 L
1394.515 723.59 L
1396.371 723.59 L
1398.228 723.59 L
1400.085 723.59 L
1401.942 723.59 L
1403.799 723.59 L
1405.656 723.59 L
1407.512 723.59 L
1409.369 723.59 L
1411.226 723.59 L
1413.083 723.59 L
1414.94 723.59 L
1416.797 723.59 L
1418.653 723.59 L
1420.51 723.59 L
1422.367 723.59 L
1424.224 723.59 L
1426.081 723.59 L
1427.938 723.59 L
1429.795 723.59 L
1431.651 723.59 L
1433.508 723.59 L
1435.365 723.59 L
1437.222 723.59 L
1439.079 723.59 L
1440.936 723.59 L
1442.792 723.59 L
1444.649 723.59 L
1446.506 723.59 L
1448.363 723.59 L
1450.22 723.59 L
1452.077 723.59 L
1453.933 723.59 L
1455.79 723.59 L
1457.647 723.59 L
1459.504 723.59 L
1461.361 723.59 L
1463.218 723.59 L
1465.074 723.59 L
1466.931 723.59 L
1468.788 723.59 L
1470.645 723.59 L
1472.502 723.59 L
1474.359 723.59 L
1476.215 723.59 L
1478.072 723.59 L
1479.929 723.59 L
1481.786 723.59 L
1483.643 723.59 L
1485.5 723.59 L
1487.356 723.59 L
1489.213 723.59 L
1491.07 723.59 L
1492.927 723.59 L
1494.784 723.59 L
1496.641 723.59 L
1498.498 723.59 L
1500.354 723.59 L
1502.211 723.59 L
1504.068 723.59 L
1505.925 723.59 L
1507.782 723.59 L
1509.639 723.59 L
1511.495 723.59 L
1513.352 723.59 L
1515.209 723.59 L
1517.066 723.59 L
1518.923 723.59 L
1520.78 723.59 L
1522.636 723.59 L
1524.493 723.59 L
1526.35 723.59 L
1528.207 723.59 L
1530.064 723.59 L
1531.921 723.59 L
1533.777 723.59 L
1535.634 723.59 L
1537.491 723.59 L
1539.348 723.59 L
1541.205 723.59 L
1543.062 723.59 L
1544.918 723.59 L
1546.775 723.59 L
1548.632 723.59 L
1550.489 723.59 L
1552.346 723.59 L
1554.203 723.59 L
1556.059 723.59 L
1557.916 723.59 L
1559.773 723.59 L
1561.63 723.59 L
1563.487 723.59 L
1565.344 723.59 L
1567.201 723.59 L
1569.057 723.59 L
1570.914 723.59 L
1572.771 723.59 L
1574.628 723.59 L
1576.485 723.59 L
1578.342 723.59 L
1580.198 723.59 L
1582.055 723.59 L
1583.912 723.59 L
1585.769 723.59 L
1587.626 723.59 L
1589.483 723.59 L
1591.339 723.59 L
1593.196 723.59 L
1595.053 723.59 L
1596.91 723.59 L
1598.767 723.59 L
1600.624 723.59 L
1602.481 723.59 L
1604.337 723.59 L
1606.194 723.59 L
1608.051 723.59 L
1609.908 723.59 L
1611.765 723.59 L
1613.622 723.59 L
1615.478 723.59 L
1617.335 723.59 L
1619.192 723.59 L
1621.049 723.59 L
1622.906 723.59 L
1624.763 723.59 L
1626.619 723.59 L
1628.476 723.59 L
1630.333 723.59 L
1632.19 723.59 L
1634.047 723.59 L
1635.904 723.59 L
1637.76 723.59 L
1639.617 723.59 L
1641.474 723.59 L
1643.331 723.59 L
1645.188 723.59 L
1647.045 723.59 L
1648.901 723.59 L
1650.758 723.59 L
1652.615 723.59 L
1654.472 723.59 L
1656.329 723.59 L
1658.186 723.59 L
1660.042 723.59 L
1661.899 723.59 L
1663.756 723.59 L
1665.613 723.59 L
1667.47 723.59 L
1669.327 723.59 L
1671.184 723.59 L
1673.04 723.59 L
1674.897 723.59 L
1676.754 723.59 L
1678.611 723.59 L
1680.468 723.59 L
1682.325 723.59 L
1684.181 723.59 L
1686.038 723.59 L
1687.895 723.59 L
1689.752 723.59 L
1691.609 723.59 L
1693.466 723.59 L
1695.322 723.59 L
1697.179 723.59 L
1699.036 723.59 L
1700.893 723.59 L
1702.75 723.59 L
1704.607 723.59 L
1706.464 723.59 L
1708.32 723.59 L
1710.177 723.59 L
1712.034 723.59 L
1713.891 723.59 L
1715.748 723.59 L
1717.604 723.59 L
1719.461 723.59 L
1721.318 723.59 L
1723.175 723.59 L
1725.032 723.59 L
1726.889 723.59 L
1728.745 723.59 L
1730.602 723.59 L
1732.459 723.59 L
1734.316 723.59 L
1736.173 723.59 L
1738.03 723.59 L
1739.887 723.59 L
1741.743 723.59 L
1743.6 723.59 L
1745.457 723.59 L
1747.314 723.59 L
1749.171 723.59 L
1751.028 723.59 L
1752.885 723.59 L
1754.741 723.59 L
1756.598 723.59 L
1758.455 723.59 L
1760.312 723.59 L
1762.169 723.59 L
1764.026 723.59 L
1765.882 723.59 L
1767.739 723.59 L
1769.596 723.59 L
1771.453 723.59 L
1773.31 723.59 L
1775.167 723.59 L
1777.023 723.59 L
1778.88 723.59 L
1780.737 723.59 L
1782.594 723.59 L
1784.451 723.59 L
1786.308 723.59 L
1788.164 723.59 L
1790.021 723.59 L
1791.878 723.59 L
1793.735 723.59 L
1795.592 723.59 L
1797.449 723.59 L
1799.306 723.59 L
1801.162 723.59 L
1803.019 723.59 L
1804.876 723.59 L
1806.733 723.59 L
1808.59 723.59 L
1810.447 723.59 L
1812.303 723.59 L
1814.16 723.59 L
1816.017 723.59 L
1817.874 723.59 L
1819.731 723.59 L
1821.588 723.59 L
1823.444 723.59 L
1825.301 723.59 L
1827.158 723.59 L
1829.015 723.59 L
1830.872 723.59 L
1832.729 723.59 L
1834.585 723.59 L
1836.442 723.59 L
1838.299 723.59 L
1840.156 723.59 L
1842.013 723.59 L
1843.87 723.59 L
1845.726 723.59 L
1847.583 723.59 L
1849.44 723.59 L
1851.297 723.59 L
1853.154 723.59 L
1855.011 723.59 L
1856.867 723.59 L
1858.724 723.59 L
1860.581 723.59 L
1862.438 723.59 L
1864.295 723.59 L
1866.152 723.59 L
1868.008 723.59 L
1869.865 723.59 L
1871.722 723.59 L
1873.579 723.59 L
1875.436 723.59 L
1877.293 723.59 L
1879.15 723.59 L
1881.006 723.59 L
1882.863 723.59 L
1884.72 723.59 L
1886.577 723.59 L
1888.434 723.59 L
1890.291 723.59 L
1892.147 723.59 L
1894.004 723.59 L
1895.861 723.59 L
1897.718 723.59 L
1899.575 723.59 L
1901.432 723.59 L
1903.288 723.59 L
1905.145 723.59 L
1907.002 723.59 L
1908.859 723.59 L
1910.716 723.59 L
1912.573 723.59 L
1914.429 723.59 L
1916.286 723.59 L
1918.143 723.59 L
1920 723.59 L
S
GR
GS
[0.75 0 0 0.75 0 -0.25] CT
0.929 0.694 0.125 RC
1 LJ
2.667 LW
N
65.018 233.082 M
66.875 494.543 L
68.731 533.153 L
70.588 555.805 L
72.445 571.896 L
74.302 584.384 L
76.159 594.592 L
78.016 603.225 L
79.872 610.705 L
81.729 617.303 L
83.586 623.207 L
85.443 628.547 L
87.3 633.423 L
89.157 637.909 L
91.013 642.063 L
92.87 645.93 L
94.727 649.547 L
96.584 652.945 L
98.441 656.149 L
100.298 659.18 L
102.154 662.056 L
104.011 664.791 L
105.868 667.399 L
107.725 669.891 L
109.582 672.277 L
111.439 674.566 L
113.296 676.764 L
115.152 678.88 L
117.009 680.919 L
118.866 682.887 L
120.723 684.788 L
122.58 686.626 L
124.437 688.406 L
126.293 690.132 L
128.15 691.805 L
130.007 693.431 L
131.864 695.01 L
133.721 696.547 L
135.578 698.042 L
137.434 699.499 L
139.291 700.918 L
141.148 702.303 L
143.005 703.654 L
144.862 704.973 L
146.719 706.263 L
148.575 707.523 L
150.432 708.755 L
152.289 709.961 L
154.146 711.142 L
156.003 712.298 L
157.86 713.431 L
159.717 714.541 L
161.573 715.63 L
163.43 716.698 L
165.287 717.746 L
167.144 718.775 L
169.001 719.786 L
170.858 720.778 L
172.714 721.754 L
174.571 722.712 L
176.428 723.655 L
178.285 724.582 L
180.142 725.493 L
181.999 726.391 L
183.855 727.274 L
185.712 728.143 L
187.569 728.999 L
189.426 729.843 L
191.283 730.674 L
193.14 731.492 L
194.996 732.299 L
196.853 733.095 L
198.71 733.879 L
200.567 734.652 L
202.424 735.415 L
204.281 736.168 L
206.137 736.911 L
207.994 737.644 L
209.851 738.368 L
211.708 739.082 L
213.565 739.787 L
215.422 740.484 L
217.279 741.172 L
219.135 741.852 L
220.992 742.523 L
222.849 743.187 L
224.706 743.843 L
226.563 744.491 L
228.42 745.132 L
230.276 745.766 L
232.133 746.393 L
233.99 747.012 L
235.847 747.625 L
237.704 748.231 L
239.561 748.831 L
241.417 749.425 L
243.274 750.012 L
245.131 750.593 L
246.988 751.168 L
248.845 751.738 L
250.702 752.301 L
252.558 752.859 L
254.415 753.412 L
256.272 753.959 L
258.129 754.501 L
259.986 755.037 L
261.843 755.569 L
263.699 756.096 L
265.556 756.617 L
267.413 757.134 L
269.27 757.646 L
271.127 758.154 L
272.984 758.657 L
274.841 759.155 L
276.697 759.649 L
278.554 760.139 L
280.411 760.625 L
282.268 761.106 L
284.125 761.583 L
285.982 762.057 L
287.838 762.526 L
289.695 762.991 L
291.552 763.453 L
293.409 763.911 L
295.266 764.365 L
297.123 764.815 L
298.979 765.262 L
300.836 765.706 L
302.693 766.146 L
304.55 766.582 L
306.407 767.015 L
308.264 767.445 L
310.12 767.871 L
311.977 768.294 L
313.834 768.715 L
315.691 769.132 L
317.548 769.545 L
319.405 769.956 L
321.262 770.364 L
323.118 770.769 L
324.975 771.171 L
326.832 771.57 L
328.689 771.967 L
330.546 772.36 L
332.403 772.751 L
334.259 773.139 L
336.116 773.525 L
337.973 773.907 L
339.83 774.288 L
341.687 774.665 L
343.544 775.04 L
345.4 775.413 L
347.257 775.783 L
349.114 776.151 L
350.971 776.516 L
352.828 776.879 L
354.685 777.24 L
356.541 777.598 L
358.398 777.954 L
360.255 778.308 L
362.112 778.66 L
363.969 779.009 L
365.826 779.357 L
367.682 779.702 L
369.539 780.045 L
371.396 780.386 L
373.253 780.725 L
375.11 781.061 L
376.967 781.396 L
378.824 781.729 L
380.68 782.06 L
382.537 782.389 L
384.394 782.716 L
386.251 783.041 L
388.108 783.364 L
389.965 783.686 L
391.821 784.005 L
393.678 784.323 L
395.535 784.639 L
397.392 784.953 L
399.249 785.266 L
401.106 785.576 L
402.962 785.885 L
404.819 786.193 L
406.676 786.498 L
408.533 786.802 L
410.39 787.104 L
412.247 787.405 L
414.103 787.704 L
415.96 788.002 L
417.817 788.298 L
419.674 788.592 L
421.531 788.885 L
423.388 789.176 L
425.245 789.466 L
427.101 789.755 L
428.958 790.041 L
430.815 790.327 L
432.672 790.611 L
434.529 790.893 L
436.386 791.174 L
438.242 791.454 L
440.099 791.732 L
441.956 792.009 L
443.813 792.285 L
445.67 792.559 L
447.527 792.832 L
449.383 793.104 L
451.24 793.374 L
453.097 793.643 L
454.954 793.911 L
456.811 794.177 L
458.668 794.442 L
460.524 794.706 L
462.381 794.969 L
464.238 795.23 L
466.095 795.491 L
467.952 795.75 L
469.809 796.008 L
471.665 796.264 L
473.522 796.52 L
475.379 796.774 L
477.236 797.027 L
479.093 797.279 L
480.95 797.53 L
482.807 797.78 L
484.663 798.029 L
486.52 798.276 L
488.377 798.523 L
490.234 798.768 L
492.091 799.013 L
493.948 799.256 L
495.804 799.498 L
497.661 799.74 L
499.518 799.98 L
501.375 800.219 L
503.232 800.457 L
505.089 800.694 L
506.945 800.93 L
508.802 801.166 L
510.659 801.4 L
512.516 801.633 L
514.373 801.865 L
516.23 802.096 L
518.086 802.327 L
519.943 802.556 L
521.8 802.785 L
523.657 803.012 L
525.514 803.239 L
527.371 803.464 L
529.227 803.689 L
531.084 803.913 L
532.941 804.136 L
534.798 804.358 L
536.655 804.579 L
538.512 804.8 L
540.369 805.019 L
542.225 805.238 L
544.082 805.456 L
545.939 805.673 L
547.796 805.889 L
549.653 806.104 L
551.51 806.319 L
553.366 806.532 L
555.223 806.745 L
557.08 806.957 L
558.937 807.168 L
560.794 807.379 L
562.651 807.588 L
564.507 807.797 L
566.364 808.005 L
568.221 808.213 L
570.078 808.419 L
571.935 808.625 L
573.792 808.83 L
575.648 809.035 L
577.505 809.238 L
579.362 809.441 L
581.219 809.643 L
583.076 809.844 L
584.933 810.045 L
586.789 810.245 L
588.646 810.444 L
590.503 810.643 L
592.36 810.841 L
594.217 811.038 L
596.074 811.234 L
597.931 811.43 L
599.787 811.625 L
601.644 811.819 L
603.501 812.013 L
605.358 812.206 L
607.215 812.399 L
609.072 812.59 L
610.928 812.781 L
612.785 812.972 L
614.642 813.162 L
616.499 813.351 L
618.356 813.539 L
620.213 813.727 L
622.069 813.914 L
623.926 814.101 L
625.783 814.287 L
627.64 814.473 L
629.497 814.657 L
631.354 814.842 L
633.21 815.025 L
635.067 815.208 L
636.924 815.391 L
638.781 815.572 L
640.638 815.753 L
642.495 815.934 L
644.352 816.114 L
646.208 816.294 L
648.065 816.473 L
649.922 816.651 L
651.779 816.829 L
653.636 817.006 L
655.493 817.182 L
657.349 817.359 L
659.206 817.534 L
661.063 817.709 L
662.92 817.884 L
664.777 818.057 L
666.634 818.231 L
668.49 818.404 L
670.347 818.576 L
672.204 818.748 L
674.061 818.919 L
675.918 819.09 L
677.775 819.26 L
679.631 819.43 L
681.488 819.599 L
683.345 819.767 L
685.202 819.936 L
687.059 820.103 L
688.916 820.27 L
690.773 820.437 L
692.629 820.603 L
694.486 820.769 L
696.343 820.934 L
698.2 821.099 L
700.057 821.263 L
701.914 821.427 L
703.77 821.59 L
705.627 821.753 L
707.484 821.915 L
709.341 822.077 L
711.198 822.239 L
713.055 822.399 L
714.911 822.56 L
716.768 822.72 L
718.625 822.88 L
720.482 823.039 L
722.339 823.197 L
724.196 823.355 L
726.052 823.513 L
727.909 823.671 L
729.766 823.827 L
731.623 823.984 L
733.48 824.14 L
735.337 824.295 L
737.193 824.451 L
739.05 824.605 L
740.907 824.76 L
742.764 824.914 L
744.621 825.067 L
746.478 825.22 L
748.335 825.373 L
750.191 825.525 L
752.048 825.677 L
753.905 825.828 L
755.762 825.979 L
757.619 826.129 L
759.476 826.28 L
761.332 826.429 L
763.189 826.579 L
765.046 826.728 L
766.903 826.876 L
768.76 827.024 L
770.617 827.172 L
772.473 827.32 L
774.33 827.467 L
776.187 827.613 L
778.044 827.76 L
779.901 827.905 L
781.758 828.051 L
783.614 828.196 L
785.471 828.341 L
787.328 828.485 L
789.185 828.629 L
791.042 828.773 L
792.899 828.916 L
794.755 829.059 L
796.612 829.201 L
798.469 829.344 L
800.326 829.485 L
802.183 829.627 L
804.04 829.768 L
805.896 829.909 L
807.753 830.049 L
809.61 830.189 L
811.467 830.329 L
813.324 830.468 L
815.181 830.607 L
817.038 830.746 L
818.894 830.884 L
820.751 831.022 L
822.608 831.16 L
824.465 831.297 L
826.322 831.434 L
828.179 831.57 L
830.035 831.707 L
831.892 831.843 L
833.749 831.978 L
835.606 832.114 L
837.463 832.249 L
839.32 832.383 L
841.177 832.518 L
843.033 832.652 L
844.89 832.785 L
846.747 832.919 L
848.604 833.052 L
850.461 833.185 L
852.318 833.317 L
854.174 833.449 L
856.031 833.581 L
857.888 833.712 L
859.745 833.844 L
861.602 833.974 L
863.459 834.105 L
865.315 834.235 L
867.172 834.365 L
869.029 834.495 L
870.886 834.624 L
872.743 834.753 L
874.6 834.882 L
876.456 835.011 L
878.313 835.139 L
880.17 835.267 L
882.027 835.394 L
883.884 835.522 L
885.741 835.649 L
887.597 835.776 L
889.454 835.902 L
891.311 836.028 L
893.168 836.154 L
895.025 836.28 L
896.882 836.405 L
898.738 836.53 L
900.595 836.655 L
902.452 836.779 L
904.309 836.904 L
906.166 837.028 L
908.023 837.151 L
909.88 837.275 L
911.736 837.398 L
913.593 837.521 L
915.45 837.643 L
917.307 837.765 L
919.164 837.888 L
921.021 838.009 L
922.877 838.131 L
924.734 838.252 L
926.591 838.373 L
928.448 838.494 L
930.305 838.614 L
932.162 838.735 L
934.018 838.855 L
935.875 838.974 L
937.732 839.094 L
939.589 839.213 L
941.446 839.332 L
943.303 839.451 L
945.159 839.569 L
947.016 839.687 L
948.873 839.805 L
950.73 839.923 L
952.587 840.04 L
954.444 840.158 L
956.3 840.274 L
958.157 840.391 L
960.014 840.508 L
961.871 840.624 L
963.728 840.74 L
965.585 840.856 L
967.442 840.971 L
969.298 841.086 L
971.155 841.202 L
973.012 841.316 L
974.869 841.431 L
976.726 841.545 L
978.583 841.659 L
980.439 841.773 L
982.296 841.887 L
984.153 842 L
986.01 842.113 L
987.867 842.226 L
989.724 842.339 L
991.58 842.452 L
993.437 842.564 L
995.294 842.676 L
997.151 842.788 L
999.008 842.899 L
1000.865 843.011 L
1002.721 843.122 L
1004.578 843.233 L
1006.435 843.344 L
1008.292 843.454 L
1010.149 843.565 L
1012.006 843.675 L
1013.862 843.784 L
1015.719 843.894 L
1017.576 844.004 L
1019.433 844.113 L
1021.29 844.222 L
1023.147 844.331 L
1025.004 844.439 L
1026.86 844.548 L
1028.717 844.656 L
1030.574 844.764 L
1032.431 844.871 L
1034.288 844.979 L
1036.145 845.086 L
1038.001 845.193 L
1039.858 845.3 L
1041.715 845.407 L
1043.572 845.514 L
1045.429 845.62 L
1047.286 845.726 L
1049.142 845.832 L
1050.999 845.938 L
1052.856 846.043 L
1054.713 846.149 L
1056.57 846.254 L
1058.427 846.359 L
1060.284 846.463 L
1062.14 846.568 L
1063.997 846.672 L
1065.854 846.776 L
1067.711 846.88 L
1069.568 846.984 L
1071.425 847.088 L
1073.281 847.191 L
1075.138 847.294 L
1076.995 847.397 L
1078.852 847.5 L
1080.709 847.603 L
1082.566 847.705 L
1084.422 847.807 L
1086.279 847.909 L
1088.136 848.011 L
1089.993 848.113 L
1091.85 848.215 L
1093.707 848.316 L
1095.563 848.417 L
1097.42 848.518 L
1099.277 848.619 L
1101.134 848.719 L
1102.991 848.82 L
1104.848 848.92 L
1106.704 849.02 L
1108.561 849.12 L
1110.418 849.22 L
1112.275 849.319 L
1114.132 849.419 L
1115.989 849.518 L
1117.845 849.617 L
1119.702 849.716 L
1121.559 849.814 L
1123.416 849.913 L
1125.273 850.011 L
1127.13 850.109 L
1128.987 850.207 L
1130.843 850.305 L
1132.7 850.403 L
1134.557 850.5 L
1136.414 850.597 L
1138.271 850.694 L
1140.128 850.791 L
1141.984 850.888 L
1143.841 850.985 L
1145.698 851.081 L
1147.555 851.177 L
1149.412 851.274 L
1151.269 851.37 L
1153.125 851.465 L
1154.982 851.561 L
1156.839 851.656 L
1158.696 851.752 L
1160.553 851.847 L
1162.41 851.942 L
1164.266 852.037 L
1166.123 852.131 L
1167.98 852.226 L
1169.837 852.32 L
1171.694 852.414 L
1173.551 852.508 L
1175.407 852.602 L
1177.264 852.696 L
1179.121 852.789 L
1180.978 852.883 L
1182.835 852.976 L
1184.692 853.069 L
1186.548 853.162 L
1188.405 853.255 L
1190.262 853.348 L
1192.119 853.44 L
1193.976 853.532 L
1195.833 853.625 L
1197.69 853.717 L
1199.546 853.808 L
1201.403 853.9 L
1203.26 853.992 L
1205.117 854.083 L
1206.974 854.174 L
1208.831 854.266 L
1210.687 854.356 L
1212.544 854.447 L
1214.401 854.538 L
1216.258 854.629 L
1218.115 854.719 L
1219.972 854.809 L
1221.828 854.899 L
1223.685 854.989 L
1225.542 855.079 L
1227.399 855.169 L
1229.256 855.258 L
1231.113 855.348 L
1232.97 855.437 L
1234.826 855.526 L
1236.683 855.615 L
1238.54 855.704 L
1240.397 855.792 L
1242.254 855.881 L
1244.111 855.969 L
1245.967 856.057 L
1247.824 856.146 L
1249.681 856.234 L
1251.538 856.321 L
1253.395 856.409 L
1255.252 856.497 L
1257.109 856.584 L
1258.965 856.671 L
1260.822 856.759 L
1262.679 856.846 L
1264.536 856.932 L
1266.393 857.019 L
1268.25 857.106 L
1270.106 857.192 L
1271.963 857.279 L
1273.82 857.365 L
1275.677 857.451 L
1277.534 857.537 L
1279.391 857.623 L
1281.247 857.708 L
1283.104 857.794 L
1284.961 857.879 L
1286.818 857.965 L
1288.675 858.05 L
1290.531 858.135 L
1292.388 858.22 L
1294.245 858.305 L
1296.102 858.389 L
1297.959 858.474 L
1299.816 858.558 L
1301.673 858.643 L
1303.529 858.727 L
1305.386 858.811 L
1307.243 858.895 L
1309.1 858.978 L
1310.957 859.062 L
1312.814 859.146 L
1314.67 859.229 L
1316.527 859.312 L
1318.384 859.395 L
1320.241 859.478 L
1322.098 859.561 L
1323.955 859.644 L
1325.812 859.727 L
1327.668 859.809 L
1329.525 859.892 L
1331.382 859.974 L
1333.239 860.056 L
1335.096 860.138 L
1336.953 860.22 L
1338.809 860.302 L
1340.666 860.384 L
1342.523 860.465 L
1344.38 860.547 L
1346.237 860.628 L
1348.094 860.709 L
1349.95 860.79 L
1351.807 860.871 L
1353.664 860.952 L
1355.521 861.033 L
1357.378 861.114 L
1359.234 861.194 L
1361.091 861.275 L
1362.948 861.355 L
1364.805 861.435 L
1366.662 861.515 L
1368.519 861.595 L
1370.376 861.675 L
1372.232 861.755 L
1374.089 861.834 L
1375.946 861.914 L
1377.803 861.993 L
1379.66 862.072 L
1381.517 862.152 L
1383.373 862.231 L
1385.23 862.31 L
1387.087 862.388 L
1388.944 862.467 L
1390.801 862.546 L
1392.658 862.624 L
1394.515 862.703 L
1396.371 862.781 L
1398.228 862.859 L
1400.085 862.937 L
1401.942 863.015 L
1403.799 863.093 L
1405.656 863.171 L
1407.512 863.248 L
1409.369 863.326 L
1411.226 863.403 L
1413.083 863.48 L
1414.94 863.558 L
1416.797 863.635 L
1418.653 863.712 L
1420.51 863.789 L
1422.367 863.865 L
1424.224 863.942 L
1426.081 864.019 L
1427.938 864.095 L
1429.795 864.171 L
1431.651 864.248 L
1433.508 864.324 L
1435.365 864.4 L
1437.222 864.476 L
1439.079 864.552 L
1440.936 864.627 L
1442.792 864.703 L
1444.649 864.779 L
1446.506 864.854 L
1448.363 864.929 L
1450.22 865.005 L
1452.077 865.08 L
1453.933 865.155 L
1455.79 865.23 L
1457.647 865.305 L
1459.504 865.379 L
1461.361 865.454 L
1463.218 865.528 L
1465.074 865.603 L
1466.931 865.677 L
1468.788 865.751 L
1470.645 865.826 L
1472.502 865.9 L
1474.359 865.974 L
1476.215 866.047 L
1478.072 866.121 L
1479.929 866.195 L
1481.786 866.268 L
1483.643 866.342 L
1485.5 866.415 L
1487.356 866.488 L
1489.213 866.562 L
1491.07 866.635 L
1492.927 866.708 L
1494.784 866.781 L
1496.641 866.853 L
1498.498 866.926 L
1500.354 866.999 L
1502.211 867.071 L
1504.068 867.144 L
1505.925 867.216 L
1507.782 867.288 L
1509.639 867.36 L
1511.495 867.432 L
1513.352 867.504 L
1515.209 867.576 L
1517.066 867.648 L
1518.923 867.72 L
1520.78 867.791 L
1522.636 867.863 L
1524.493 867.934 L
1526.35 868.005 L
1528.207 868.077 L
1530.064 868.148 L
1531.921 868.219 L
1533.777 868.29 L
1535.634 868.361 L
1537.491 868.431 L
1539.348 868.502 L
1541.205 868.573 L
1543.062 868.643 L
1544.918 868.714 L
1546.775 868.784 L
1548.632 868.854 L
1550.489 868.924 L
1552.346 868.994 L
1554.203 869.064 L
1556.059 869.134 L
1557.916 869.204 L
1559.773 869.274 L
1561.63 869.343 L
1563.487 869.413 L
1565.344 869.482 L
1567.201 869.552 L
1569.057 869.621 L
1570.914 869.69 L
1572.771 869.759 L
1574.628 869.828 L
1576.485 869.897 L
1578.342 869.966 L
1580.198 870.035 L
1582.055 870.104 L
1583.912 870.172 L
1585.769 870.241 L
1587.626 870.309 L
1589.483 870.377 L
1591.339 870.446 L
1593.196 870.514 L
1595.053 870.582 L
1596.91 870.65 L
1598.767 870.718 L
1600.624 870.786 L
1602.481 870.854 L
1604.337 870.921 L
1606.194 870.989 L
1608.051 871.056 L
1609.908 871.124 L
1611.765 871.191 L
1613.622 871.259 L
1615.478 871.326 L
1617.335 871.393 L
1619.192 871.46 L
1621.049 871.527 L
1622.906 871.594 L
1624.763 871.661 L
1626.619 871.727 L
1628.476 871.794 L
1630.333 871.861 L
1632.19 871.927 L
1634.047 871.993 L
1635.904 872.06 L
1637.76 872.126 L
1639.617 872.192 L
1641.474 872.258 L
1643.331 872.324 L
1645.188 872.39 L
1647.045 872.456 L
1648.901 872.522 L
1650.758 872.588 L
1652.615 872.653 L
1654.472 872.719 L
1656.329 872.784 L
1658.186 872.85 L
1660.042 872.915 L
1661.899 872.98 L
1663.756 873.046 L
1665.613 873.111 L
1667.47 873.176 L
1669.327 873.241 L
1671.184 873.305 L
1673.04 873.37 L
1674.897 873.435 L
1676.754 873.5 L
1678.611 873.564 L
1680.468 873.629 L
1682.325 873.693 L
1684.181 873.758 L
1686.038 873.822 L
1687.895 873.886 L
1689.752 873.95 L
1691.609 874.014 L
1693.466 874.078 L
1695.322 874.142 L
1697.179 874.206 L
1699.036 874.27 L
1700.893 874.333 L
1702.75 874.397 L
1704.607 874.461 L
1706.464 874.524 L
1708.32 874.587 L
1710.177 874.651 L
1712.034 874.714 L
1713.891 874.777 L
1715.748 874.84 L
1717.604 874.903 L
1719.461 874.966 L
1721.318 875.029 L
1723.175 875.092 L
1725.032 875.155 L
1726.889 875.218 L
1728.745 875.28 L
1730.602 875.343 L
1732.459 875.405 L
1734.316 875.468 L
1736.173 875.53 L
1738.03 875.592 L
1739.887 875.655 L
1741.743 875.717 L
1743.6 875.779 L
1745.457 875.841 L
1747.314 875.903 L
1749.171 875.965 L
1751.028 876.026 L
1752.885 876.088 L
1754.741 876.15 L
1756.598 876.211 L
1758.455 876.273 L
1760.312 876.334 L
1762.169 876.396 L
1764.026 876.457 L
1765.882 876.518 L
1767.739 876.58 L
1769.596 876.641 L
1771.453 876.702 L
1773.31 876.763 L
1775.167 876.824 L
1777.023 876.885 L
1778.88 876.945 L
1780.737 877.006 L
1782.594 877.067 L
1784.451 877.127 L
1786.308 877.188 L
1788.164 877.248 L
1790.021 877.309 L
1791.878 877.369 L
1793.735 877.429 L
1795.592 877.49 L
1797.449 877.55 L
1799.306 877.61 L
1801.162 877.67 L
1803.019 877.73 L
1804.876 877.79 L
1806.733 877.85 L
1808.59 877.909 L
1810.447 877.969 L
1812.303 878.029 L
1814.16 878.088 L
1816.017 878.148 L
1817.874 878.207 L
1819.731 878.267 L
1821.588 878.326 L
1823.444 878.385 L
1825.301 878.444 L
1827.158 878.503 L
1829.015 878.563 L
1830.872 878.622 L
1832.729 878.68 L
1834.585 878.739 L
1836.442 878.798 L
1838.299 878.857 L
1840.156 878.916 L
1842.013 878.974 L
1843.87 879.033 L
1845.726 879.091 L
1847.583 879.15 L
1849.44 879.208 L
1851.297 879.267 L
1853.154 879.325 L
1855.011 879.383 L
1856.867 879.441 L
1858.724 879.499 L
1860.581 879.557 L
1862.438 879.615 L
1864.295 879.673 L
1866.152 879.731 L
1868.008 879.789 L
1869.865 879.846 L
1871.722 879.904 L
1873.579 879.962 L
1875.436 880.019 L
1877.293 880.077 L
1879.15 880.134 L
1881.006 880.192 L
1882.863 880.249 L
1884.72 880.306 L
1886.577 880.363 L
1888.434 880.421 L
1890.291 880.478 L
1892.147 880.535 L
1894.004 880.592 L
1895.861 880.649 L
1897.718 880.705 L
1899.575 880.762 L
1901.432 880.819 L
1903.288 880.876 L
1905.145 880.932 L
1907.002 880.989 L
1908.859 881.045 L
1910.716 881.102 L
1912.573 881.158 L
1914.429 881.215 L
1916.286 881.271 L
1918.143 881.327 L
1920 881.383 L
S
GR
GS
[0.75 0 0 0.75 0 -0.25] CT
1 GC
N
1909 150 M
1909 49 L
1608 49 L
1608 150 L
cp
f
GR
GS
[0.75 0 0 0.75 1241.25 50] CT
/Helvetica 26.667 F
GS
[1 0 0 1 0 0] CT
0 9 moveto 
1 -1 scale
(Transient upper error) t 
GR
GR
GS
[0.75 0 0 0.75 0 -0.25] CT
0 0.447 0.741 RC
1 LJ
2.667 LW
N
1612 67 M
1652 67 L
S
GR
GS
[0.75 0 0 0.75 1241.25 74.375] CT
/Helvetica 26.667 F
GS
[1 0 0 1 0 0] CT
0 9 moveto 
1 -1 scale
(Transient lower error) t 
GR
GR
GS
[0.75 0 0 0.75 0 -0.25] CT
0.851 0.325 0.098 RC
1 LJ
2.667 LW
N
1612 99.5 M
1652 99.5 L
S
GR
GS
[0.75 0 0 0.75 1241.25 98.75] CT
/Helvetica 26.667 F
GS
[1 0 0 1 0 0] CT
0 9 moveto 
1 -1 scale
(Steady state error) t 
GR
GR
GS
[0.75 0 0 0.75 0 -0.25] CT
0.929 0.694 0.125 RC
1 LJ
2.667 LW
N
1612 132 M
1652 132 L
S
GR
GS
[0.75 0 0 0.75 0 -0.25] CT
0.149 GC
10.0 ML
0.667 LW
N
1608 150 M
1608 49 L
1909 49 L
1909 150 L
cp
S
GR
%%Trailer
%%Pages: 1
%%EOF
