23782
23782
23782
23783
23783
23784
23784
23784
23785
23785
23785
23786
23786
23787
23787
23787
23788
23788
23788
23789
23789
23790
23790
23790
23791
23791
23791
23792
23792
23793
23793
23793
23794
23794
23794
23795
23795
23796
23796
23796
23797
23797
23797
23798
23798
23799
23799
23799
23800
23800
23800
23801
23801
23802
23802
23802
23803
23803
23803
23804
23804
23805
23805
23805
23806
23806
23806
23807
23807
23808
23808
23808
23809
23809
23809
23810
23810
23811
23811
23811
23812
23812
23812
23813
23813
23814
23814
23814
23815
23815
23815
23816
23816
23817
23817
23817
23818
23818
23818
23819
23819
23820
23820
23820
23821
23821
23821
23822
23822
23823
23823
23823
23824
23824
23824
23825
23825
23826
23826
23826
23827
23827
23827
23828
23828
23829
23829
23829
23830
23830
23830
23831
23831
23832
23832
23832
23833
23833
23833
23834
23834
23835
23835
23835
23836
23836
23836
23837
23837
23838
23838
23838
23839
23839
23839
23840
23840
23841
23841
23841
23842
23842
23842
23843
23843
23844
23844
23844
23845
23845
23845
23846
23846
23847
23847
23847
23848
23848
23848
23849
23849
23850
23850
23850
23851
23851
23851
23852
23852
23853
23853
23853
23854
23854
23854
23855
23855
23856
23856
23856
23857
23857
23857
23858
23858
23859
23859
23859
23860
23860
23860
23861
23861
23862
23862
23862
23863
23863
23863
23864
23864
23865
23865
23865
23866
23866
23866
23867
23867
23868
23868
23868
23869
23869
23869
23870
23870
23871
23871
23871
23872
23872
23872
23873
23873
23874
23874
23874
23875
23875
23875
23876
23876
23877
23877
23877
23878
23878
23878
23879
23879
23880
23880
23880
23881
23881
23881
23882
23882
23883
23883
23883
23884
23884
23884
23885
23885
23886
23886
23886
23887
23887
23887
23888
23888
23889
23889
23889
23890
23890
23890
23891
23891
23892
23892
23892
23893
23893
23893
23894
23894
23895
23895
23895
23896
23896
23896
23897
23897
23898
23898
23898
23899
23899
23899
23900
23900
23901
23901
23901
23902
23902
23902
23903
23903
23904
23904
23904
23905
23905
23905
23906
23906
23907
23907
23907
23908
23908
23908
23909
23909
23910
23910
23910
23911
23911
23911
23912
23912
23913
23913
23913
23914
23914
23914
23915
23915
23916
23916
23916
23917
23917
23917
23918
23918
23919
23919
23919
23920
23920
23920
23921
23921
23922
23922
23922
23923
23923
23923
23924
23924
23925
23925
23925
23926
23926
23926
23927
23927
23928
23928
23928
23929
23929
23929
23930
23930
23931
23931
23931
23932
23932
23932
23933
23933
23934
23934
23934
23935
23935
23935
23936
23936
23937
23937
23937
23938
23938
23938
23939
23939
23939
23940
23940
23941
23941
23941
23942
23942
23942
23943
23943
23944
23944
23944
23945
23945
23945
23946
23946
23947
23947
23947
23948
23948
23948
23949
23949
23950
23950
23950
23951
23951
23951
23952
23952
23953
23953
23953
23954
23954
23954
23955
23955
23956
23956
23956
23957
23957
23957
23958
23958
23959
23959
23959
23960
23960
23960
23961
23961
23962
23962
23962
23963
23963
23963
23964
23964
23965
23965
23965
23966
23966
23966
23967
23967
23968
23968
23968
23969
23969
23969
23970
23970
23971
23971
23971
23972
23972
23972
23973
23973
23974
23974
23974
23975
23975
23975
23976
23976
23977
23977
23977
23978
23978
23978
23979
23979
23980
23980
23980
23981
23981
23981
23982
23982
23983
23983
23983
23984
23984
23984
23985
23985
23986
23986
23986
23987
23987
23987
23988
23988
23989
23989
23989
23990
23990
23990
23991
23991
23992
23992
23992
23993
23993
23993
23994
23994
23995
23995
23995
23996
23996
23996
23997
23997
23998
23998
23998
23999
23999
23999
24000
24000
24001
24001
24001
24002
24002
24002
24003
24003
24004
24004
24004
24005
24005
24005
24006
24006
24007
24007
24007
24008
24008
24008
24009
24009
24010
24010
24010
24011
24011
24011
24012
24012
24013
24013
24013
24014
24014
24014
24015
24015
24016
24016
24016
24017
24017
24017
24018
24018
24019
24019
24019
24020
24020
24020
24021
24021
24022
24022
24022
24023
24023
24023
24024
24024
24025
24025
24025
24026
24026
24026
24027
24027
24028
24028
24028
24029
24029
24029
24030
24030
24031
24031
24031
24032
24032
24032
24033
24033
24034
24034
24034
24035
24035
24035
24036
24036
24037
24037
24037
24038
24038
24038
24039
24039
24040
24040
24040
24041
24041
24041
24042
24042
24043
24043
24043
24044
24044
24044
24045
24045
24046
24046
24046
24047
24047
24047
24048
24048
24049
24049
24049
24050
24050
24050
24051
24051
24052
24052
24052
24053
24053
24053
24054
24054
24055
24055
24055
24056
24056
24056
24057
24057
24058
24058
24058
24059
24059
24059
24060
24060
24061
24061
24061
24062
24062
24062
24063
24063
24064
24064
24064
24065
24065
24065
24066
24066
24067
24067
24067
24068
24068
24068
24069
24069
24070
24070
24070
24071
24071
24071
24072
24072
24073
24073
24073
24074
24074
24074
24075
24075
24076
24076
24076
24077
24077
24077
24078
24078
24079
24079
24079
24080
24080
24080
24081
24081
24082
24082
24082
24083
24083
24083
24084
24084
24085
24085
24085
24086
24086
24086
24087
24087
24088
24088
24088
24089
24089
24089
24090
24090
24091
24091
24091
24092
24092
24092
24093
24093
24094
24094
24094
24095
24095
24095
24096
24096
24097
24097
24097
24098
24098
24098
24099
24099
24100
24100
24100
24101
24101
24101
24102
24102
24103
24103
24103
24104
24104
24104
24105
24105
24106
24106
24106
24107
24107
24107
24108
24108
24109
24109
24109
24110
24110
24110
24111
24111
24112
24112
24112
24113
24113
24113
24114
24114
24115
24115
24115
24116
24116
24116
24117
24117
24118
24118
24118
24119
24119
24119
24120
24120
24121
24121
24121
24122
24122
24122
24123
24123
24124
24124
24124
24125
24125
24125
24126
24126
24127
24127
24127
24128
24128
24128
24129
24129
24130
24130
24130
24131
24131
24131
24132
24132
24133
24133
24133
24134
24134
24134
24135
24135
24136
24136
24136
24137
24137
24137
24138
24138
24139
24139
24139
24140
24140
24140
24141
24141
24142
24142
24142
24143
24143
24143
24144
24144
24145
24145
24145
24146
24146
24146
24147
24147
24148
24148
24148
24149
24149
24149
24150
24150
24151
24151
24151
24152
24152
24152
24153
24153
24153
24154
24154
24155
24155
24155
24156
24156
24156
24157
24157
24158
24158
24158
24159
24159
24159
24160
24160
24161
24161
24161
24162
24162
24162
24163
24163
24164
24164
24164
24165
24165
24165
24166
24166
24167
24167
24167
24168
24168
24168
24169
24169
24170
24170
24170
24171
24171
24171
24172
24172
24173
24173
24173
24174
24174
24174
24175
24175
24176
24176
24176
24177
24177
24177
24178
24178
24179
24179
24179
24180
24180
24180
24181
24181
24182
24182
24182
24183
24183
24183
24184
24184
24185
24185
24185
24186
24186
24186
24187
24187
24188
24188
24188
24189
24189
24189
24190
24190
24191
24191
24191
24192
24192
24192
24193
24193
24194
24194
24194
24195
24195
24195
24196
24196
24197
24197
24197
24198
24198
24198
24199
24199
24200
24200
24200
24201
24201
24201
24202
24202
24203
24203
24203
24204
24204
24204
24205
24205
24206
24206
24206
24207
24207
24207
24208
24208
24209
24209
24209
24210
24210
24210
24211
24211
24212
24212
24212
24213
24213
24213
24214
24214
24215
24215
24215
24216
24216
24216
24217
24217
24218
24218
24218
24219
24219
24219
24220
24220
24221
24221
24221
24222
24222
24222
24223
24223
24224
24224
24224
24225
24225
24225
24226
24226
24227
24227
24227
24228
24228
24228
24229
24229
24230
24230
24230
24231
24231
24231
24232
24232
24233
24233
24233
24234
24234
24234
24235
24235
24236
24236
24236
24237
24237
24237
24238
24238
24239
24239
24239
24240
24240
24240
24241
24241
24242
24242
24242
24243
24243
24243
24244
24244
24245
24245
24245
24246
24246
24246
24247
24247
24248
24248
24248
24249
24249
24249
24250
24250
24251
24251
24251
24252
24252
24252
24253
24253
24254
24254
24254
24255
24255
24255
24256
24256
24257
24257
24257
24258
24258
24258
24259
24259
24260
24260
24260
24261
24261
24261
24262
24262
24263
24263
24263
24264
24264
24264
24265
24265
24266
24266
24266
24267
24267
24267
24268
24268
24269
24269
24269
24270
24270
24270
24271
24271
24272
24272
24272
24273
24273
24273
24274
24274
24275
24275
24275
24276
24276
24276
24277
24277
24278
24278
24278
24279
24279
24279
24280
24280
24281
24281
24281
24282
24282
24282
24283
24283
24284
24284
24284
24285
24285
24285
24286
24286
24287
24287
24287
24288
24288
24288
24289
24289
24290
24290
24290
24291
24291
24291
24292
24292
24293
24293
24293
24294
24294
24294
24295
24295
24296
24296
24296
24297
24297
24297
24298
24298
24299
24299
24299
24300
24300
24300
24301
24301
24302
24302
24302
24303
24303
24303
24304
24304
24305
24305
24305
24306
24306
24306
24307
24307
24308
24308
24308
24309
24309
24309
24310
24310
24311
24311
24311
24312
24312
24312
24313
24313
24314
24314
24314
24315
24315
24315
24316
24316
24317
24317
24317
24318
24318
24318
24319
24319
24320
24320
24320
24321
24321
24321
24322
24322
24323
24323
24323
24324
24324
24324
24325
24325
24326
24326
24326
24327
24327
24327
24328
24328
24329
24329
24329
24330
24330
24330
24331
24331
24332
24332
24332
24333
24333
24333
24334
24334
24335
24335
24335
24336
24336
24336
24337
24337
24338
24338
24338
24339
24339
24339
24340
24340
24341
24341
24341
24342
24342
24342
24343
24343
24344
24344
24344
24345
24345
24345
24346
24346
24347
24347
24347
24348
24348
24348
24349
24349
24350
24350
24350
24351
24351
24351
24352
24352
24353
24353
24353
24354
24354
24354
24355
24355
24356
24356
24356
24357
24357
24357
24358
24358
24359
24359
24359
24360
24360
24360
24361
24361
24362
24362
24362
24363
24363
24363
24364
24364
24365
24365
24365
24366
24366
24366
24367
24367
24367
24368
24368
24369
24369
24369
24370
24370
24370
24371
24371
24372
24372
24372
24373
24373
24373
24374
24374
24375
24375
24375
24376
24376
24376
24377
24377
24378
24378
24378
24379
24379
24379
24380
24380
24381
24381
24381
24382
24382
24382
24383
24383
24384
24384
24384
24385
24385
24385
24386
24386
24387
24387
24387
24388
24388
24388
24389
24389
24390
24390
24390
24391
24391
24391
24392
24392
24393
24393
24393
24394
24394
24394
24395
24395
24396
24396
24396
24397
24397
24397
24398
24398
24399
24399
24399
24400
24400
24400
24401
24401
24402
24402
24402
24403
24403
24403
24404
24404
24405
24405
24405
24406
24406
24406
24407
24407
24408
24408
24408
24409
24409
24409
24410
24410
24411
24411
24411
24412
24412
24412
24413
24413
24414
24414
24414
24415
24415
24415
24416
24416
24417
24417
24417
24418
24418
24418
24419
24419
24420
24420
24420
24421
24421
24421
24422
24422
24423
24423
24423
24424
24424
24424
24425
24425
24426
24426
24426
24427
24427
24427
24428
24428
24429
24429
24429
24430
24430
24430
24431
24431
24432
24432
24432
24433
24433
24433
24434
24434
24435
24435
24435
24436
24436
24436
24437
24437
24438
24438
24438
24439
24439
24439
24440
24440
24441
24441
24441
24442
24442
24442
24443
24443
24444
24444
24444
24445
24445
24445
24446
24446
24447
24447
24447
24448
24448
24448
24449
24449
24450
24450
24450
24451
24451
24451
24452
24452
24453
24453
24453
24454
24454
24454
24455
24455
24456
24456
24456
24457
24457
24457
24458
24458
24459
24459
24459
24460
24460
24460
24461
24461
24462
24462
24462
24463
24463
24463
24464
24464
24465
24465
24465
24466
24466
24466
24467
24467
24468
24468
24468
24469
24469
24469
24470
24470
24471
24471
24471
24472
24472
24472
24473
24473
24474
24474
24474
24475
24475
24475
24476
24476
24477
24477
24477
24478
24478
24478
24479
24479
24480
24480
24480
24481
24481
24481
24482
24482
24483
24483
24483
24484
24484
24484
24485
24485
24486
24486
24486
24487
24487
24487
24488
24488
24489
24489
24489
24490
24490
24490
24491
24491
24492
24492
24492
24493
24493
24493
24494
24494
24495
24495
24495
24496
24496
24496
24497
24497
24498
24498
24498
24499
24499
24499
24500
24500
24501
24501
24501
24502
24502
24502
24503
24503
24504
24504
24504
24505
24505
24505
24506
24506
24507
24507
24507
24508
24508
24508
24509
24509
24510
24510
24510
24511
24511
24511
24512
24512
24513
24513
24513
24514
24514
24514
24515
24515
24516
24516
24516
24517
24517
24517
24518
24518
24519
24519
24519
24520
24520
24520
24521
24521
24522
24522
24522
24523
24523
24523
24524
24524
24525
24525
24525
24526
24526
24526
24527
24527
24528
24528
24528
24529
24529
24529
24530
24530
24531
24531
24531
24532
24532
24532
24533
24533
24534
24534
24534
24535
24535
24535
24536
24536
24537
24537
24537
24538
24538
24538
24539
24539
24540
24540
24540
24541
24541
24541
24542
24542
24543
24543
24543
24544
24544
24544
24545
24545
24546
24546
24546
24547
24547
24547
24548
24548
24549
24549
24549
24550
24550
24550
24551
24551
24552
24552
24552
24553
24553
24553
24554
24554
24555
24555
24555
24556
24556
24556
24557
24557
24558
24558
24558
24559
24559
24559
24560
24560
24561
24561
24561
24562
24562
24562
24563
24563
24564
24564
24564
24565
24565
24565
24566
24566
24567
24567
24567
24568
24568
24568
24569
24569
24570
24570
24570
24571
24571
24571
24572
24572
24573
24573
24573
24574
24574
24574
24575
24575
24576
24576
24576
24577
24577
24577
24578
24578
24579
24579
24579
24580
24580
24580
24581
24581
24581
24582
24582
24583
24583
24583
24584
24584
24584
24585
24585
24586
24586
24586
24587
24587
24587
24588
24588
24589
24589
24589
24590
24590
24590
24591
24591
24592
24592
24592
24593
24593
24593
24594
24594
24595
24595
24595
24596
24596
24596
24597
24597
24598
24598
24598
24599
24599
24599
24600
24600
24601
24601
24601
24602
24602
24602
24603
24603
24604
24604
24604
24605
24605
24605
24606
24606
24607
24607
24607
24608
24608
24608
24609
24609
24610
24610
24610
24611
24611
24611
24612
24612
24613
24613
24613
24614
24614
24614
24615
24615
24616
24616
24616
24617
24617
24617
24618
24618
24619
24619
24619
24620
24620
24620
24621
24621
24622
24622
24622
24623
24623
24623
24624
24624
24625
24625
24625
24626
24626
24626
24627
24627
24628
24628
24628
24629
24629
24629
24630
24630
24631
24631
24631
24632
24632
24632
24633
24633
24634
24634
24634
24635
24635
24635
24636
24636
24637
24637
24637
24638
24638
24638
24639
24639
24640
24640
24640
24641
24641
24641
24642
24642
24643
24643
24643
24644
24644
24644
24645
24645
24646
24646
24646
24647
24647
24647
24648
24648
24649
24649
24649
24650
24650
24650
24651
24651
24652
24652
24652
24653
24653
24653
24654
24654
24655
24655
24655
24656
24656
24656
24657
24657
24658
24658
24658
24659
24659
24659
24660
24660
24661
24661
24661
24662
24662
24662
24663
24663
24664
24664
24664
24665
24665
24665
24666
24666
24667
24667
24667
24668
24668
24668
24669
24669
24670
24670
24670
24671
24671
24671
24672
24672
24673
24673
24673
24674
24674
24674
24675
24675
24676
24676
24676
24677
24677
24677
24678
24678
24679
24679
24679
24680
24680
24680
24681
24681
24682
24682
24682
24683
24683
24683
24684
24684
24685
24685
24685
24686
24686
24686
24687
24687
24688
24688
24688
24689
24689
24689
24690
24690
24691
24691
24691
24692
24692
24692
24693
24693
24694
24694
24694
24695
24695
24695
24696
24696
24697
24697
24697
24698
24698
24698
24699
24699
24700
24700
24700
24701
24701
24701
24702
24702
24703
24703
24703
24704
24704
24704
24705
24705
24706
24706
24706
24707
24707
24707
24708
24708
24709
24709
24709
24710
24710
24710
24711
24711
24712
24712
24712
24713
24713
24713
24714
24714
24715
24715
24715
24716
24716
24716
24717
24717
24718
24718
24718
24719
24719
24719
24720
24720
24721
24721
24721
24722
24722
24722
24723
24723
24724
24724
24724
24725
24725
24725
24726
24726
24727
24727
24727
24728
24728
24728
24729
24729
24730
24730
24730
24731
24731
24731
24732
24732
24733
24733
24733
24734
24734
24734
24735
24735
24736
24736
24736
24737
24737
24737
24738
24738
24739
24739
24739
24740
24740
24740
24741
24741
24742
24742
24742
24743
24743
24743
24744
24744
24745
24745
24745
24746
24746
24746
24747
24747
24748
24748
24748
24749
24749
24749
24750
24750
24751
24751
24751
24752
24752
24752
24753
24753
24754
24754
24754
24755
24755
24755
24756
24756
24757
24757
24757
24758
24758
24758
24759
24759
24760
24760
24760
24761
24761
24761
24762
24762
24763
24763
24763
24764
24764
24764
24765
24765
24766
24766
24766
24767
24767
24767
24768
24768
24769
24769
24769
24770
24770
24770
24771
24771
24772
24772
24772
24773
24773
24773
24774
24774
24775
24775
24775
24776
24776
24776
24777
24777
24778
24778
24778
24779
24779
24779
24780
24780
24781
24781
24781
24782
24782
24782
24783
24783
24784
24784
24784
24785
24785
24785
24786
24786
24787
24787
24787
24788
24788
24788
24789
24789
24790
24790
24790
24791
24791
24791
24792
24792
24793
24793
24793
24794
24794
24794
24795
24795
24795
24796
24796
24797
24797
24797
24798
24798
24798
24799
24799
24800
24800
24800
24801
24801
24801
24802
24802
24803
24803
24803
24804
24804
24804
24805
24805
24806
24806
24806
24807
24807
24807
24808
24808
24809
24809
24809
24810
24810
24810
24811
24811
24812
24812
24812
24813
24813
24813
24814
24814
24815
24815
24815
24816
24816
24816
24817
24817
24818
24818
24818
24819
24819
24819
24820
24820
24821
24821
24821
24822
24822
24822
24823
24823
24824
24824
24824
24825
24825
24825
24826
24826
24827
24827
24827
24828
24828
24828
24829
24829
24830
24830
24830
24831
24831
24831
24832
24832
24833
24833
24833
24834
24834
24834
24835
24835
24836
24836
24836
24837
24837
24837
24838
24838
24839
24839
24839
24840
24840
24840
24841
24841
24842
24842
24842
24843
24843
24843
24844
24844
24845
24845
24845
24846
24846
24846
24847
24847
24848
24848
24848
24849
24849
24849
24850
24850
24851
24851
24851
24852
24852
24852
24853
24853
24854
24854
24854
24855
24855
24855
24856
24856
24857
24857
24857
24858
24858
24858
24859
24859
24860
24860
24860
24861
24861
24861
24862
24862
24863
24863
24863
24864
24864
24864
24865
24865
24866
24866
24866
24867
24867
24867
24868
24868
24869
24869
24869
24870
24870
24870
24871
24871
24872
24872
24872
24873
24873
24873
24874
24874
24875
24875
24875
24876
24876
24876
24877
24877
24878
24878
24878
24879
24879
24879
24880
24880
24881
24881
24881
24882
24882
24882
24883
24883
24884
24884
24884
24885
24885
24885
24886
24886
24887
24887
24887
24888
24888
24888
24889
24889
24890
24890
24890
24891
24891
24891
24892
24892
24893
24893
24893
24894
24894
24894
24895
24895
24896
24896
24896
24897
24897
24897
24898
24898
24899
24899
24899
24900
24900
24900
24901
24901
24902
24902
24902
24903
24903
24903
24904
24904
24905
24905
24905
24906
