%!PS-Adobe-3.0 EPSF-3.0
%%Creator: (MATLAB, The Mathworks, Inc. Version 9.13.0.2166757 \(R2022b\) Update 4. Operating System: Linux)
%%Title: ./negative.eps
%%CreationDate: 2023-05-02T00:05:29
%%Pages: (atend)
%%BoundingBox:     2     5  1439   807
%%LanguageLevel: 3
%%EndComments
%%BeginProlog
%%BeginResource: procset (Apache XML Graphics Std ProcSet) 1.2 0
%%Version: 1.2 0
%%Copyright: (Copyright 2001-2003,2010 The Apache Software Foundation. License terms: http://www.apache.org/licenses/LICENSE-2.0)
/bd{bind def}bind def
/ld{load def}bd
/GR/grestore ld
/GS/gsave ld
/RM/rmoveto ld
/C/curveto ld
/t/show ld
/L/lineto ld
/ML/setmiterlimit ld
/CT/concat ld
/f/fill ld
/N/newpath ld
/S/stroke ld
/CC/setcmykcolor ld
/A/ashow ld
/cp/closepath ld
/RC/setrgbcolor ld
/LJ/setlinejoin ld
/GC/setgray ld
/LW/setlinewidth ld
/M/moveto ld
/re {4 2 roll M
1 index 0 rlineto
0 exch rlineto
neg 0 rlineto
cp } bd
/_ctm matrix def
/_tm matrix def
/BT { _ctm currentmatrix pop matrix _tm copy pop 0 0 moveto } bd
/ET { _ctm setmatrix } bd
/iTm { _ctm setmatrix _tm concat } bd
/Tm { _tm astore pop iTm 0 0 moveto } bd
/ux 0.0 def
/uy 0.0 def
/F {
  /Tp exch def
  /Tf exch def
  Tf findfont Tp scalefont setfont
  /cf Tf def  /cs Tp def
} bd
/ULS {currentpoint /uy exch def /ux exch def} bd
/ULE {
  /Tcx currentpoint pop def
  gsave
  newpath
  cf findfont cs scalefont dup
  /FontMatrix get 0 get /Ts exch def /FontInfo get dup
  /UnderlinePosition get Ts mul /To exch def
  /UnderlineThickness get Ts mul /Tt exch def
  ux uy To add moveto  Tcx uy To add lineto
  Tt setlinewidth stroke
  grestore
} bd
/OLE {
  /Tcx currentpoint pop def
  gsave
  newpath
  cf findfont cs scalefont dup
  /FontMatrix get 0 get /Ts exch def /FontInfo get dup
  /UnderlinePosition get Ts mul /To exch def
  /UnderlineThickness get Ts mul /Tt exch def
  ux uy To add cs add moveto Tcx uy To add cs add lineto
  Tt setlinewidth stroke
  grestore
} bd
/SOE {
  /Tcx currentpoint pop def
  gsave
  newpath
  cf findfont cs scalefont dup
  /FontMatrix get 0 get /Ts exch def /FontInfo get dup
  /UnderlinePosition get Ts mul /To exch def
  /UnderlineThickness get Ts mul /Tt exch def
  ux uy To add cs 10 mul 26 idiv add moveto Tcx uy To add cs 10 mul 26 idiv add lineto
  Tt setlinewidth stroke
  grestore
} bd
/QT {
/Y22 exch store
/X22 exch store
/Y21 exch store
/X21 exch store
currentpoint
/Y21 load 2 mul add 3 div exch
/X21 load 2 mul add 3 div exch
/X21 load 2 mul /X22 load add 3 div
/Y21 load 2 mul /Y22 load add 3 div
/X22 load /Y22 load curveto
} bd
/SSPD {
dup length /d exch dict def
{
/v exch def
/k exch def
currentpagedevice k known {
/cpdv currentpagedevice k get def
v cpdv ne {
/upd false def
/nullv v type /nulltype eq def
/nullcpdv cpdv type /nulltype eq def
nullv nullcpdv or
{
/upd true def
} {
/sametype v type cpdv type eq def
sametype {
v type /arraytype eq {
/vlen v length def
/cpdvlen cpdv length def
vlen cpdvlen eq {
0 1 vlen 1 sub {
/i exch def
/obj v i get def
/cpdobj cpdv i get def
obj cpdobj ne {
/upd true def
exit
} if
} for
} {
/upd true def
} ifelse
} {
v type /dicttype eq {
v {
/dv exch def
/dk exch def
/cpddv cpdv dk get def
dv cpddv ne {
/upd true def
exit
} if
} forall
} {
/upd true def
} ifelse
} ifelse
} if
} ifelse
upd true eq {
d k v put
} if
} if
} if
} forall
d length 0 gt {
d setpagedevice
} if
} bd
/RE { % /NewFontName [NewEncodingArray] /FontName RE -
  findfont dup length dict begin
  {
    1 index /FID ne
    {def} {pop pop} ifelse
  } forall
  /Encoding exch def
  /FontName 1 index def
  currentdict definefont pop
  end
} bind def
%%EndResource
%%BeginResource: procset (Apache XML Graphics EPS ProcSet) 1.0 0
%%Version: 1.0 0
%%Copyright: (Copyright 2002-2003 The Apache Software Foundation. License terms: http://www.apache.org/licenses/LICENSE-2.0)
/BeginEPSF { %def
/b4_Inc_state save def         % Save state for cleanup
/dict_count countdictstack def % Count objects on dict stack
/op_count count 1 sub def      % Count objects on operand stack
userdict begin                 % Push userdict on dict stack
/showpage { } def              % Redefine showpage, { } = null proc
0 setgray 0 setlinecap         % Prepare graphics state
1 setlinewidth 0 setlinejoin
10 setmiterlimit [ ] 0 setdash newpath
/languagelevel where           % If level not equal to 1 then
{pop languagelevel             % set strokeadjust and
1 ne                           % overprint to their defaults.
{false setstrokeadjust false setoverprint
} if
} if
} bd
/EndEPSF { %def
count op_count sub {pop} repeat            % Clean up stacks
countdictstack dict_count sub {end} repeat
b4_Inc_state restore
} bd
%%EndResource
%FOPBeginFontDict
%%IncludeResource: font Courier-Oblique
%%IncludeResource: font Courier-BoldOblique
%%IncludeResource: font Courier-Bold
%%IncludeResource: font ZapfDingbats
%%IncludeResource: font Symbol
%%IncludeResource: font Helvetica
%%IncludeResource: font Helvetica-Oblique
%%IncludeResource: font Helvetica-Bold
%%IncludeResource: font Helvetica-BoldOblique
%%IncludeResource: font Times-Roman
%%IncludeResource: font Times-Italic
%%IncludeResource: font Times-Bold
%%IncludeResource: font Times-BoldItalic
%%IncludeResource: font Courier
%FOPEndFontDict
%%BeginResource: encoding WinAnsiEncoding
/WinAnsiEncoding [
/.notdef /.notdef /.notdef /.notdef /.notdef
/.notdef /.notdef /.notdef /.notdef /.notdef
/.notdef /.notdef /.notdef /.notdef /.notdef
/.notdef /.notdef /.notdef /.notdef /.notdef
/.notdef /.notdef /.notdef /.notdef /.notdef
/.notdef /.notdef /.notdef /.notdef /.notdef
/.notdef /.notdef /space /exclam /quotedbl
/numbersign /dollar /percent /ampersand /quotesingle
/parenleft /parenright /asterisk /plus /comma
/hyphen /period /slash /zero /one
/two /three /four /five /six
/seven /eight /nine /colon /semicolon
/less /equal /greater /question /at
/A /B /C /D /E
/F /G /H /I /J
/K /L /M /N /O
/P /Q /R /S /T
/U /V /W /X /Y
/Z /bracketleft /backslash /bracketright /asciicircum
/underscore /quoteleft /a /b /c
/d /e /f /g /h
/i /j /k /l /m
/n /o /p /q /r
/s /t /u /v /w
/x /y /z /braceleft /bar
/braceright /asciitilde /bullet /Euro /bullet
/quotesinglbase /florin /quotedblbase /ellipsis /dagger
/daggerdbl /circumflex /perthousand /Scaron /guilsinglleft
/OE /bullet /Zcaron /bullet /bullet
/quoteleft /quoteright /quotedblleft /quotedblright /bullet
/endash /emdash /asciitilde /trademark /scaron
/guilsinglright /oe /bullet /zcaron /Ydieresis
/space /exclamdown /cent /sterling /currency
/yen /brokenbar /section /dieresis /copyright
/ordfeminine /guillemotleft /logicalnot /sfthyphen /registered
/macron /degree /plusminus /twosuperior /threesuperior
/acute /mu /paragraph /middot /cedilla
/onesuperior /ordmasculine /guillemotright /onequarter /onehalf
/threequarters /questiondown /Agrave /Aacute /Acircumflex
/Atilde /Adieresis /Aring /AE /Ccedilla
/Egrave /Eacute /Ecircumflex /Edieresis /Igrave
/Iacute /Icircumflex /Idieresis /Eth /Ntilde
/Ograve /Oacute /Ocircumflex /Otilde /Odieresis
/multiply /Oslash /Ugrave /Uacute /Ucircumflex
/Udieresis /Yacute /Thorn /germandbls /agrave
/aacute /acircumflex /atilde /adieresis /aring
/ae /ccedilla /egrave /eacute /ecircumflex
/edieresis /igrave /iacute /icircumflex /idieresis
/eth /ntilde /ograve /oacute /ocircumflex
/otilde /odieresis /divide /oslash /ugrave
/uacute /ucircumflex /udieresis /yacute /thorn
/ydieresis
] def
%%EndResource
%FOPBeginFontReencode
/Courier-Oblique findfont
dup length dict begin
  {1 index /FID ne {def} {pop pop} ifelse} forall
  /Encoding WinAnsiEncoding def
  currentdict
end
/Courier-Oblique exch definefont pop
/Courier-BoldOblique findfont
dup length dict begin
  {1 index /FID ne {def} {pop pop} ifelse} forall
  /Encoding WinAnsiEncoding def
  currentdict
end
/Courier-BoldOblique exch definefont pop
/Courier-Bold findfont
dup length dict begin
  {1 index /FID ne {def} {pop pop} ifelse} forall
  /Encoding WinAnsiEncoding def
  currentdict
end
/Courier-Bold exch definefont pop
/Helvetica findfont
dup length dict begin
  {1 index /FID ne {def} {pop pop} ifelse} forall
  /Encoding WinAnsiEncoding def
  currentdict
end
/Helvetica exch definefont pop
/Helvetica-Oblique findfont
dup length dict begin
  {1 index /FID ne {def} {pop pop} ifelse} forall
  /Encoding WinAnsiEncoding def
  currentdict
end
/Helvetica-Oblique exch definefont pop
/Helvetica-Bold findfont
dup length dict begin
  {1 index /FID ne {def} {pop pop} ifelse} forall
  /Encoding WinAnsiEncoding def
  currentdict
end
/Helvetica-Bold exch definefont pop
/Helvetica-BoldOblique findfont
dup length dict begin
  {1 index /FID ne {def} {pop pop} ifelse} forall
  /Encoding WinAnsiEncoding def
  currentdict
end
/Helvetica-BoldOblique exch definefont pop
/Times-Roman findfont
dup length dict begin
  {1 index /FID ne {def} {pop pop} ifelse} forall
  /Encoding WinAnsiEncoding def
  currentdict
end
/Times-Roman exch definefont pop
/Times-Italic findfont
dup length dict begin
  {1 index /FID ne {def} {pop pop} ifelse} forall
  /Encoding WinAnsiEncoding def
  currentdict
end
/Times-Italic exch definefont pop
/Times-Bold findfont
dup length dict begin
  {1 index /FID ne {def} {pop pop} ifelse} forall
  /Encoding WinAnsiEncoding def
  currentdict
end
/Times-Bold exch definefont pop
/Times-BoldItalic findfont
dup length dict begin
  {1 index /FID ne {def} {pop pop} ifelse} forall
  /Encoding WinAnsiEncoding def
  currentdict
end
/Times-BoldItalic exch definefont pop
/Courier findfont
dup length dict begin
  {1 index /FID ne {def} {pop pop} ifelse} forall
  /Encoding WinAnsiEncoding def
  currentdict
end
/Courier exch definefont pop
%FOPEndFontReencode
%%EndProlog
%%Page: 1 1
%%PageBoundingBox: 0 0 1440 810
%%BeginPageSetup
N
    2     5 M
 1441     5 L
 1441   812 L
    2   812 L
cp
clip
[1 0 0 -1 0 810] CT
%%EndPageSetup
GS
[0.75 0 0 0.75 0 0] CT
1 GC
N
0 0 1920 1080 re
f
GR
GS
[0.75 0 0 0.75 0 0] CT
1 GC
N
0 0 1920 1080 re
f
GR
GS
[0.75 0 0 0.75 0 0] CT
1 GC
N
68 1024 M
1905 1024 L
1905 39 L
68 39 L
cp
f
GR
GS
[0.75 0 0 0.75 0 0] CT
0.149 GC
2 setlinecap
1 LJ
0.667 LW
N
68 1024 M
1905 1024 L
S
GR
GS
[0.75 0 0 0.75 0 0] CT
0.149 GC
2 setlinecap
1 LJ
0.667 LW
N
68 1024 M
68 1005.63 L
S
GR
GS
[0.75 0 0 0.75 0 0] CT
0.149 GC
2 setlinecap
1 LJ
0.667 LW
N
374.167 1024 M
374.167 1005.63 L
S
GR
GS
[0.75 0 0 0.75 0 0] CT
0.149 GC
2 setlinecap
1 LJ
0.667 LW
N
680.333 1024 M
680.333 1005.63 L
S
GR
GS
[0.75 0 0 0.75 0 0] CT
0.149 GC
2 setlinecap
1 LJ
0.667 LW
N
986.5 1024 M
986.5 1005.63 L
S
GR
GS
[0.75 0 0 0.75 0 0] CT
0.149 GC
2 setlinecap
1 LJ
0.667 LW
N
1292.667 1024 M
1292.667 1005.63 L
S
GR
GS
[0.75 0 0 0.75 0 0] CT
0.149 GC
2 setlinecap
1 LJ
0.667 LW
N
1598.833 1024 M
1598.833 1005.63 L
S
GR
GS
[0.75 0 0 0.75 0 0] CT
0.149 GC
2 setlinecap
1 LJ
0.667 LW
N
1905 1024 M
1905 1005.63 L
S
GR
GS
[0.75 0 0 0.75 51 772.00003] CT
0.149 GC
/Helvetica 13.333 F
GS
[1 0 0 1 0 0] CT
-4 13 moveto 
1 -1 scale
(0) t 
GR
GR
GS
[0.75 0 0 0.75 280.62499 772.00003] CT
0.149 GC
/Helvetica 13.333 F
GS
[1 0 0 1 0 0] CT
-11.5 13 moveto 
1 -1 scale
(500) t 
GR
GR
GS
[0.75 0 0 0.75 510.24998 772.00003] CT
0.149 GC
/Helvetica 13.333 F
GS
[1 0 0 1 0 0] CT
-15 13 moveto 
1 -1 scale
(1000) t 
GR
GR
GS
[0.75 0 0 0.75 739.875 772.00003] CT
0.149 GC
/Helvetica 13.333 F
GS
[1 0 0 1 0 0] CT
-15 13 moveto 
1 -1 scale
(1500) t 
GR
GR
GS
[0.75 0 0 0.75 969.49997 772.00003] CT
0.149 GC
/Helvetica 13.333 F
GS
[1 0 0 1 0 0] CT
-15 13 moveto 
1 -1 scale
(2000) t 
GR
GR
GS
[0.75 0 0 0.75 1199.12503 772.00003] CT
0.149 GC
/Helvetica 13.333 F
GS
[1 0 0 1 0 0] CT
-15 13 moveto 
1 -1 scale
(2500) t 
GR
GR
GS
[0.75 0 0 0.75 1428.75 772.00003] CT
0.149 GC
/Helvetica 13.333 F
GS
[1 0 0 1 0 0] CT
-15 13 moveto 
1 -1 scale
(3000) t 
GR
GR
GS
[0.75 0 0 0.75 739.87569 785.75006] CT
0.149 GC
/Helvetica 26.667 F
GS
[1 0 0 1 0 0] CT
-48.5 25 moveto 
1 -1 scale
(Instante) t 
GR
GR
GS
[0.75 0 0 0.75 0 0] CT
0.149 GC
2 setlinecap
1 LJ
0.667 LW
N
68 1024 M
68 39 L
S
GR
GS
[0.75 0 0 0.75 0 0] CT
0.149 GC
2 setlinecap
1 LJ
0.667 LW
N
68 1024 M
86.37 1024 L
S
GR
GS
[0.75 0 0 0.75 0 0] CT
0.149 GC
2 setlinecap
1 LJ
0.667 LW
N
68 925.5 M
86.37 925.5 L
S
GR
GS
[0.75 0 0 0.75 0 0] CT
0.149 GC
2 setlinecap
1 LJ
0.667 LW
N
68 827 M
86.37 827 L
S
GR
GS
[0.75 0 0 0.75 0 0] CT
0.149 GC
2 setlinecap
1 LJ
0.667 LW
N
68 728.5 M
86.37 728.5 L
S
GR
GS
[0.75 0 0 0.75 0 0] CT
0.149 GC
2 setlinecap
1 LJ
0.667 LW
N
68 630 M
86.37 630 L
S
GR
GS
[0.75 0 0 0.75 0 0] CT
0.149 GC
2 setlinecap
1 LJ
0.667 LW
N
68 531.5 M
86.37 531.5 L
S
GR
GS
[0.75 0 0 0.75 0 0] CT
0.149 GC
2 setlinecap
1 LJ
0.667 LW
N
68 433 M
86.37 433 L
S
GR
GS
[0.75 0 0 0.75 0 0] CT
0.149 GC
2 setlinecap
1 LJ
0.667 LW
N
68 334.5 M
86.37 334.5 L
S
GR
GS
[0.75 0 0 0.75 0 0] CT
0.149 GC
2 setlinecap
1 LJ
0.667 LW
N
68 236 M
86.37 236 L
S
GR
GS
[0.75 0 0 0.75 0 0] CT
0.149 GC
2 setlinecap
1 LJ
0.667 LW
N
68 137.5 M
86.37 137.5 L
S
GR
GS
[0.75 0 0 0.75 0 0] CT
0.149 GC
2 setlinecap
1 LJ
0.667 LW
N
68 39 M
86.37 39 L
S
GR
GS
[0.75 0 0 0.75 47 768] CT
0.149 GC
/Helvetica 13.333 F
GS
[1 0 0 1 0 0] CT
-27 4.5 moveto 
1 -1 scale
(-100) t 
GR
GR
GS
[0.75 0 0 0.75 47 694.125] CT
0.149 GC
/Helvetica 13.333 F
GS
[1 0 0 1 0 0] CT
-19 4.5 moveto 
1 -1 scale
(-90) t 
GR
GR
GS
[0.75 0 0 0.75 47 620.25] CT
0.149 GC
/Helvetica 13.333 F
GS
[1 0 0 1 0 0] CT
-19 4.5 moveto 
1 -1 scale
(-80) t 
GR
GR
GS
[0.75 0 0 0.75 47 546.375] CT
0.149 GC
/Helvetica 13.333 F
GS
[1 0 0 1 0 0] CT
-19 4.5 moveto 
1 -1 scale
(-70) t 
GR
GR
GS
[0.75 0 0 0.75 47 472.5] CT
0.149 GC
/Helvetica 13.333 F
GS
[1 0 0 1 0 0] CT
-19 4.5 moveto 
1 -1 scale
(-60) t 
GR
GR
GS
[0.75 0 0 0.75 47 398.625] CT
0.149 GC
/Helvetica 13.333 F
GS
[1 0 0 1 0 0] CT
-19 4.5 moveto 
1 -1 scale
(-50) t 
GR
GR
GS
[0.75 0 0 0.75 47 324.75] CT
0.149 GC
/Helvetica 13.333 F
GS
[1 0 0 1 0 0] CT
-19 4.5 moveto 
1 -1 scale
(-40) t 
GR
GR
GS
[0.75 0 0 0.75 47 250.875] CT
0.149 GC
/Helvetica 13.333 F
GS
[1 0 0 1 0 0] CT
-19 4.5 moveto 
1 -1 scale
(-30) t 
GR
GR
GS
[0.75 0 0 0.75 47 177] CT
0.149 GC
/Helvetica 13.333 F
GS
[1 0 0 1 0 0] CT
-19 4.5 moveto 
1 -1 scale
(-20) t 
GR
GR
GS
[0.75 0 0 0.75 47 103.125] CT
0.149 GC
/Helvetica 13.333 F
GS
[1 0 0 1 0 0] CT
-19 4.5 moveto 
1 -1 scale
(-10) t 
GR
GR
GS
[0.75 0 0 0.75 47 29.25] CT
0.149 GC
/Helvetica 13.333 F
GS
[1 0 0 1 0 0] CT
-8 4.5 moveto 
1 -1 scale
(0) t 
GR
GR
GS
[0 -0.75 0.75 0 18.75 438] CT
0.149 GC
N
3.266 0.297 M
1.734 0.297 1.055 -0.82 QT
0.375 -1.938 0.375 -3.563 QT
0.375 -4.625 0.57 -5.648 QT
0.766 -6.672 1.156 -7.719 QT
1.547 -8.766 2.047 -9.68 QT
2.547 -10.594 3.172 -11.469 QT
3.281 -11.641 3.484 -11.641 QT
3.656 -11.641 3.758 -11.539 QT
3.859 -11.438 3.859 -11.281 QT
3.859 -11.141 3.781 -11.016 QT
1.313 -7.641 1.313 -4.766 QT
1.313 -3.531 1.891 -2.641 QT
2.469 -1.75 3.641 -1.75 QT
4.656 -1.75 5.516 -2.344 QT
6.375 -2.938 7.016 -3.859 QT
7.016 -4.344 7.18 -5.344 QT
7.344 -6.344 7.695 -7.125 QT
8.047 -7.906 8.531 -7.906 QT
9.156 -7.906 9.156 -7.188 QT
9.156 -6.766 8.977 -6.125 QT
8.797 -5.484 8.578 -4.93 QT
8.359 -4.375 8.047 -3.672 QT
8.359 -1.75 9.969 -1.75 QT
10.906 -1.75 11.844 -2.289 QT
12.781 -2.828 13.508 -3.711 QT
14.234 -4.594 14.648 -5.609 QT
15.063 -6.625 15.063 -7.531 QT
15.063 -8.344 14.813 -8.797 QT
14.563 -9.25 14.141 -9.75 QT
13.719 -10.25 13.719 -10.563 QT
13.719 -11.094 14.164 -11.523 QT
14.609 -11.953 15.125 -11.953 QT
15.781 -11.953 16.055 -11.359 QT
16.328 -10.766 16.328 -10 QT
16.328 -8.75 15.836 -6.867 QT
15.344 -4.984 14.719 -3.734 QT
13.844 -2.031 12.531 -0.867 QT
11.219 0.297 9.578 0.297 QT
8.547 0.297 7.906 -0.328 QT
7.266 -0.953 7.078 -2.031 QT
6.328 -0.969 5.367 -0.336 QT
4.406 0.297 3.266 0.297 QT
cp
f
GR
GS
[0 -0.75 0.75 0 18.75 425.25] CT
0.149 GC
/Helvetica 26.667 F
GS
[1 0 0 1 0 0] CT
0 0 moveto 
1 -1 scale
( \(rad/s\)) t 
GR
GR
GS
[0.75 0 0 0.75 739.87573 25.5] CT
/Helvetica-Bold 26.667 F
GS
[1 0 0 1 0 0] CT
-134.5 -7 moveto 
1 -1 scale
(Error aceptable [2, 5]%) t 
GR
GR
GS
[0.75 0 0 0.75 0 0] CT
0 0.447 0.741 RC
1 LJ
2.667 LW
N
68.612 558.9 M
69.225 558.9 L
69.837 558.9 L
70.449 558.9 L
71.062 558.9 L
71.674 558.9 L
72.286 558.9 L
72.899 558.9 L
73.511 577.538 L
74.123 577.538 L
74.736 577.538 L
75.348 577.538 L
75.96 577.538 L
76.573 577.538 L
77.185 577.538 L
77.797 558.9 L
78.41 558.9 L
79.022 558.9 L
79.634 558.9 L
80.247 558.9 L
80.859 558.9 L
81.471 558.9 L
82.084 558.9 L
82.696 558.9 L
83.308 558.9 L
83.921 558.9 L
84.533 558.9 L
85.145 558.9 L
85.758 558.9 L
86.37 558.9 L
86.982 558.9 L
87.595 558.9 L
88.207 558.9 L
88.819 558.9 L
89.432 558.9 L
90.044 558.9 L
90.656 558.9 L
91.269 558.9 L
91.881 558.9 L
92.493 558.9 L
93.106 558.9 L
93.718 558.9 L
94.33 558.9 L
94.943 558.9 L
95.555 558.9 L
96.167 558.9 L
96.78 558.9 L
97.392 558.9 L
98.004 558.9 L
98.617 558.9 L
99.229 558.9 L
99.841 558.9 L
100.454 558.9 L
101.066 558.9 L
101.678 558.9 L
102.291 577.538 L
102.903 577.538 L
103.515 577.538 L
104.128 577.538 L
104.74 577.538 L
105.352 577.538 L
105.965 558.9 L
106.577 558.9 L
107.189 558.9 L
107.802 558.9 L
108.414 558.9 L
109.026 558.9 L
109.639 558.9 L
110.251 558.9 L
110.863 558.9 L
111.476 558.9 L
112.088 558.9 L
112.7 558.9 L
113.313 558.9 L
113.925 558.9 L
114.537 558.9 L
115.15 558.9 L
115.762 558.9 L
116.374 558.9 L
116.987 558.9 L
117.599 558.9 L
118.211 558.9 L
118.824 558.9 L
119.436 558.9 L
120.048 558.9 L
120.661 558.9 L
121.273 558.9 L
121.885 558.9 L
122.498 558.9 L
123.11 558.9 L
123.722 558.9 L
124.335 558.9 L
124.947 558.9 L
125.559 558.9 L
126.172 558.9 L
126.784 558.9 L
127.396 558.9 L
128.009 558.9 L
128.621 558.9 L
129.233 558.9 L
129.846 558.9 L
130.458 558.9 L
131.07 558.9 L
131.683 558.9 L
132.295 558.9 L
132.907 558.9 L
133.52 558.9 L
134.132 558.9 L
134.744 558.9 L
135.357 558.9 L
135.969 558.9 L
136.581 558.9 L
137.194 558.9 L
137.806 558.9 L
138.418 558.9 L
139.031 540.413 L
139.643 540.413 L
140.255 540.413 L
140.868 540.413 L
141.48 540.413 L
142.092 540.413 L
142.705 558.9 L
143.317 558.9 L
143.929 558.9 L
144.542 558.9 L
145.154 558.9 L
145.766 558.9 L
146.379 558.9 L
146.991 558.9 L
147.603 558.9 L
148.216 558.9 L
148.828 558.9 L
149.44 558.9 L
150.053 558.9 L
150.665 558.9 L
151.277 577.538 L
151.89 577.538 L
152.502 577.538 L
153.114 577.538 L
153.727 577.538 L
154.339 577.538 L
154.951 558.9 L
155.564 558.9 L
156.176 558.9 L
156.788 558.9 L
157.401 558.9 L
158.013 558.9 L
158.625 558.9 L
159.238 540.413 L
159.85 540.413 L
160.462 540.413 L
161.075 540.413 L
161.687 540.413 L
162.299 540.413 L
162.912 540.413 L
163.524 558.9 L
164.136 558.9 L
164.749 558.9 L
165.361 558.9 L
165.973 558.9 L
166.586 558.9 L
167.198 558.9 L
167.81 558.9 L
168.423 558.9 L
169.035 558.9 L
169.647 558.9 L
170.26 558.9 L
170.872 558.9 L
171.484 558.9 L
172.097 558.9 L
172.709 558.9 L
173.321 558.9 L
173.934 558.9 L
174.546 558.9 L
175.158 558.9 L
175.771 540.413 L
176.383 540.413 L
176.995 540.413 L
177.608 540.413 L
178.22 540.413 L
178.832 540.413 L
179.445 558.9 L
180.057 558.9 L
180.669 558.9 L
181.282 558.9 L
181.894 558.9 L
182.506 558.9 L
183.119 558.9 L
183.731 540.413 L
184.343 540.413 L
184.956 540.413 L
185.568 540.413 L
186.18 540.413 L
186.793 540.413 L
187.405 540.413 L
188.017 558.9 L
188.63 558.9 L
189.242 558.9 L
189.854 558.9 L
190.467 558.9 L
191.079 558.9 L
191.691 558.9 L
192.304 558.9 L
192.916 558.9 L
193.528 558.9 L
194.141 558.9 L
194.753 558.9 L
195.365 558.9 L
195.978 558.9 L
196.59 558.9 L
197.202 558.9 L
197.815 558.9 L
198.427 558.9 L
199.039 558.9 L
199.652 558.9 L
200.264 558.9 L
200.876 558.9 L
201.489 558.9 L
202.101 558.9 L
202.713 558.9 L
203.326 558.9 L
203.938 558.9 L
204.55 558.9 L
205.163 558.9 L
205.775 558.9 L
206.387 558.9 L
207 558.9 L
207.612 558.9 L
208.224 558.9 L
208.837 558.9 L
209.449 558.9 L
210.061 558.9 L
210.674 558.9 L
211.286 558.9 L
211.898 558.9 L
212.511 558.9 L
213.123 558.9 L
213.735 558.9 L
214.348 558.9 L
214.96 558.9 L
215.572 558.9 L
216.185 558.9 L
216.797 558.9 L
217.409 558.9 L
218.022 558.9 L
218.634 558.9 L
219.246 558.9 L
219.859 558.9 L
220.471 540.413 L
221.083 540.413 L
221.696 540.413 L
222.308 540.413 L
222.92 540.413 L
223.533 540.413 L
224.145 540.413 L
224.757 558.9 L
225.37 558.9 L
225.982 558.9 L
226.594 558.9 L
227.207 558.9 L
227.819 558.9 L
228.431 558.9 L
229.044 558.9 L
229.656 558.9 L
230.268 558.9 L
230.881 558.9 L
231.493 558.9 L
232.105 558.9 L
232.718 558.9 L
233.33 558.9 L
233.942 558.9 L
234.555 558.9 L
235.167 558.9 L
235.779 558.9 L
236.392 558.9 L
237.004 558.9 L
237.616 558.9 L
238.229 558.9 L
238.841 558.9 L
239.453 558.9 L
240.066 558.9 L
240.678 558.9 L
241.29 558.9 L
241.903 558.9 L
242.515 558.9 L
243.127 558.9 L
243.74 558.9 L
244.352 558.9 L
244.964 558.9 L
245.577 558.9 L
246.189 558.9 L
246.801 558.9 L
247.414 558.9 L
248.026 558.9 L
248.638 558.9 L
249.251 558.9 L
249.863 558.9 L
250.475 558.9 L
251.088 558.9 L
251.7 558.9 L
252.312 558.9 L
252.925 558.9 L
253.537 558.9 L
254.149 558.9 L
254.762 558.9 L
255.374 558.9 L
255.986 558.9 L
256.599 558.9 L
257.211 540.413 L
257.823 540.413 L
258.436 540.413 L
259.048 540.413 L
259.66 540.413 L
260.273 540.413 L
260.885 540.413 L
261.497 558.9 L
262.11 558.9 L
262.722 558.9 L
263.334 558.9 L
263.947 558.9 L
264.559 558.9 L
265.171 558.9 L
265.784 558.9 L
266.396 558.9 L
267.008 558.9 L
267.621 558.9 L
268.233 558.9 L
268.845 558.9 L
269.458 558.9 L
270.07 558.9 L
270.682 558.9 L
271.295 558.9 L
271.907 558.9 L
272.519 558.9 L
273.132 558.9 L
273.744 558.9 L
274.356 558.9 L
274.969 558.9 L
275.581 558.9 L
276.193 558.9 L
276.806 558.9 L
277.418 558.9 L
278.03 540.413 L
278.643 540.413 L
279.255 540.413 L
279.867 540.413 L
280.48 540.413 L
281.092 540.413 L
281.704 558.9 L
282.317 558.9 L
282.929 558.9 L
283.541 558.9 L
284.154 558.9 L
284.766 558.9 L
285.378 558.9 L
285.991 558.9 L
286.603 558.9 L
287.215 558.9 L
287.828 558.9 L
288.44 558.9 L
289.052 558.9 L
289.665 558.9 L
290.277 558.9 L
290.889 558.9 L
291.502 558.9 L
292.114 558.9 L
292.726 558.9 L
293.339 558.9 L
293.951 558.9 L
294.563 558.9 L
295.176 558.9 L
295.788 558.9 L
296.4 558.9 L
297.013 558.9 L
297.625 558.9 L
298.237 558.9 L
298.85 558.9 L
299.462 558.9 L
300.074 558.9 L
300.687 558.9 L
301.299 558.9 L
301.911 558.9 L
302.524 558.9 L
303.136 558.9 L
303.748 558.9 L
304.361 558.9 L
304.973 558.9 L
305.585 558.9 L
306.198 540.413 L
306.81 540.413 L
307.422 540.413 L
308.035 540.413 L
308.647 540.413 L
309.259 540.413 L
309.872 540.413 L
310.484 558.9 L
311.096 558.9 L
311.709 558.9 L
312.321 558.9 L
312.933 558.9 L
313.546 558.9 L
314.158 558.9 L
314.77 558.9 L
315.383 558.9 L
315.995 558.9 L
316.607 558.9 L
317.22 558.9 L
317.832 558.9 L
318.444 558.9 L
319.057 558.9 L
319.669 558.9 L
320.281 558.9 L
320.894 558.9 L
321.506 558.9 L
322.118 558.9 L
322.731 558.9 L
323.343 558.9 L
323.955 558.9 L
324.568 558.9 L
325.18 558.9 L
325.792 558.9 L
326.405 558.9 L
327.017 558.9 L
327.629 558.9 L
328.242 558.9 L
328.854 558.9 L
329.466 558.9 L
330.079 558.9 L
330.691 558.9 L
331.303 558.9 L
331.916 558.9 L
332.528 558.9 L
333.14 558.9 L
333.753 558.9 L
334.365 558.9 L
334.977 540.413 L
335.59 540.413 L
336.202 540.413 L
336.814 540.413 L
337.427 540.413 L
338.039 540.413 L
338.651 540.413 L
339.264 558.9 L
339.876 558.9 L
340.488 558.9 L
341.101 558.9 L
341.713 558.9 L
342.325 558.9 L
342.938 558.9 L
343.55 558.9 L
344.162 558.9 L
344.775 558.9 L
345.387 558.9 L
345.999 558.9 L
346.612 558.9 L
347.224 558.9 L
347.836 558.9 L
348.449 558.9 L
349.061 558.9 L
349.673 558.9 L
350.286 558.9 L
350.898 558.9 L
351.51 558.9 L
352.123 558.9 L
352.735 558.9 L
353.347 558.9 L
353.96 558.9 L
354.572 558.9 L
355.184 558.9 L
355.797 558.9 L
356.409 558.9 L
357.021 558.9 L
357.634 558.9 L
358.246 558.9 L
358.858 558.9 L
359.471 558.9 L
360.083 558.9 L
360.695 558.9 L
361.308 558.9 L
361.92 558.9 L
362.532 558.9 L
363.145 558.9 L
363.757 558.9 L
364.369 558.9 L
364.982 558.9 L
365.594 558.9 L
366.206 558.9 L
366.819 558.9 L
367.431 540.413 L
368.043 540.413 L
368.656 540.413 L
369.268 540.413 L
369.88 540.413 L
370.493 540.413 L
371.105 540.413 L
371.717 558.9 L
372.33 558.9 L
372.942 558.9 L
373.554 558.9 L
374.167 558.9 L
374.779 558.9 L
375.391 558.9 L
376.004 558.9 L
376.616 558.9 L
377.228 558.9 L
377.841 558.9 L
378.453 558.9 L
379.065 558.9 L
379.678 540.413 L
380.29 540.413 L
380.902 540.413 L
381.515 540.413 L
382.127 540.413 L
382.739 540.413 L
383.352 540.413 L
383.964 558.9 L
384.576 558.9 L
385.189 558.9 L
385.801 558.9 L
386.413 558.9 L
387.026 558.9 L
387.638 558.9 L
388.25 558.9 L
388.863 558.9 L
389.475 558.9 L
390.087 558.9 L
390.7 558.9 L
391.312 558.9 L
391.924 558.9 L
392.537 558.9 L
393.149 558.9 L
393.761 558.9 L
394.374 558.9 L
394.986 558.9 L
395.598 558.9 L
396.211 558.9 L
396.823 558.9 L
397.435 558.9 L
398.048 558.9 L
398.66 558.9 L
399.272 558.9 L
399.885 558.9 L
400.497 558.9 L
401.109 558.9 L
401.722 558.9 L
402.334 558.9 L
402.946 558.9 L
403.559 558.9 L
404.171 558.9 L
404.783 558.9 L
405.396 558.9 L
406.008 558.9 L
406.62 558.9 L
407.233 558.9 L
407.845 558.9 L
408.457 540.413 L
409.07 540.413 L
409.682 540.413 L
410.294 540.413 L
410.907 540.413 L
411.519 540.413 L
412.131 540.413 L
412.744 558.9 L
413.356 558.9 L
413.968 558.9 L
414.581 558.9 L
415.193 558.9 L
415.805 558.9 L
416.418 558.9 L
417.03 558.9 L
417.642 558.9 L
418.255 558.9 L
418.867 558.9 L
419.479 558.9 L
420.092 558.9 L
420.704 540.413 L
421.316 540.413 L
421.929 540.413 L
422.541 540.413 L
423.153 540.413 L
423.766 540.413 L
424.378 540.413 L
424.99 558.9 L
425.603 558.9 L
426.215 558.9 L
426.827 558.9 L
427.44 558.9 L
428.052 558.9 L
428.664 540.413 L
429.277 540.413 L
429.889 540.413 L
430.501 540.413 L
431.114 540.413 L
431.726 540.413 L
432.338 540.413 L
432.951 558.9 L
433.563 558.9 L
434.175 558.9 L
434.788 558.9 L
435.4 558.9 L
436.012 558.9 L
436.625 558.9 L
437.237 558.9 L
437.849 558.9 L
438.462 558.9 L
439.074 558.9 L
439.686 558.9 L
440.299 558.9 L
440.911 540.413 L
441.523 540.413 L
442.136 540.413 L
442.748 540.413 L
443.36 540.413 L
443.973 540.413 L
444.585 540.413 L
445.197 558.9 L
445.81 558.9 L
446.422 558.9 L
447.034 558.9 L
447.647 558.9 L
448.259 558.9 L
448.871 558.9 L
449.484 558.9 L
450.096 558.9 L
450.708 558.9 L
451.321 558.9 L
451.933 558.9 L
452.545 558.9 L
453.158 540.413 L
453.77 540.413 L
454.382 540.413 L
454.995 540.413 L
455.607 540.413 L
456.219 540.413 L
456.832 540.413 L
457.444 558.9 L
458.056 558.9 L
458.669 558.9 L
459.281 558.9 L
459.893 558.9 L
460.506 558.9 L
461.118 558.9 L
461.73 558.9 L
462.343 558.9 L
462.955 558.9 L
463.567 558.9 L
464.18 558.9 L
464.792 558.9 L
465.404 540.413 L
466.017 540.413 L
466.629 540.413 L
467.241 540.413 L
467.854 540.413 L
468.466 540.413 L
469.078 540.413 L
469.691 558.9 L
470.303 558.9 L
470.915 558.9 L
471.528 558.9 L
472.14 558.9 L
472.752 558.9 L
473.365 558.9 L
473.977 540.413 L
474.589 540.413 L
475.202 540.413 L
475.814 540.413 L
476.426 540.413 L
477.039 540.413 L
477.651 558.9 L
478.263 558.9 L
478.876 558.9 L
479.488 558.9 L
480.1 558.9 L
480.713 558.9 L
481.325 558.9 L
481.937 558.9 L
482.55 558.9 L
483.162 558.9 L
483.774 558.9 L
484.387 558.9 L
484.999 558.9 L
485.611 558.9 L
486.224 558.9 L
486.836 558.9 L
487.448 558.9 L
488.061 558.9 L
488.673 558.9 L
489.285 558.9 L
489.898 558.9 L
490.51 558.9 L
491.122 558.9 L
491.735 558.9 L
492.347 558.9 L
492.959 558.9 L
493.572 558.9 L
494.184 558.9 L
494.796 558.9 L
495.409 558.9 L
496.021 558.9 L
496.633 558.9 L
497.246 558.9 L
497.858 558.9 L
498.47 540.413 L
499.083 540.413 L
499.695 540.413 L
500.307 540.413 L
500.92 540.413 L
501.532 540.413 L
502.144 558.9 L
502.757 558.9 L
503.369 558.9 L
503.981 558.9 L
504.594 558.9 L
505.206 558.9 L
505.818 558.9 L
506.431 558.9 L
507.043 558.9 L
507.655 558.9 L
508.268 558.9 L
508.88 558.9 L
509.492 558.9 L
510.105 558.9 L
510.717 540.413 L
511.329 540.413 L
511.942 540.413 L
512.554 540.413 L
513.166 540.413 L
513.779 540.413 L
514.391 558.9 L
515.003 558.9 L
515.616 558.9 L
516.228 558.9 L
516.84 558.9 L
517.453 558.9 L
518.065 558.9 L
518.677 558.9 L
519.29 558.9 L
519.902 558.9 L
520.514 558.9 L
521.127 558.9 L
521.739 558.9 L
522.351 558.9 L
522.964 558.9 L
523.576 558.9 L
524.188 558.9 L
524.801 558.9 L
525.413 558.9 L
526.025 558.9 L
526.638 558.9 L
527.25 558.9 L
527.862 558.9 L
528.475 558.9 L
529.087 558.9 L
529.699 558.9 L
530.312 558.9 L
530.924 558.9 L
531.536 558.9 L
532.149 558.9 L
532.761 558.9 L
533.373 558.9 L
533.986 558.9 L
534.598 558.9 L
535.21 540.413 L
535.823 540.413 L
536.435 540.413 L
537.047 540.413 L
537.66 540.413 L
538.272 540.413 L
538.884 558.9 L
539.497 558.9 L
540.109 558.9 L
540.721 558.9 L
541.334 558.9 L
541.946 558.9 L
542.558 558.9 L
543.171 558.9 L
543.783 558.9 L
544.395 558.9 L
545.008 558.9 L
545.62 558.9 L
546.232 558.9 L
546.845 558.9 L
547.457 540.413 L
548.069 540.413 L
548.682 540.413 L
549.294 540.413 L
549.906 540.413 L
550.519 540.413 L
551.131 558.9 L
551.743 558.9 L
552.356 558.9 L
552.968 558.9 L
553.58 558.9 L
554.193 558.9 L
554.805 558.9 L
555.417 558.9 L
556.03 558.9 L
556.642 558.9 L
557.254 558.9 L
557.867 558.9 L
558.479 558.9 L
559.091 558.9 L
559.704 558.9 L
560.316 558.9 L
560.928 558.9 L
561.541 558.9 L
562.153 558.9 L
562.765 558.9 L
563.378 558.9 L
563.99 558.9 L
564.602 558.9 L
565.215 558.9 L
565.827 558.9 L
566.439 558.9 L
567.052 558.9 L
567.664 558.9 L
568.276 558.9 L
568.889 558.9 L
569.501 558.9 L
570.113 558.9 L
570.726 558.9 L
571.338 558.9 L
571.95 540.413 L
572.563 540.413 L
573.175 540.413 L
573.787 540.413 L
574.4 540.413 L
575.012 540.413 L
575.624 558.9 L
576.237 558.9 L
576.849 558.9 L
577.461 558.9 L
578.074 558.9 L
578.686 558.9 L
579.298 558.9 L
579.911 558.9 L
580.523 558.9 L
581.135 558.9 L
581.748 558.9 L
582.36 558.9 L
582.972 558.9 L
583.585 558.9 L
584.197 558.9 L
584.809 558.9 L
585.422 558.9 L
586.034 558.9 L
586.646 558.9 L
587.259 558.9 L
587.871 558.9 L
588.483 558.9 L
589.096 558.9 L
589.708 558.9 L
590.32 558.9 L
590.933 558.9 L
591.545 558.9 L
592.157 540.413 L
592.77 540.413 L
593.382 540.413 L
593.994 540.413 L
594.607 540.413 L
595.219 540.413 L
595.831 540.413 L
596.444 558.9 L
597.056 558.9 L
597.668 558.9 L
598.281 558.9 L
598.893 558.9 L
599.505 558.9 L
600.118 558.9 L
600.73 558.9 L
601.342 558.9 L
601.955 558.9 L
602.567 558.9 L
603.179 558.9 L
603.792 558.9 L
604.404 558.9 L
605.016 558.9 L
605.629 558.9 L
606.241 558.9 L
606.853 558.9 L
607.466 558.9 L
608.078 558.9 L
608.69 558.9 L
609.303 558.9 L
609.915 558.9 L
610.527 558.9 L
611.14 558.9 L
611.752 558.9 L
612.364 558.9 L
612.977 558.9 L
613.589 558.9 L
614.201 558.9 L
614.814 558.9 L
615.426 558.9 L
616.038 558.9 L
616.651 558.9 L
617.263 558.9 L
617.875 558.9 L
618.488 558.9 L
619.1 558.9 L
619.712 558.9 L
620.325 558.9 L
620.937 540.413 L
621.549 540.413 L
622.162 540.413 L
622.774 540.413 L
623.386 540.413 L
623.999 540.413 L
624.611 558.9 L
625.223 558.9 L
625.836 558.9 L
626.448 558.9 L
627.06 558.9 L
627.673 558.9 L
628.285 558.9 L
628.897 558.9 L
629.51 558.9 L
630.122 558.9 L
630.734 558.9 L
631.347 558.9 L
631.959 558.9 L
632.571 558.9 L
633.184 540.413 L
633.796 540.413 L
634.408 540.413 L
635.021 540.413 L
635.633 540.413 L
636.245 540.413 L
636.858 540.413 L
637.47 558.9 L
638.082 558.9 L
638.695 558.9 L
639.307 558.9 L
639.919 558.9 L
640.532 558.9 L
641.144 558.9 L
641.756 558.9 L
642.369 558.9 L
642.981 558.9 L
643.593 558.9 L
644.206 558.9 L
644.818 558.9 L
645.43 558.9 L
646.043 558.9 L
646.655 558.9 L
647.267 558.9 L
647.88 558.9 L
648.492 558.9 L
649.104 558.9 L
649.717 558.9 L
650.329 558.9 L
650.941 558.9 L
651.554 558.9 L
652.166 558.9 L
652.778 558.9 L
653.391 558.9 L
654.003 558.9 L
654.615 558.9 L
655.228 558.9 L
655.84 558.9 L
656.452 558.9 L
657.065 558.9 L
657.677 558.9 L
658.289 558.9 L
658.902 558.9 L
659.514 558.9 L
660.126 558.9 L
660.739 558.9 L
661.351 558.9 L
661.963 558.9 L
662.576 558.9 L
663.188 558.9 L
663.8 558.9 L
664.413 558.9 L
665.025 558.9 L
665.637 558.9 L
666.25 558.9 L
666.862 558.9 L
667.474 558.9 L
668.087 558.9 L
668.699 558.9 L
669.311 558.9 L
669.924 558.9 L
670.536 558.9 L
671.148 558.9 L
671.761 558.9 L
672.373 558.9 L
672.985 558.9 L
673.598 558.9 L
674.21 558.9 L
674.822 558.9 L
675.435 558.9 L
676.047 558.9 L
676.659 558.9 L
677.272 558.9 L
677.884 558.9 L
678.496 558.9 L
679.109 558.9 L
679.721 558.9 L
680.333 558.9 L
680.946 558.9 L
681.558 558.9 L
682.17 558.9 L
682.783 558.9 L
683.395 558.9 L
684.007 558.9 L
684.62 558.9 L
685.232 558.9 L
685.844 558.9 L
686.457 558.9 L
687.069 558.9 L
687.681 558.9 L
688.294 558.9 L
688.906 558.9 L
689.518 558.9 L
690.131 558.9 L
690.743 558.9 L
691.355 558.9 L
691.968 558.9 L
692.58 558.9 L
693.192 558.9 L
693.805 558.9 L
694.417 558.9 L
695.029 558.9 L
695.642 558.9 L
696.254 558.9 L
696.866 558.9 L
697.479 558.9 L
698.091 558.9 L
698.703 558.9 L
699.316 558.9 L
699.928 558.9 L
700.54 558.9 L
701.153 558.9 L
701.765 558.9 L
702.377 558.9 L
702.99 558.9 L
703.602 558.9 L
704.214 558.9 L
704.827 558.9 L
705.439 558.9 L
706.051 558.9 L
706.664 558.9 L
707.276 558.9 L
707.888 558.9 L
708.501 558.9 L
709.113 558.9 L
709.725 558.9 L
710.338 558.9 L
710.95 558.9 L
711.562 558.9 L
712.175 558.9 L
712.787 558.9 L
713.399 558.9 L
714.012 558.9 L
714.624 540.413 L
715.236 540.413 L
715.849 540.413 L
716.461 540.413 L
717.073 540.413 L
717.686 540.413 L
718.298 540.413 L
718.91 558.9 L
719.523 558.9 L
720.135 558.9 L
720.747 558.9 L
721.36 558.9 L
721.972 558.9 L
722.584 558.9 L
723.197 558.9 L
723.809 558.9 L
724.421 558.9 L
725.034 558.9 L
725.646 558.9 L
726.258 558.9 L
726.871 558.9 L
727.483 558.9 L
728.095 558.9 L
728.708 558.9 L
729.32 558.9 L
729.932 558.9 L
730.545 558.9 L
731.157 558.9 L
731.769 558.9 L
732.382 558.9 L
732.994 558.9 L
733.606 558.9 L
734.219 558.9 L
734.831 558.9 L
735.443 558.9 L
736.056 558.9 L
736.668 558.9 L
737.28 558.9 L
737.893 558.9 L
738.505 558.9 L
739.117 558.9 L
739.73 558.9 L
740.342 558.9 L
740.954 558.9 L
741.567 558.9 L
742.179 558.9 L
742.791 558.9 L
743.404 558.9 L
744.016 558.9 L
744.628 558.9 L
745.241 558.9 L
745.853 558.9 L
746.465 558.9 L
747.078 558.9 L
747.69 558.9 L
748.302 558.9 L
748.915 558.9 L
749.527 558.9 L
750.139 558.9 L
750.752 558.9 L
751.364 540.413 L
751.976 540.413 L
752.589 540.413 L
753.201 540.413 L
753.813 540.413 L
754.426 540.413 L
755.038 540.413 L
755.65 558.9 L
756.263 558.9 L
756.875 558.9 L
757.487 558.9 L
758.1 558.9 L
758.712 558.9 L
759.324 558.9 L
759.937 558.9 L
760.549 558.9 L
761.161 558.9 L
761.774 558.9 L
762.386 558.9 L
762.998 558.9 L
763.611 558.9 L
764.223 558.9 L
764.835 558.9 L
765.448 558.9 L
766.06 558.9 L
766.672 558.9 L
767.285 558.9 L
767.897 558.9 L
768.509 558.9 L
769.122 558.9 L
769.734 558.9 L
770.346 558.9 L
770.959 558.9 L
771.571 558.9 L
772.183 558.9 L
772.796 558.9 L
773.408 558.9 L
774.02 558.9 L
774.633 558.9 L
775.245 558.9 L
775.857 558.9 L
776.47 558.9 L
777.082 558.9 L
777.694 558.9 L
778.307 558.9 L
778.919 558.9 L
779.531 558.9 L
780.144 558.9 L
780.756 558.9 L
781.368 558.9 L
781.981 558.9 L
782.593 558.9 L
783.205 558.9 L
783.818 558.9 L
784.43 540.413 L
785.042 540.413 L
785.655 540.413 L
786.267 540.413 L
786.879 540.413 L
787.492 540.413 L
788.104 558.9 L
788.716 558.9 L
789.329 558.9 L
789.941 558.9 L
790.553 558.9 L
791.166 558.9 L
791.778 558.9 L
792.39 558.9 L
793.003 558.9 L
793.615 558.9 L
794.227 558.9 L
794.84 558.9 L
795.452 558.9 L
796.064 558.9 L
796.677 558.9 L
797.289 558.9 L
797.901 558.9 L
798.514 558.9 L
799.126 558.9 L
799.738 558.9 L
800.351 558.9 L
800.963 558.9 L
801.575 558.9 L
802.188 558.9 L
802.8 558.9 L
803.412 558.9 L
804.025 558.9 L
804.637 540.413 L
805.249 540.413 L
805.862 540.413 L
806.474 540.413 L
807.086 540.413 L
807.699 540.413 L
808.311 540.413 L
808.923 558.9 L
809.536 558.9 L
810.148 558.9 L
810.76 558.9 L
811.373 558.9 L
811.985 558.9 L
812.597 558.9 L
813.21 558.9 L
813.822 558.9 L
814.434 558.9 L
815.047 558.9 L
815.659 558.9 L
816.271 558.9 L
816.884 558.9 L
817.496 558.9 L
818.108 558.9 L
818.721 558.9 L
819.333 558.9 L
819.945 558.9 L
820.558 558.9 L
821.17 558.9 L
821.782 558.9 L
822.395 558.9 L
823.007 558.9 L
823.619 558.9 L
824.232 558.9 L
824.844 558.9 L
825.456 558.9 L
826.069 558.9 L
826.681 558.9 L
827.293 558.9 L
827.906 558.9 L
828.518 558.9 L
829.13 558.9 L
829.743 558.9 L
830.355 558.9 L
830.967 558.9 L
831.58 558.9 L
832.192 558.9 L
832.804 558.9 L
833.417 540.413 L
834.029 540.413 L
834.641 540.413 L
835.254 540.413 L
835.866 540.413 L
836.478 540.413 L
837.091 558.9 L
837.703 558.9 L
838.315 558.9 L
838.928 558.9 L
839.54 558.9 L
840.152 558.9 L
840.765 558.9 L
841.377 558.9 L
841.989 558.9 L
842.602 558.9 L
843.214 558.9 L
843.826 558.9 L
844.439 558.9 L
845.051 558.9 L
845.663 558.9 L
846.276 558.9 L
846.888 558.9 L
847.5 558.9 L
848.113 558.9 L
848.725 558.9 L
849.337 558.9 L
849.95 558.9 L
850.562 558.9 L
851.174 558.9 L
851.787 558.9 L
852.399 558.9 L
853.011 558.9 L
853.624 540.413 L
854.236 540.413 L
854.848 540.413 L
855.461 540.413 L
856.073 540.413 L
856.685 540.413 L
857.298 540.413 L
857.91 558.9 L
858.522 558.9 L
859.135 558.9 L
859.747 558.9 L
860.359 558.9 L
860.972 558.9 L
861.584 558.9 L
862.196 558.9 L
862.809 558.9 L
863.421 558.9 L
864.033 558.9 L
864.646 558.9 L
865.258 558.9 L
865.87 558.9 L
866.483 558.9 L
867.095 558.9 L
867.707 558.9 L
868.32 558.9 L
868.932 558.9 L
869.544 558.9 L
870.157 558.9 L
870.769 558.9 L
871.381 558.9 L
871.994 558.9 L
872.606 558.9 L
873.218 558.9 L
873.831 558.9 L
874.443 558.9 L
875.055 558.9 L
875.668 558.9 L
876.28 558.9 L
876.892 558.9 L
877.505 558.9 L
878.117 558.9 L
878.729 558.9 L
879.342 558.9 L
879.954 558.9 L
880.566 558.9 L
881.179 558.9 L
881.791 558.9 L
882.403 558.9 L
883.016 558.9 L
883.628 558.9 L
884.24 558.9 L
884.853 558.9 L
885.465 558.9 L
886.077 558.9 L
886.69 558.9 L
887.302 558.9 L
887.914 558.9 L
888.527 558.9 L
889.139 558.9 L
889.751 558.9 L
890.364 558.9 L
890.976 558.9 L
891.588 558.9 L
892.201 558.9 L
892.813 558.9 L
893.425 558.9 L
894.038 558.9 L
894.65 558.9 L
895.262 558.9 L
895.875 558.9 L
896.487 558.9 L
897.099 558.9 L
897.712 558.9 L
898.324 540.413 L
898.936 540.413 L
899.549 540.413 L
900.161 540.413 L
900.773 540.413 L
901.386 540.413 L
901.998 540.413 L
902.61 558.9 L
903.223 558.9 L
903.835 558.9 L
904.447 558.9 L
905.06 558.9 L
905.672 558.9 L
906.284 558.9 L
906.897 558.9 L
907.509 558.9 L
908.121 558.9 L
908.734 558.9 L
909.346 558.9 L
909.958 558.9 L
910.571 540.413 L
911.183 540.413 L
911.795 540.413 L
912.408 540.413 L
913.02 540.413 L
913.632 540.413 L
914.245 540.413 L
914.857 558.9 L
915.469 558.9 L
916.082 558.9 L
916.694 558.9 L
917.306 558.9 L
917.919 558.9 L
918.531 558.9 L
919.143 540.413 L
919.756 540.413 L
920.368 540.413 L
920.98 540.413 L
921.593 540.413 L
922.205 540.413 L
922.817 558.9 L
923.43 558.9 L
924.042 558.9 L
924.654 558.9 L
925.267 558.9 L
925.879 558.9 L
926.491 558.9 L
927.104 558.9 L
927.716 558.9 L
928.328 558.9 L
928.941 558.9 L
929.553 558.9 L
930.165 558.9 L
930.778 558.9 L
931.39 558.9 L
932.002 558.9 L
932.615 558.9 L
933.227 558.9 L
933.839 558.9 L
934.452 558.9 L
935.064 558.9 L
935.676 558.9 L
936.289 558.9 L
936.901 558.9 L
937.513 558.9 L
938.126 558.9 L
938.738 558.9 L
939.35 558.9 L
939.963 558.9 L
940.575 558.9 L
941.187 558.9 L
941.8 558.9 L
942.412 558.9 L
943.024 558.9 L
943.637 540.413 L
944.249 540.413 L
944.861 540.413 L
945.474 540.413 L
946.086 540.413 L
946.698 540.413 L
947.311 558.9 L
947.923 558.9 L
948.535 558.9 L
949.148 558.9 L
949.76 558.9 L
950.372 558.9 L
950.985 558.9 L
951.597 540.413 L
952.209 540.413 L
952.822 540.413 L
953.434 540.413 L
954.046 540.413 L
954.659 540.413 L
955.271 540.413 L
955.883 558.9 L
956.496 558.9 L
957.108 558.9 L
957.72 558.9 L
958.333 558.9 L
958.945 558.9 L
959.557 540.413 L
960.17 540.413 L
960.782 540.413 L
961.394 540.413 L
962.007 540.413 L
962.619 540.413 L
963.231 540.413 L
963.844 558.9 L
964.456 558.9 L
965.068 558.9 L
965.681 558.9 L
966.293 558.9 L
966.905 558.9 L
967.518 558.9 L
968.13 558.9 L
968.742 558.9 L
969.355 558.9 L
969.967 558.9 L
970.579 558.9 L
971.192 558.9 L
971.804 558.9 L
972.416 558.9 L
973.029 558.9 L
973.641 558.9 L
974.253 558.9 L
974.866 558.9 L
975.478 558.9 L
976.09 540.413 L
976.703 540.413 L
977.315 540.413 L
977.927 540.413 L
978.54 540.413 L
979.152 540.413 L
979.764 540.413 L
980.377 558.9 L
980.989 558.9 L
981.601 558.9 L
982.214 558.9 L
982.826 558.9 L
983.438 558.9 L
984.051 558.9 L
984.663 558.9 L
985.275 558.9 L
985.888 558.9 L
986.5 558.9 L
987.112 558.9 L
987.725 558.9 L
988.337 558.9 L
988.949 558.9 L
989.562 558.9 L
990.174 558.9 L
990.786 558.9 L
991.399 558.9 L
992.011 558.9 L
992.623 540.413 L
993.236 540.413 L
993.848 540.413 L
994.46 540.413 L
995.073 540.413 L
995.685 540.413 L
996.297 558.9 L
996.91 558.9 L
997.522 558.9 L
998.134 558.9 L
998.747 558.9 L
999.359 558.9 L
999.971 558.9 L
1000.584 558.9 L
1001.196 558.9 L
1001.808 558.9 L
1002.421 558.9 L
1003.033 558.9 L
1003.645 558.9 L
1004.258 558.9 L
1004.87 558.9 L
1005.482 558.9 L
1006.095 558.9 L
1006.707 558.9 L
1007.319 558.9 L
1007.932 558.9 L
1008.544 558.9 L
1009.156 540.413 L
1009.769 540.413 L
1010.381 540.413 L
1010.993 540.413 L
1011.606 540.413 L
1012.218 540.413 L
1012.83 558.9 L
1013.443 558.9 L
1014.055 558.9 L
1014.667 558.9 L
1015.28 558.9 L
1015.892 558.9 L
1016.504 558.9 L
1017.117 558.9 L
1017.729 558.9 L
1018.341 558.9 L
1018.954 558.9 L
1019.566 558.9 L
1020.178 558.9 L
1020.791 558.9 L
1021.403 558.9 L
1022.015 558.9 L
1022.628 558.9 L
1023.24 558.9 L
1023.852 558.9 L
1024.465 558.9 L
1025.077 558.9 L
1025.689 558.9 L
1026.302 558.9 L
1026.914 558.9 L
1027.526 558.9 L
1028.139 558.9 L
1028.751 558.9 L
1029.363 540.413 L
1029.976 540.413 L
1030.588 540.413 L
1031.2 540.413 L
1031.813 540.413 L
1032.425 540.413 L
1033.037 540.413 L
1033.65 558.9 L
1034.262 558.9 L
1034.874 558.9 L
1035.487 558.9 L
1036.099 558.9 L
1036.711 558.9 L
1037.324 558.9 L
1037.936 558.9 L
1038.548 558.9 L
1039.161 558.9 L
1039.773 558.9 L
1040.385 558.9 L
1040.998 558.9 L
1041.61 540.413 L
1042.222 540.413 L
1042.835 540.413 L
1043.447 540.413 L
1044.059 540.413 L
1044.672 540.413 L
1045.284 540.413 L
1045.896 558.9 L
1046.509 558.9 L
1047.121 558.9 L
1047.733 558.9 L
1048.346 558.9 L
1048.958 558.9 L
1049.57 558.9 L
1050.183 558.9 L
1050.795 558.9 L
1051.407 558.9 L
1052.02 558.9 L
1052.632 558.9 L
1053.244 558.9 L
1053.857 540.413 L
1054.469 540.413 L
1055.081 540.413 L
1055.694 540.413 L
1056.306 540.413 L
1056.918 540.413 L
1057.531 540.413 L
1058.143 558.9 L
1058.755 558.9 L
1059.368 558.9 L
1059.98 558.9 L
1060.592 558.9 L
1061.205 558.9 L
1061.817 558.9 L
1062.429 558.9 L
1063.042 558.9 L
1063.654 558.9 L
1064.266 558.9 L
1064.879 558.9 L
1065.491 558.9 L
1066.103 558.9 L
1066.716 558.9 L
1067.328 558.9 L
1067.94 558.9 L
1068.553 558.9 L
1069.165 558.9 L
1069.777 558.9 L
1070.39 540.413 L
1071.002 540.413 L
1071.614 540.413 L
1072.227 540.413 L
1072.839 540.413 L
1073.451 540.413 L
1074.064 558.9 L
1074.676 558.9 L
1075.288 558.9 L
1075.901 558.9 L
1076.513 558.9 L
1077.125 558.9 L
1077.738 558.9 L
1078.35 558.9 L
1078.962 558.9 L
1079.575 558.9 L
1080.187 558.9 L
1080.799 558.9 L
1081.412 558.9 L
1082.024 558.9 L
1082.636 558.9 L
1083.249 558.9 L
1083.861 558.9 L
1084.473 558.9 L
1085.086 558.9 L
1085.698 558.9 L
1086.31 558.9 L
1086.923 558.9 L
1087.535 558.9 L
1088.147 558.9 L
1088.76 558.9 L
1089.372 558.9 L
1089.984 558.9 L
1090.597 558.9 L
1091.209 558.9 L
1091.821 558.9 L
1092.434 558.9 L
1093.046 558.9 L
1093.658 558.9 L
1094.271 558.9 L
1094.883 540.413 L
1095.495 540.413 L
1096.108 540.413 L
1096.72 540.413 L
1097.332 540.413 L
1097.945 540.413 L
1098.557 558.9 L
1099.169 558.9 L
1099.782 558.9 L
1100.394 558.9 L
1101.006 558.9 L
1101.619 558.9 L
1102.231 558.9 L
1102.843 558.9 L
1103.456 558.9 L
1104.068 558.9 L
1104.68 558.9 L
1105.293 558.9 L
1105.905 558.9 L
1106.517 558.9 L
1107.13 558.9 L
1107.742 558.9 L
1108.354 558.9 L
1108.967 558.9 L
1109.579 558.9 L
1110.191 558.9 L
1110.804 540.413 L
1111.416 540.413 L
1112.028 540.413 L
1112.641 540.413 L
1113.253 540.413 L
1113.865 540.413 L
1114.478 540.413 L
1115.09 558.9 L
1115.702 558.9 L
1116.315 558.9 L
1116.927 558.9 L
1117.539 558.9 L
1118.152 558.9 L
1118.764 558.9 L
1119.376 558.9 L
1119.989 558.9 L
1120.601 558.9 L
1121.213 558.9 L
1121.826 558.9 L
1122.438 558.9 L
1123.05 540.413 L
1123.663 540.413 L
1124.275 540.413 L
1124.887 540.413 L
1125.5 540.413 L
1126.112 540.413 L
1126.724 540.413 L
1127.337 558.9 L
1127.949 558.9 L
1128.561 558.9 L
1129.174 558.9 L
1129.786 558.9 L
1130.398 558.9 L
1131.011 558.9 L
1131.623 558.9 L
1132.235 558.9 L
1132.848 558.9 L
1133.46 558.9 L
1134.072 558.9 L
1134.685 558.9 L
1135.297 558.9 L
1135.909 558.9 L
1136.522 558.9 L
1137.134 558.9 L
1137.746 558.9 L
1138.359 558.9 L
1138.971 558.9 L
1139.583 558.9 L
1140.196 558.9 L
1140.808 558.9 L
1141.42 558.9 L
1142.033 558.9 L
1142.645 558.9 L
1143.257 558.9 L
1143.87 558.9 L
1144.482 558.9 L
1145.094 558.9 L
1145.707 558.9 L
1146.319 558.9 L
1146.931 558.9 L
1147.544 540.413 L
1148.156 540.413 L
1148.768 540.413 L
1149.381 540.413 L
1149.993 540.413 L
1150.605 540.413 L
1151.218 540.413 L
1151.83 558.9 L
1152.442 558.9 L
1153.055 558.9 L
1153.667 558.9 L
1154.279 558.9 L
1154.892 558.9 L
1155.504 558.9 L
1156.116 558.9 L
1156.729 558.9 L
1157.341 558.9 L
1157.953 558.9 L
1158.566 558.9 L
1159.178 558.9 L
1159.79 540.413 L
1160.403 540.413 L
1161.015 540.413 L
1161.627 540.413 L
1162.24 540.413 L
1162.852 540.413 L
1163.464 540.413 L
1164.077 558.9 L
1164.689 558.9 L
1165.301 558.9 L
1165.914 558.9 L
1166.526 558.9 L
1167.138 558.9 L
1167.751 558.9 L
1168.363 558.9 L
1168.975 558.9 L
1169.588 558.9 L
1170.2 558.9 L
1170.812 558.9 L
1171.425 558.9 L
1172.037 558.9 L
1172.649 558.9 L
1173.262 558.9 L
1173.874 558.9 L
1174.486 558.9 L
1175.099 558.9 L
1175.711 558.9 L
1176.323 558.9 L
1176.936 558.9 L
1177.548 558.9 L
1178.16 558.9 L
1178.773 558.9 L
1179.385 558.9 L
1179.997 558.9 L
1180.61 540.413 L
1181.222 540.413 L
1181.834 540.413 L
1182.447 540.413 L
1183.059 540.413 L
1183.671 540.413 L
1184.284 558.9 L
1184.896 558.9 L
1185.508 558.9 L
1186.121 558.9 L
1186.733 558.9 L
1187.345 558.9 L
1187.958 558.9 L
1188.57 558.9 L
1189.182 558.9 L
1189.795 558.9 L
1190.407 558.9 L
1191.019 558.9 L
1191.632 558.9 L
1192.244 558.9 L
1192.856 558.9 L
1193.469 558.9 L
1194.081 558.9 L
1194.693 558.9 L
1195.306 558.9 L
1195.918 558.9 L
1196.53 558.9 L
1197.143 558.9 L
1197.755 558.9 L
1198.367 558.9 L
1198.98 558.9 L
1199.592 558.9 L
1200.204 558.9 L
1200.817 540.413 L
1201.429 540.413 L
1202.041 540.413 L
1202.654 540.413 L
1203.266 540.413 L
1203.878 540.413 L
1204.491 540.413 L
1205.103 558.9 L
1205.715 558.9 L
1206.328 558.9 L
1206.94 558.9 L
1207.552 558.9 L
1208.165 558.9 L
1208.777 558.9 L
1209.389 558.9 L
1210.002 558.9 L
1210.614 558.9 L
1211.226 558.9 L
1211.839 558.9 L
1212.451 558.9 L
1213.063 558.9 L
1213.676 558.9 L
1214.288 558.9 L
1214.9 558.9 L
1215.513 558.9 L
1216.125 558.9 L
1216.737 558.9 L
1217.35 558.9 L
1217.962 558.9 L
1218.574 558.9 L
1219.187 558.9 L
1219.799 558.9 L
1220.411 558.9 L
1221.024 558.9 L
1221.636 558.9 L
1222.248 558.9 L
1222.861 558.9 L
1223.473 558.9 L
1224.085 558.9 L
1224.698 558.9 L
1225.31 558.9 L
1225.922 558.9 L
1226.535 558.9 L
1227.147 558.9 L
1227.759 558.9 L
1228.372 558.9 L
1228.984 558.9 L
1229.596 558.9 L
1230.209 558.9 L
1230.821 558.9 L
1231.433 558.9 L
1232.046 558.9 L
1232.658 558.9 L
1233.27 540.413 L
1233.883 540.413 L
1234.495 540.413 L
1235.107 540.413 L
1235.72 540.413 L
1236.332 540.413 L
1236.944 540.413 L
1237.557 558.9 L
1238.169 558.9 L
1238.781 558.9 L
1239.394 558.9 L
1240.006 558.9 L
1240.618 558.9 L
1241.231 558.9 L
1241.843 558.9 L
1242.455 558.9 L
1243.068 558.9 L
1243.68 558.9 L
1244.292 558.9 L
1244.905 558.9 L
1245.517 558.9 L
1246.129 558.9 L
1246.742 558.9 L
1247.354 558.9 L
1247.966 558.9 L
1248.579 558.9 L
1249.191 558.9 L
1249.803 540.413 L
1250.416 540.413 L
1251.028 540.413 L
1251.64 540.413 L
1252.253 540.413 L
1252.865 540.413 L
1253.477 540.413 L
1254.09 558.9 L
1254.702 558.9 L
1255.314 558.9 L
1255.927 558.9 L
1256.539 558.9 L
1257.151 558.9 L
1257.764 558.9 L
1258.376 558.9 L
1258.988 558.9 L
1259.601 558.9 L
1260.213 558.9 L
1260.825 558.9 L
1261.438 558.9 L
1262.05 558.9 L
1262.662 558.9 L
1263.275 558.9 L
1263.887 558.9 L
1264.499 558.9 L
1265.112 558.9 L
1265.724 558.9 L
1266.336 558.9 L
1266.949 558.9 L
1267.561 558.9 L
1268.173 558.9 L
1268.786 558.9 L
1269.398 558.9 L
1270.01 558.9 L
1270.623 558.9 L
1271.235 558.9 L
1271.847 558.9 L
1272.46 558.9 L
1273.072 558.9 L
1273.684 558.9 L
1274.297 540.413 L
1274.909 540.413 L
1275.521 540.413 L
1276.134 540.413 L
1276.746 540.413 L
1277.358 540.413 L
1277.971 540.413 L
1278.583 558.9 L
1279.195 558.9 L
1279.808 558.9 L
1280.42 558.9 L
1281.032 558.9 L
1281.645 558.9 L
1282.257 558.9 L
1282.869 558.9 L
1283.482 558.9 L
1284.094 558.9 L
1284.706 558.9 L
1285.319 558.9 L
1285.931 558.9 L
1286.543 558.9 L
1287.156 558.9 L
1287.768 558.9 L
1288.38 558.9 L
1288.993 558.9 L
1289.605 558.9 L
1290.217 558.9 L
1290.83 540.413 L
1291.442 540.413 L
1292.054 540.413 L
1292.667 540.413 L
1293.279 540.413 L
1293.891 540.413 L
1294.504 558.9 L
1295.116 558.9 L
1295.728 558.9 L
1296.341 558.9 L
1296.953 558.9 L
1297.565 558.9 L
1298.178 558.9 L
1298.79 558.9 L
1299.402 558.9 L
1300.015 558.9 L
1300.627 558.9 L
1301.239 558.9 L
1301.852 558.9 L
1302.464 558.9 L
1303.076 558.9 L
1303.689 558.9 L
1304.301 558.9 L
1304.913 558.9 L
1305.526 558.9 L
1306.138 558.9 L
1306.75 558.9 L
1307.363 558.9 L
1307.975 558.9 L
1308.587 558.9 L
1309.2 558.9 L
1309.812 558.9 L
1310.424 558.9 L
1311.037 558.9 L
1311.649 558.9 L
1312.261 558.9 L
1312.874 558.9 L
1313.486 558.9 L
1314.098 558.9 L
1314.711 558.9 L
1315.323 540.413 L
1315.935 540.413 L
1316.548 540.413 L
1317.16 540.413 L
1317.772 540.413 L
1318.385 540.413 L
1318.997 558.9 L
1319.609 558.9 L
1320.222 558.9 L
1320.834 558.9 L
1321.446 558.9 L
1322.059 558.9 L
1322.671 558.9 L
1323.283 558.9 L
1323.896 558.9 L
1324.508 558.9 L
1325.12 558.9 L
1325.733 558.9 L
1326.345 558.9 L
1326.957 558.9 L
1327.57 558.9 L
1328.182 558.9 L
1328.794 558.9 L
1329.407 558.9 L
1330.019 558.9 L
1330.631 558.9 L
1331.244 558.9 L
1331.856 558.9 L
1332.468 558.9 L
1333.081 558.9 L
1333.693 558.9 L
1334.305 558.9 L
1334.918 558.9 L
1335.53 558.9 L
1336.142 558.9 L
1336.755 558.9 L
1337.367 558.9 L
1337.979 558.9 L
1338.592 558.9 L
1339.204 558.9 L
1339.816 558.9 L
1340.429 558.9 L
1341.041 558.9 L
1341.653 558.9 L
1342.266 558.9 L
1342.878 558.9 L
1343.49 558.9 L
1344.103 558.9 L
1344.715 558.9 L
1345.327 558.9 L
1345.94 558.9 L
1346.552 558.9 L
1347.164 558.9 L
1347.777 558.9 L
1348.389 558.9 L
1349.001 558.9 L
1349.614 558.9 L
1350.226 558.9 L
1350.838 558.9 L
1351.451 558.9 L
1352.063 558.9 L
1352.675 558.9 L
1353.288 558.9 L
1353.9 558.9 L
1354.512 558.9 L
1355.125 558.9 L
1355.737 558.9 L
1356.349 558.9 L
1356.962 558.9 L
1357.574 558.9 L
1358.186 558.9 L
1358.799 558.9 L
1359.411 558.9 L
1360.023 558.9 L
1360.636 558.9 L
1361.248 558.9 L
1361.86 558.9 L
1362.473 558.9 L
1363.085 558.9 L
1363.697 558.9 L
1364.31 558.9 L
1364.922 558.9 L
1365.534 558.9 L
1366.147 558.9 L
1366.759 558.9 L
1367.371 558.9 L
1367.984 577.538 L
1368.596 577.538 L
1369.208 577.538 L
1369.821 577.538 L
1370.433 577.538 L
1371.045 577.538 L
1371.658 577.538 L
1372.27 558.9 L
1372.882 558.9 L
1373.495 558.9 L
1374.107 558.9 L
1374.719 558.9 L
1375.332 558.9 L
1375.944 558.9 L
1376.556 558.9 L
1377.169 558.9 L
1377.781 558.9 L
1378.393 558.9 L
1379.006 558.9 L
1379.618 558.9 L
1380.23 558.9 L
1380.843 558.9 L
1381.455 558.9 L
1382.067 558.9 L
1382.68 558.9 L
1383.292 558.9 L
1383.904 558.9 L
1384.517 558.9 L
1385.129 558.9 L
1385.741 558.9 L
1386.354 558.9 L
1386.966 558.9 L
1387.578 558.9 L
1388.191 558.9 L
1388.803 577.538 L
1389.415 577.538 L
1390.028 577.538 L
1390.64 577.538 L
1391.252 577.538 L
1391.865 577.538 L
1392.477 577.538 L
1393.089 558.9 L
1393.702 558.9 L
1394.314 558.9 L
1394.926 558.9 L
1395.539 558.9 L
1396.151 558.9 L
1396.763 558.9 L
1397.376 558.9 L
1397.988 558.9 L
1398.6 558.9 L
1399.213 558.9 L
1399.825 558.9 L
1400.437 558.9 L
1401.05 558.9 L
1401.662 558.9 L
1402.274 558.9 L
1402.887 558.9 L
1403.499 558.9 L
1404.111 558.9 L
1404.724 558.9 L
1405.336 540.413 L
1405.948 540.413 L
1406.561 540.413 L
1407.173 540.413 L
1407.785 540.413 L
1408.398 540.413 L
1409.01 558.9 L
1409.622 558.9 L
1410.235 558.9 L
1410.847 558.9 L
1411.459 558.9 L
1412.072 558.9 L
1412.684 558.9 L
1413.296 558.9 L
1413.909 558.9 L
1414.521 558.9 L
1415.133 558.9 L
1415.746 558.9 L
1416.358 558.9 L
1416.97 558.9 L
1417.583 558.9 L
1418.195 558.9 L
1418.807 558.9 L
1419.42 558.9 L
1420.032 558.9 L
1420.644 558.9 L
1421.257 540.413 L
1421.869 540.413 L
1422.481 540.413 L
1423.094 540.413 L
1423.706 540.413 L
1424.318 540.413 L
1424.931 540.413 L
1425.543 558.9 L
1426.155 558.9 L
1426.768 558.9 L
1427.38 558.9 L
1427.992 558.9 L
1428.605 558.9 L
1429.217 558.9 L
1429.829 558.9 L
1430.442 558.9 L
1431.054 558.9 L
1431.666 558.9 L
1432.279 558.9 L
1432.891 558.9 L
1433.503 540.413 L
1434.116 540.413 L
1434.728 540.413 L
1435.34 540.413 L
1435.953 540.413 L
1436.565 540.413 L
1437.177 540.413 L
1437.79 558.9 L
1438.402 558.9 L
1439.014 558.9 L
1439.627 558.9 L
1440.239 558.9 L
1440.851 558.9 L
1441.464 558.9 L
1442.076 558.9 L
1442.688 558.9 L
1443.301 558.9 L
1443.913 558.9 L
1444.525 558.9 L
1445.138 558.9 L
1445.75 540.413 L
1446.362 540.413 L
1446.975 540.413 L
1447.587 540.413 L
1448.199 540.413 L
1448.812 540.413 L
1449.424 540.413 L
1450.036 558.9 L
1450.649 558.9 L
1451.261 558.9 L
1451.873 558.9 L
1452.486 558.9 L
1453.098 558.9 L
1453.71 558.9 L
1454.323 558.9 L
1454.935 558.9 L
1455.547 558.9 L
1456.16 558.9 L
1456.772 558.9 L
1457.384 558.9 L
1457.997 558.9 L
1458.609 558.9 L
1459.221 558.9 L
1459.834 558.9 L
1460.446 558.9 L
1461.058 558.9 L
1461.671 558.9 L
1462.283 558.9 L
1462.895 558.9 L
1463.508 558.9 L
1464.12 558.9 L
1464.732 558.9 L
1465.345 558.9 L
1465.957 558.9 L
1466.569 540.413 L
1467.182 540.413 L
1467.794 540.413 L
1468.406 540.413 L
1469.019 540.413 L
1469.631 540.413 L
1470.243 558.9 L
1470.856 558.9 L
1471.468 558.9 L
1472.08 558.9 L
1472.693 558.9 L
1473.305 558.9 L
1473.917 558.9 L
1474.53 558.9 L
1475.142 558.9 L
1475.754 558.9 L
1476.367 558.9 L
1476.979 558.9 L
1477.591 558.9 L
1478.204 558.9 L
1478.816 558.9 L
1479.428 558.9 L
1480.041 558.9 L
1480.653 558.9 L
1481.265 558.9 L
1481.878 558.9 L
1482.49 540.413 L
1483.102 540.413 L
1483.715 540.413 L
1484.327 540.413 L
1484.939 540.413 L
1485.552 540.413 L
1486.164 540.413 L
1486.776 558.9 L
1487.389 558.9 L
1488.001 558.9 L
1488.613 558.9 L
1489.226 558.9 L
1489.838 558.9 L
1490.45 558.9 L
1491.063 558.9 L
1491.675 558.9 L
1492.287 558.9 L
1492.9 558.9 L
1493.512 558.9 L
1494.124 558.9 L
1494.737 540.413 L
1495.349 540.413 L
1495.961 540.413 L
1496.574 540.413 L
1497.186 540.413 L
1497.798 540.413 L
1498.411 540.413 L
1499.023 558.9 L
1499.635 558.9 L
1500.248 558.9 L
1500.86 558.9 L
1501.472 558.9 L
1502.085 558.9 L
1502.697 558.9 L
1503.309 558.9 L
1503.922 558.9 L
1504.534 558.9 L
1505.146 558.9 L
1505.759 558.9 L
1506.371 558.9 L
1506.983 558.9 L
1507.596 558.9 L
1508.208 558.9 L
1508.82 558.9 L
1509.433 558.9 L
1510.045 558.9 L
1510.657 558.9 L
1511.27 558.9 L
1511.882 558.9 L
1512.494 558.9 L
1513.107 558.9 L
1513.719 558.9 L
1514.331 558.9 L
1514.944 558.9 L
1515.556 558.9 L
1516.168 558.9 L
1516.781 558.9 L
1517.393 558.9 L
1518.005 558.9 L
1518.618 558.9 L
1519.23 540.413 L
1519.842 540.413 L
1520.455 540.413 L
1521.067 540.413 L
1521.679 540.413 L
1522.292 540.413 L
1522.904 540.413 L
1523.516 558.9 L
1524.129 558.9 L
1524.741 558.9 L
1525.353 558.9 L
1525.966 558.9 L
1526.578 558.9 L
1527.19 558.9 L
1527.803 558.9 L
1528.415 558.9 L
1529.027 558.9 L
1529.64 558.9 L
1530.252 558.9 L
1530.864 558.9 L
1531.477 558.9 L
1532.089 558.9 L
1532.701 558.9 L
1533.314 558.9 L
1533.926 558.9 L
1534.538 558.9 L
1535.151 558.9 L
1535.763 558.9 L
1536.375 558.9 L
1536.988 558.9 L
1537.6 558.9 L
1538.212 558.9 L
1538.825 558.9 L
1539.437 558.9 L
1540.049 540.413 L
1540.662 540.413 L
1541.274 540.413 L
1541.886 540.413 L
1542.499 540.413 L
1543.111 540.413 L
1543.723 558.9 L
1544.336 558.9 L
1544.948 558.9 L
1545.56 558.9 L
1546.173 558.9 L
1546.785 558.9 L
1547.397 558.9 L
1548.01 558.9 L
1548.622 558.9 L
1549.234 558.9 L
1549.847 558.9 L
1550.459 558.9 L
1551.071 558.9 L
1551.684 558.9 L
1552.296 558.9 L
1552.908 558.9 L
1553.521 558.9 L
1554.133 558.9 L
1554.745 558.9 L
1555.358 558.9 L
1555.97 540.413 L
1556.582 540.413 L
1557.195 540.413 L
1557.807 540.413 L
1558.419 540.413 L
1559.032 540.413 L
1559.644 540.413 L
1560.256 558.9 L
1560.869 558.9 L
1561.481 558.9 L
1562.093 558.9 L
1562.706 558.9 L
1563.318 558.9 L
1563.93 558.9 L
1564.543 558.9 L
1565.155 558.9 L
1565.767 558.9 L
1566.38 558.9 L
1566.992 558.9 L
1567.604 558.9 L
1568.217 540.413 L
1568.829 540.413 L
1569.441 540.413 L
1570.054 540.413 L
1570.666 540.413 L
1571.278 540.413 L
1571.891 540.413 L
1572.503 558.9 L
1573.115 558.9 L
1573.728 558.9 L
1574.34 558.9 L
1574.952 558.9 L
1575.565 558.9 L
1576.177 558.9 L
1576.789 558.9 L
1577.402 558.9 L
1578.014 558.9 L
1578.626 558.9 L
1579.239 558.9 L
1579.851 558.9 L
1580.463 558.9 L
1581.076 558.9 L
1581.688 558.9 L
1582.3 558.9 L
1582.913 558.9 L
1583.525 558.9 L
1584.137 558.9 L
1584.75 558.9 L
1585.362 558.9 L
1585.974 558.9 L
1586.587 558.9 L
1587.199 558.9 L
1587.811 558.9 L
1588.424 558.9 L
1589.036 558.9 L
1589.648 558.9 L
1590.261 558.9 L
1590.873 558.9 L
1591.485 558.9 L
1592.098 558.9 L
1592.71 540.413 L
1593.322 540.413 L
1593.935 540.413 L
1594.547 540.413 L
1595.159 540.413 L
1595.772 540.413 L
1596.384 540.413 L
1596.996 558.9 L
1597.609 558.9 L
1598.221 558.9 L
1598.833 558.9 L
1599.446 558.9 L
1600.058 558.9 L
1600.67 558.9 L
1601.283 558.9 L
1601.895 558.9 L
1602.507 558.9 L
1603.12 558.9 L
1603.732 558.9 L
1604.344 558.9 L
1604.957 558.9 L
1605.569 558.9 L
1606.181 558.9 L
1606.794 558.9 L
1607.406 558.9 L
1608.018 558.9 L
1608.631 558.9 L
1609.243 558.9 L
1609.855 558.9 L
1610.468 558.9 L
1611.08 558.9 L
1611.692 558.9 L
1612.305 558.9 L
1612.917 558.9 L
1613.529 540.413 L
1614.142 540.413 L
1614.754 540.413 L
1615.366 540.413 L
1615.979 540.413 L
1616.591 540.413 L
1617.203 558.9 L
1617.816 558.9 L
1618.428 558.9 L
1619.04 558.9 L
1619.653 558.9 L
1620.265 558.9 L
1620.877 558.9 L
1621.49 558.9 L
1622.102 558.9 L
1622.714 558.9 L
1623.327 558.9 L
1623.939 558.9 L
1624.551 558.9 L
1625.164 558.9 L
1625.776 558.9 L
1626.388 558.9 L
1627.001 558.9 L
1627.613 558.9 L
1628.225 558.9 L
1628.838 558.9 L
1629.45 558.9 L
1630.062 558.9 L
1630.675 558.9 L
1631.287 558.9 L
1631.899 558.9 L
1632.512 558.9 L
1633.124 558.9 L
1633.736 558.9 L
1634.349 558.9 L
1634.961 558.9 L
1635.573 558.9 L
1636.186 558.9 L
1636.798 558.9 L
1637.41 558.9 L
1638.023 558.9 L
1638.635 558.9 L
1639.247 558.9 L
1639.86 558.9 L
1640.472 558.9 L
1641.084 558.9 L
1641.697 558.9 L
1642.309 558.9 L
1642.921 558.9 L
1643.534 558.9 L
1644.146 558.9 L
1644.758 558.9 L
1645.371 558.9 L
1645.983 558.9 L
1646.595 558.9 L
1647.208 558.9 L
1647.82 558.9 L
1648.432 558.9 L
1649.045 558.9 L
1649.657 558.9 L
1650.269 558.9 L
1650.882 558.9 L
1651.494 558.9 L
1652.106 558.9 L
1652.719 558.9 L
1653.331 558.9 L
1653.943 558.9 L
1654.556 558.9 L
1655.168 558.9 L
1655.78 558.9 L
1656.393 558.9 L
1657.005 558.9 L
1657.617 558.9 L
1658.23 558.9 L
1658.842 558.9 L
1659.454 558.9 L
1660.067 558.9 L
1660.679 558.9 L
1661.291 558.9 L
1661.904 558.9 L
1662.516 558.9 L
1663.128 558.9 L
1663.741 558.9 L
1664.353 558.9 L
1664.965 558.9 L
1665.578 558.9 L
1666.19 558.9 L
1666.802 558.9 L
1667.415 558.9 L
1668.027 558.9 L
1668.639 558.9 L
1669.252 558.9 L
1669.864 558.9 L
1670.476 558.9 L
1671.089 558.9 L
1671.701 558.9 L
1672.313 558.9 L
1672.926 558.9 L
1673.538 558.9 L
1674.15 558.9 L
1674.763 558.9 L
1675.375 558.9 L
1675.987 558.9 L
1676.6 558.9 L
1677.212 558.9 L
1677.824 558.9 L
1678.437 558.9 L
1679.049 558.9 L
1679.661 558.9 L
1680.274 558.9 L
1680.886 558.9 L
1681.498 558.9 L
1682.111 558.9 L
1682.723 558.9 L
1683.335 558.9 L
1683.948 558.9 L
1684.56 558.9 L
1685.172 558.9 L
1685.785 558.9 L
1686.397 558.9 L
1687.009 558.9 L
1687.622 558.9 L
1688.234 558.9 L
1688.846 558.9 L
1689.459 558.9 L
1690.071 558.9 L
1690.683 540.413 L
1691.296 540.413 L
1691.908 540.413 L
1692.52 540.413 L
1693.133 540.413 L
1693.745 540.413 L
1694.357 540.413 L
1694.97 558.9 L
1695.582 558.9 L
1696.194 558.9 L
1696.807 558.9 L
1697.419 558.9 L
1698.031 558.9 L
1698.644 558.9 L
1699.256 558.9 L
1699.868 558.9 L
1700.481 558.9 L
1701.093 558.9 L
1701.705 558.9 L
1702.318 558.9 L
1702.93 558.9 L
1703.542 558.9 L
1704.155 558.9 L
1704.767 558.9 L
1705.379 558.9 L
1705.992 558.9 L
1706.604 558.9 L
1707.216 558.9 L
1707.829 558.9 L
1708.441 558.9 L
1709.053 558.9 L
1709.666 558.9 L
1710.278 558.9 L
1710.89 558.9 L
1711.503 558.9 L
1712.115 558.9 L
1712.727 558.9 L
1713.34 558.9 L
1713.952 558.9 L
1714.564 558.9 L
1715.177 558.9 L
1715.789 558.9 L
1716.401 558.9 L
1717.014 558.9 L
1717.626 558.9 L
1718.238 558.9 L
1718.851 558.9 L
1719.463 558.9 L
1720.075 558.9 L
1720.688 558.9 L
1721.3 558.9 L
1721.912 558.9 L
1722.525 558.9 L
1723.137 558.9 L
1723.749 540.413 L
1724.362 540.413 L
1724.974 540.413 L
1725.586 540.413 L
1726.199 540.413 L
1726.811 540.413 L
1727.423 558.9 L
1728.036 558.9 L
1728.648 558.9 L
1729.26 558.9 L
1729.873 558.9 L
1730.485 558.9 L
1731.097 558.9 L
1731.71 558.9 L
1732.322 558.9 L
1732.934 558.9 L
1733.547 558.9 L
1734.159 558.9 L
1734.771 558.9 L
1735.384 558.9 L
1735.996 558.9 L
1736.608 558.9 L
1737.221 558.9 L
1737.833 558.9 L
1738.445 558.9 L
1739.058 558.9 L
1739.67 558.9 L
1740.282 558.9 L
1740.895 558.9 L
1741.507 558.9 L
1742.119 558.9 L
1742.732 558.9 L
1743.344 558.9 L
1743.956 558.9 L
1744.569 558.9 L
1745.181 558.9 L
1745.793 558.9 L
1746.406 558.9 L
1747.018 558.9 L
1747.63 558.9 L
1748.243 558.9 L
1748.855 558.9 L
1749.467 558.9 L
1750.08 558.9 L
1750.692 558.9 L
1751.304 558.9 L
1751.917 558.9 L
1752.529 558.9 L
1753.141 558.9 L
1753.754 558.9 L
1754.366 558.9 L
1754.978 558.9 L
1755.591 558.9 L
1756.203 558.9 L
1756.815 558.9 L
1757.428 558.9 L
1758.04 558.9 L
1758.652 558.9 L
1759.265 558.9 L
1759.877 558.9 L
1760.489 540.413 L
1761.102 540.413 L
1761.714 540.413 L
1762.326 540.413 L
1762.939 540.413 L
1763.551 540.413 L
1764.163 540.413 L
1764.776 558.9 L
1765.388 558.9 L
1766 558.9 L
1766.613 558.9 L
1767.225 558.9 L
1767.837 558.9 L
1768.45 558.9 L
1769.062 558.9 L
1769.674 558.9 L
1770.287 558.9 L
1770.899 558.9 L
1771.511 558.9 L
1772.124 558.9 L
1772.736 558.9 L
1773.348 558.9 L
1773.961 558.9 L
1774.573 558.9 L
1775.185 558.9 L
1775.798 558.9 L
1776.41 558.9 L
1777.022 558.9 L
1777.635 558.9 L
1778.247 558.9 L
1778.859 558.9 L
1779.472 558.9 L
1780.084 558.9 L
1780.696 558.9 L
1781.309 558.9 L
1781.921 558.9 L
1782.533 558.9 L
1783.146 558.9 L
1783.758 558.9 L
1784.37 558.9 L
1784.983 558.9 L
1785.595 558.9 L
1786.207 558.9 L
1786.82 558.9 L
1787.432 558.9 L
1788.044 558.9 L
1788.657 558.9 L
1789.269 558.9 L
1789.881 558.9 L
1790.494 558.9 L
1791.106 558.9 L
1791.718 558.9 L
1792.331 558.9 L
1792.943 558.9 L
1793.555 558.9 L
1794.168 558.9 L
1794.78 558.9 L
1795.392 558.9 L
1796.005 558.9 L
1796.617 558.9 L
1797.229 558.9 L
1797.842 558.9 L
1798.454 558.9 L
1799.066 558.9 L
1799.679 558.9 L
1800.291 558.9 L
1800.903 558.9 L
1801.516 540.413 L
1802.128 540.413 L
1802.74 540.413 L
1803.353 540.413 L
1803.965 540.413 L
1804.577 540.413 L
1805.19 558.9 L
1805.802 558.9 L
1806.414 558.9 L
1807.027 558.9 L
1807.639 558.9 L
1808.251 558.9 L
1808.864 558.9 L
1809.476 558.9 L
1810.088 558.9 L
1810.701 558.9 L
1811.313 558.9 L
1811.925 558.9 L
1812.538 558.9 L
1813.15 558.9 L
1813.762 540.413 L
1814.375 540.413 L
1814.987 540.413 L
1815.599 540.413 L
1816.212 540.413 L
1816.824 540.413 L
1817.436 558.9 L
1818.049 558.9 L
1818.661 558.9 L
1819.273 558.9 L
1819.886 558.9 L
1820.498 558.9 L
1821.11 558.9 L
1821.723 558.9 L
1822.335 558.9 L
1822.947 558.9 L
1823.56 558.9 L
1824.172 558.9 L
1824.784 558.9 L
1825.397 558.9 L
1826.009 558.9 L
1826.621 558.9 L
1827.234 558.9 L
1827.846 558.9 L
1828.458 558.9 L
1829.071 558.9 L
1829.683 558.9 L
1830.295 558.9 L
1830.908 558.9 L
1831.52 558.9 L
1832.132 558.9 L
1832.745 558.9 L
1833.357 558.9 L
1833.969 558.9 L
1834.582 558.9 L
1835.194 558.9 L
1835.806 558.9 L
1836.419 558.9 L
1837.031 558.9 L
1837.643 558.9 L
1838.256 558.9 L
1838.868 558.9 L
1839.48 558.9 L
1840.093 558.9 L
1840.705 558.9 L
1841.317 558.9 L
1841.93 558.9 L
1842.542 558.9 L
1843.154 558.9 L
1843.767 558.9 L
1844.379 558.9 L
1844.991 558.9 L
1845.604 558.9 L
1846.216 558.9 L
1846.828 558.9 L
1847.441 558.9 L
1848.053 558.9 L
1848.665 558.9 L
1849.278 558.9 L
1849.89 558.9 L
1850.502 540.413 L
1851.115 540.413 L
1851.727 540.413 L
1852.339 540.413 L
1852.952 540.413 L
1853.564 540.413 L
1854.176 558.9 L
1854.789 558.9 L
1855.401 558.9 L
1856.013 558.9 L
1856.626 558.9 L
1857.238 558.9 L
1857.85 558.9 L
1858.463 558.9 L
1859.075 558.9 L
1859.687 558.9 L
1860.3 558.9 L
1860.912 558.9 L
1861.524 558.9 L
1862.137 558.9 L
1862.749 558.9 L
1863.361 558.9 L
1863.974 558.9 L
1864.586 558.9 L
1865.198 558.9 L
1865.811 558.9 L
1866.423 558.9 L
1867.035 558.9 L
1867.648 558.9 L
1868.26 558.9 L
1868.872 558.9 L
1869.485 558.9 L
1870.097 558.9 L
1870.709 540.413 L
1871.322 540.413 L
1871.934 540.413 L
1872.546 540.413 L
1873.159 540.413 L
1873.771 540.413 L
1874.383 540.413 L
1874.996 558.9 L
1875.608 558.9 L
1876.22 558.9 L
1876.833 558.9 L
1877.445 558.9 L
1878.057 558.9 L
1878.67 558.9 L
1879.282 558.9 L
1879.894 558.9 L
1880.507 558.9 L
1881.119 558.9 L
1881.731 558.9 L
1882.344 558.9 L
1882.956 558.9 L
1883.568 558.9 L
1884.181 558.9 L
1884.793 558.9 L
1885.405 558.9 L
1886.018 558.9 L
1886.63 558.9 L
1887.242 540.413 L
1887.855 540.413 L
1888.467 540.413 L
1889.079 540.413 L
1889.692 540.413 L
1890.304 540.413 L
1890.916 558.9 L
1891.529 558.9 L
1892.141 558.9 L
1892.753 558.9 L
1893.366 558.9 L
1893.978 558.9 L
1894.59 558.9 L
1895.203 558.9 L
1895.815 558.9 L
1896.427 558.9 L
1897.04 558.9 L
1897.652 558.9 L
1898.264 558.9 L
1898.877 558.9 L
1899.489 540.413 L
1900.101 540.413 L
1900.714 540.413 L
1901.326 540.413 L
1901.938 540.413 L
1902.551 540.413 L
1903.163 558.9 L
1903.775 558.9 L
1904.388 558.9 L
1905 558.9 L
S
GR
%%Trailer
%%Pages: 1
%%EOF
