59463
59463
59463
59463
59463
59463
59463
59463
59463
59463
59463
59463
59463
59463
59463
59463
59463
59463
59463
59463
59463
59463
59463
59463
59463
59463
59463
59463
59463
59463
59463
59463
59463
59463
59463
59463
59463
59463
59463
59463
59463
59463
59463
59463
59463
59463
59463
59463
59463
59463
59463
59463
59463
59463
59463
59463
59463
59463
59463
59463
59463
59463
59463
59463
59463
59463
59463
59463
59463
59463
59463
59463
59463
59463
59463
59463
59463
59463
59463
59463
59463
59463
59463
59463
59463
59463
59463
59463
59463
59463
59463
59463
59463
59463
59463
59463
59463
59463
59463
59463
59463
59463
59463
59463
59463
59463
59463
59463
59463
59463
59463
59463
59463
59463
59463
59463
59463
59463
59463
59463
59463
59463
59463
59463
59463
59463
59463
59463
59463
59463
59463
59463
59463
59463
59463
59463
59463
59463
59463
59463
59463
59463
59463
59463
59463
59463
59463
59463
59463
59463
59463
59463
59463
59463
59463
59463
59463
59463
59463
59463
59463
59463
59463
59463
59463
59463
59463
59463
59463
59463
59463
59463
59463
59463
59463
59463
59463
59463
59463
59463
59463
59463
59463
59463
59463
59463
59463
59463
59463
59463
59463
59463
59463
59463
59463
59463
59463
59463
59463
59463
59463
59463
59463
59463
59463
59463
59463
59463
59463
59463
59463
59463
59463
59463
59463
59463
59463
59463
59463
59463
59463
59463
59463
59463
59463
59463
59463
59463
59463
59463
59463
59463
59463
59463
59463
59463
59463
59463
59463
59463
59463
59463
59463
59463
59463
59463
59463
59463
59463
59463
59463
59463
59463
59463
59463
59463
59463
59463
59463
59463
59463
59463
59463
59463
59463
59463
59463
59463
59463
59463
59463
59463
59463
59463
59463
59463
59463
59463
59463
59463
59463
59463
59463
59463
59463
59463
59463
59463
59463
59463
59463
59463
59463
59463
59463
59463
59463
59463
59463
59463
59463
59463
59463
59463
59463
59463
59463
59463
59463
59463
59463
59463
59463
59463
59463
59463
59463
59463
59463
59463
59463
59463
59463
59463
59463
59463
59463
59463
59463
59463
59463
59463
59463
59463
59463
59463
59463
59463
59463
59463
59463
59463
59463
59463
59463
59463
59463
59463
59463
59463
59463
59463
59463
59463
59463
59463
59463
59463
59463
59463
59463
59463
59463
59463
59463
59463
59463
59463
59463
59463
59463
59463
59463
59463
59463
59463
59463
59463
59463
59463
59463
59463
59463
59463
59463
59463
59463
59463
59463
59463
59463
59463
59463
59463
59463
59463
59463
59463
59463
59463
59463
59463
59463
59463
59463
59463
59463
59463
59463
59463
59463
59463
59463
59463
59463
59463
59463
59463
59463
59463
59463
59463
59463
59463
59463
59463
59463
59463
59463
59463
59463
59463
59463
59463
59463
59463
59463
59463
59463
59463
59463
59463
59463
59463
59463
59463
59463
59463
59463
59463
59463
59463
59463
59463
59463
59463
59463
59463
59463
59463
59463
59463
59463
59463
59463
59463
59463
59463
59463
59463
59463
59463
59463
59463
59463
59463
59463
59463
59463
59463
59463
59463
59463
59463
59463
59463
59463
59463
59463
59463
59463
59463
59463
59463
59463
59463
59463
59463
59463
59463
59463
59463
59463
59463
59463
59463
59463
59463
59463
59463
59463
59463
59463
59463
59463
59463
59463
59463
59463
59463
59463
59463
59463
59463
59463
59463
59463
59463
59463
59463
59463
59463
59463
59463
59463
59463
59463
59463
59463
59463
59463
59463
59463
59463
59463
59463
59463
59463
59463
59463
59463
59463
59463
59463
59463
59463
59463
59463
59463
59463
59463
59463
59463
59463
59463
59463
59463
59463
59463
59463
59463
59463
59463
59463
59463
59463
59463
59463
59463
59463
59463
59463
59463
59463
59463
59463
59463
59463
59463
59463
59463
59463
59463
59463
59463
59463
59463
59463
59463
59463
59463
59463
59463
59463
59463
59463
59463
59463
59463
59463
59463
59463
59463
59463
59463
59463
59463
59463
59463
59463
59463
59463
59463
59463
59463
59463
59463
59463
59463
59463
59463
59463
59463
59463
59463
59463
59463
59463
59463
59463
59463
59463
59463
59463
59463
59463
59463
59463
59463
59463
59463
59463
59463
59463
59463
59463
59463
59463
59463
59463
59463
59463
59463
59463
59463
59463
59463
59463
59463
59463
59463
59463
59463
59463
59463
59463
59463
59463
59463
59463
59463
59463
59463
59463
59463
59463
59463
59463
59463
59463
59463
59463
59463
59463
59463
59463
59463
59463
59463
59463
59463
59463
59463
59463
59463
59463
59463
59463
59463
59463
59463
59463
59463
59463
59463
59463
59463
59463
59463
59463
59463
59463
59463
59463
59463
59463
59463
59463
59463
59463
59463
59463
59463
59463
59463
59463
59463
59463
59463
59463
59463
59463
59463
59463
59463
59463
59463
59463
59463
59463
59463
59463
59463
59463
59463
59463
59463
59463
59463
59463
59463
59463
59463
59463
59463
59463
59463
59463
59463
59463
59463
59463
59463
59463
59463
59463
59463
59463
59463
59463
59463
59463
59463
59463
59463
59463
59463
59463
59463
59463
59463
59463
59463
59463
59463
59463
59463
59463
59463
59463
59463
59463
59463
59463
59463
59463
59463
59463
59463
59463
59463
59463
59463
59463
59463
59463
59463
59463
59463
59463
59463
59463
59463
59463
59463
59463
59463
59463
59463
59463
59463
59463
59463
59463
59463
59463
59463
59463
59463
59463
59463
59463
59463
59463
59463
59463
59463
59463
59463
59463
59463
59463
59463
59463
59463
59463
59463
59463
59463
59463
59463
59463
59463
59463
59463
59463
59463
59463
59463
59463
59463
59463
59463
59463
59463
59463
59463
59463
59463
59463
59463
59463
59463
59463
59463
59463
59463
59463
59463
59463
59463
59463
59463
59463
59463
59463
59463
59463
59463
59463
59463
59463
59463
59463
59463
59463
59463
59463
59463
59463
59463
59463
59463
59463
59463
59463
59463
59463
59463
59463
59463
59463
59463
59463
59463
59463
59463
59463
59463
59463
59463
59463
59463
59463
59463
59463
59463
59463
59463
59463
59463
59463
59463
59463
59463
59463
59463
59463
59463
59463
59463
59463
59463
59463
59463
59463
59463
59463
59463
59463
59463
59463
59463
59463
59463
59463
59463
59463
59463
59463
59463
59463
59463
59463
59463
59463
59463
59463
59463
59463
59463
59463
59463
59463
59463
59463
59463
59463
59463
59463
59463
59463
59463
59463
59463
59463
59463
59463
59463
59463
59463
59463
59463
59463
59463
59463
59463
59463
59463
59463
59463
59463
59463
59463
59463
59463
59463
59463
59463
59463
59463
59463
59463
59463
59463
59463
59463
59463
59463
59463
59463
59463
59463
59463
59463
59463
59463
59463
59463
59463
59463
59463
59463
59463
59463
59463
59463
59463
59463
59463
59463
59463
59463
59463
59463
59463
59463
59463
59463
59463
59463
59463
59463
59463
59463
59463
59463
59463
59463
59463
59463
59463
59463
59463
59463
59463
59463
59463
59463
59463
59463
59463
59463
59463
59463
59463
59463
59463
59463
59463
59463
59463
59463
59463
59463
59463
59463
59463
59463
59463
59463
59463
59463
59463
59463
59463
59463
59463
59463
59463
59463
59463
59463
59463
59463
59463
59463
59463
59463
59463
59463
59463
59463
59463
59463
59463
59463
59463
59463
59463
59463
59463
59463
59463
59463
59463
59463
59463
59463
59463
59463
59463
59463
59463
59463
59463
59463
59463
59463
59463
59463
59463
59463
59463
59463
59463
59463
59463
59463
59463
59463
59463
59463
59463
59463
59463
59463
59463
59463
59463
59463
59463
59463
59463
59463
59463
59463
59463
59463
59463
59463
59463
59463
59463
59463
59463
59463
59463
59463
59463
59463
59463
59463
59463
59463
59463
59463
59463
59463
59463
59463
59463
59463
59463
59463
59463
59463
59463
59463
59463
59463
59463
59463
59463
59463
59463
59463
59463
59463
59463
59463
59463
59463
59463
59463
59463
59463
59463
59463
59463
59463
59463
59463
59463
59463
59463
59463
59463
59463
59463
59463
59463
59463
59463
59463
59463
59463
59463
59463
59463
59463
59463
59463
59463
59463
59463
59463
59463
59463
59463
59463
59463
59463
59463
59463
59463
59463
59463
59463
59463
59463
59463
59463
59463
59463
59463
59463
59463
59463
59463
59463
59463
59463
59463
59463
59463
59463
59463
59463
59463
59463
59463
59463
59463
59463
59463
59463
59463
59463
59463
59463
59463
59463
59463
59463
59463
59463
59463
59463
59463
59463
59463
59463
59463
59463
59463
59463
59463
59463
59463
59463
59463
59463
59463
59463
59463
59463
59463
59463
59463
59463
59463
59463
59463
59463
59463
59463
59463
59463
59463
59463
59463
59463
59463
59463
59463
59463
59463
59463
59463
59463
59463
59463
59463
59463
59463
59463
59463
59463
59463
59463
59463
59463
59463
59463
59463
59463
59463
59463
59463
59463
59463
59463
59463
59463
59463
59463
59463
59463
59463
59463
59463
59463
59463
59463
59463
59463
59463
59463
59463
59463
59463
59463
59463
59463
59463
59463
59463
59463
59463
59463
59463
59463
59463
59463
59463
59463
59463
59463
59463
59463
59463
59463
59463
59463
59463
59463
59463
59463
59463
59463
59463
59463
59463
59463
59463
59463
59463
59463
59463
59463
59463
59463
59463
59463
59463
59463
59463
59463
59463
59463
59463
59463
59463
59463
59463
59463
59463
59463
59463
59463
59463
59463
59463
59463
59463
59463
59463
59463
59463
59463
59463
59463
59463
59463
59463
59463
59463
59463
59463
59463
59463
59463
59463
59463
59463
59463
59463
59463
59463
59463
59463
59463
59463
59463
59463
59463
59463
59463
59463
59463
59463
59463
59463
59463
59463
59463
59463
59463
59463
59463
59463
59463
59463
59463
59463
59463
59463
59463
59463
59463
59463
59463
59463
59463
59463
59463
59463
59463
59463
59463
59463
59463
59463
59463
59463
59463
59463
59463
59463
59463
59463
59463
59463
59463
59463
59463
59463
59463
59463
59463
59463
59463
59463
59463
59463
59463
59463
59463
59463
59463
59463
59463
59463
59463
59463
59463
59463
59463
59463
59463
59463
59463
59463
59463
59463
59463
59463
59463
59463
59463
59463
59463
59463
59463
59463
59463
59463
59463
59463
59463
59463
59463
59463
59463
59463
59463
59463
59463
59463
59463
59463
59463
59463
59463
59463
59463
59463
59463
59463
59463
59463
59463
59463
59463
59463
59463
59463
59463
59463
59463
59463
59463
59463
59463
59463
59463
59463
59463
59463
59463
59463
59463
59463
59463
59463
59463
59463
59463
59463
59463
59463
59463
59463
59463
59463
59463
59463
59463
59463
59463
59463
59463
59463
59463
59463
59463
59463
59463
59463
59463
59463
59463
59463
59463
59463
59463
59463
59463
59463
59463
59463
59463
59463
59463
59463
59463
59463
59463
59463
59463
59463
59463
59463
59463
59463
59463
59463
59463
59463
59463
59463
59463
59463
59463
59463
59463
59463
59463
59463
59463
59463
59463
59463
59463
59463
59463
59463
59463
59463
59463
59463
59463
59463
59463
59463
59463
59463
59463
59463
59463
59463
59463
59463
59463
59463
59463
59463
59463
59463
59463
59463
59463
59463
59463
59463
59463
59463
59463
59463
59463
59463
59463
59463
59463
59463
59463
59463
59463
59463
59463
59463
59463
59463
59463
59463
59463
59463
59463
59463
59463
59463
59463
59463
59463
59463
59463
59463
59463
59463
59463
59463
59463
59463
59463
59463
59463
59463
59463
59463
59463
59463
59463
59463
59463
59463
59463
59463
59463
59463
59463
59463
59463
59463
59463
59463
59463
59463
59463
59463
59463
59463
59463
59463
59463
59463
59463
59463
59463
59463
59463
59463
59463
59463
59463
59463
59463
59463
59463
59463
59463
59463
59463
59463
59463
59463
59463
59463
59463
59463
59463
59463
59463
59463
59463
59463
59463
59463
59463
59463
59463
59463
59463
59463
59463
59463
59463
59463
59463
59463
59463
59463
59463
59463
59463
59463
59463
59463
59463
59463
59463
59463
59463
59463
59463
59463
59463
59463
59463
59463
59463
59463
59463
59463
59463
59463
59463
59463
59463
59463
59463
59463
59463
59463
59463
59463
59463
59463
59463
59463
59463
59463
59463
59463
59463
59463
59463
59463
59463
59463
59463
59463
59463
59463
59463
59463
59463
59463
59463
59463
59463
59463
59463
59463
59463
59463
59463
59463
59463
59463
59463
59463
59463
59463
59463
59463
59463
59463
59463
59463
59463
59463
59463
59463
59463
59463
59463
59463
59463
59463
59463
59463
59463
59463
59463
59463
59463
59463
59463
59463
59463
59463
59463
59463
59463
59463
59463
59463
59463
59463
59463
59463
59463
59463
59463
59463
59463
59463
59463
59463
59463
59463
59463
59463
59463
59463
59463
59463
59463
59463
59463
59463
59463
59463
59463
59463
59463
59463
59463
59463
59463
59463
59463
59463
59463
59463
59463
59463
59463
59463
59463
59463
59463
59463
59463
59463
59463
59463
59463
59463
59463
59463
59463
59463
59463
59463
59463
59463
59463
59463
59463
59463
59463
59463
59463
59463
59463
59463
59463
59463
59463
59463
59463
59463
59463
59463
59463
59463
59463
59463
59463
59463
59463
59463
59463
59463
59463
59463
59463
59463
59463
59463
59463
59463
59463
59463
59463
59463
59463
59463
59463
59463
59463
59463
59463
59463
59463
59463
59463
59463
59463
59463
59463
59463
59463
59463
59463
59463
59463
59463
59463
59463
59463
59463
59463
59463
59463
59463
59463
59463
59463
59463
59463
59463
59463
59463
59463
59463
59463
59463
59463
59463
59463
59463
59463
59463
59463
59463
59463
59463
59463
59463
59463
59463
59463
59463
59463
59463
59463
59463
59463
59463
59463
59463
59463
59463
59463
59463
59463
59463
59463
59463
59463
59463
59463
59463
59463
59463
59463
59463
59463
59463
59463
59463
59463
59463
59463
59463
59463
59463
59463
59463
59463
59463
59463
59463
59463
59463
59463
59463
59463
59463
59463
59463
59463
59463
59463
59463
59463
59463
59463
59463
59463
59463
59463
59463
59463
59463
59463
59463
59463
59463
59463
59463
59463
59463
59463
59463
59463
59463
59463
59463
59463
59463
59463
59463
59463
59463
59463
59463
59463
59463
59463
59463
59463
59463
59463
59463
59463
59463
59463
59463
59463
59463
59463
59463
59463
59463
59463
59463
59463
59463
59463
59463
59463
59463
59463
59463
59463
59463
59463
59463
59463
59463
59463
59463
59463
59463
59463
59463
59463
59463
59463
59463
59463
59463
59463
59463
59463
59463
59463
59463
59463
59463
59463
59463
59463
59463
59463
59463
59463
59463
59463
59463
59463
59463
59463
59463
59463
59463
59463
59463
59463
59463
59463
59463
59463
59463
59463
59463
59463
59463
59463
59463
59463
59463
59463
59463
59463
59463
59463
59463
59463
59463
59463
59463
59463
59463
59463
59463
59463
59463
59463
59463
59463
59463
59463
59463
59463
59463
59463
59463
59463
59463
59463
59463
59463
59463
59463
59463
59463
59463
59463
59463
59463
59463
59463
59463
59463
59463
59463
59463
59463
59463
59463
59463
59463
59463
59463
59463
59463
59463
59463
59463
59463
59463
59463
59463
59463
59463
59463
59463
59463
59463
59463
59463
59463
59463
59463
59463
59463
59463
59463
59463
59463
59463
59463
59463
59463
59463
59463
59463
59463
59463
59463
59463
59463
59463
59463
59463
59463
59463
59463
59463
59463
59463
59463
59463
59463
59463
59463
59463
59463
59463
59463
59463
59463
59463
59463
59463
59463
59463
59463
59463
59463
59463
59463
59463
59463
59463
59463
59463
59463
59463
59463
59463
59463
59463
59463
59463
59463
59463
59463
59463
59463
59463
59463
59463
59463
59463
59463
59463
59463
59463
59463
59463
59463
59463
59463
59463
59463
59463
59463
59463
59463
59463
59463
59463
59463
59463
59463
59463
59463
59463
59463
59463
59463
59463
59463
59463
59463
59463
59463
59463
59463
59463
59463
59463
59463
59463
59463
59463
59463
59463
59463
59463
59463
59463
59463
59463
59463
59463
59463
59463
59463
59463
59463
59463
59463
59463
59463
59463
59463
59463
59463
59463
59463
59463
59463
59463
59463
59463
59463
59463
59463
59463
59463
59463
59463
59463
59463
59463
59463
59463
59463
59463
59463
59463
59463
59463
59463
59463
59463
59463
59463
59463
59463
59463
59463
59463
59463
59463
59463
59463
59463
59463
59463
59463
59463
59463
59463
59463
59463
59463
59463
59463
59463
59463
59463
59463
59463
59463
59463
59463
59463
59463
59463
59463
59463
59463
59463
59463
59463
59463
59463
59463
59463
59463
59463
59463
59463
59463
59463
59463
59463
59463
59463
59463
59463
59463
59463
59463
59463
59463
59463
59463
59463
59463
59463
59463
59463
59463
59463
59463
59463
59463
59463
59463
59463
59463
59463
59463
59463
59463
59463
59463
59463
59463
59463
59463
59463
59463
59463
59463
59463
59463
59463
59463
59463
59463
59463
59463
59463
59463
59463
59463
59463
59463
59463
59463
59463
59463
59463
59463
59463
59463
59463
59463
59463
59463
59463
59463
59463
59463
59463
59463
59463
59463
59463
59463
59463
59463
59463
59463
59463
59463
59463
59463
59463
59463
59463
59463
59463
59463
59463
59463
59463
59463
59463
59463
59463
59463
59463
59463
59463
59463
59463
59463
59463
59463
59463
59463
59463
59463
59463
59463
59463
59463
59463
59463
59463
59463
59463
59463
59463
59463
59463
59463
59463
59463
59463
59463
59463
59463
59463
59463
59463
59463
59463
59463
59463
59463
59463
59463
59463
59463
59463
59463
59463
59463
59463
59463
59463
59463
59463
59463
59463
59463
59463
59463
59463
59463
59463
59463
59463
59463
59463
59463
59463
59463
59463
59463
59463
59463
59463
59463
59463
59463
59463
59463
59463
59463
59463
59463
59463
59463
59463
59463
59463
59463
59463
59463
59463
59463
59463
59463
59463
59463
59463
59463
59463
59463
59463
59463
59463
59463
59463
59463
59463
59463
59463
59463
59463
59463
59463
59463
59463
59463
59463
59463
59463
59463
59463
59463
59463
59463
59463
59463
59463
59463
59463
59463
59463
59463
59463
59463
59463
59463
59463
59463
59463
59463
59463
59463
59463
59463
59463
59463
59463
59463
59463
59463
59463
59463
59463
59463
59463
59463
59463
59463
59463
59463
59463
59463
59463
59463
59463
59463
59463
59463
59463
59463
59463
59463
59463
59463
59463
59463
59463
59463
59463
59463
59463
59463
59463
59463
59463
59463
59463
59463
59463
59463
59463
59463
59463
59463
59463
59463
59463
59463
59463
59463
59463
59463
59463
59463
59463
59463
59463
59463
59463
59463
59463
59463
59463
59463
59463
59463
59463
59463
59463
59463
59463
59463
59463
59463
59463
59463
59463
59463
59463
59463
59463
59463
59463
59463
59463
59463
59463
59463
59463
59463
59463
59463
59463
59463
59463
59463
59463
59463
59463
59463
59463
59463
59463
59463
59463
59463
59463
59463
59463
59463
59463
59463
59463
59463
59463
59463
59463
59463
59463
59463
59463
59463
59463
59463
59463
59463
59463
59463
59463
59463
59463
59463
59463
59463
59463
59463
59463
59463
59463
59463
59463
59463
59463
59463
59463
59463
59463
59463
59463
59463
59463
59463
59463
59463
59463
59463
59463
59463
59463
59463
59463
59463
59463
59463
59463
59463
59463
59463
59463
59463
59463
59463
59463
59463
59463
59463
59463
59463
59463
59463
59463
59463
59463
59463
59463
59463
59463
59463
